<svg width="36" height="33" viewBox="0 0 36 33" fill="none" xmlns="http://www.w3.org/2000/svg">
<path d="M33.7191 0.866581H25.939C25.6469 0.866559 25.3576 0.925746 25.0878 1.04076C24.8179 1.15578 24.5727 1.32436 24.3662 1.53689L6.00264 20.4251C5.79603 20.6375 5.63213 20.8897 5.52033 21.1672C5.40852 21.4448 5.35098 21.7423 5.35101 22.0428V30.0452C5.35099 30.3456 5.40851 30.6432 5.52029 30.9208C5.63207 31.1984 5.79592 31.4507 6.00248 31.6631C6.20905 31.8756 6.45428 32.0441 6.72418 32.1591C6.99407 32.2741 7.28335 32.3333 7.57548 32.3333H15.3556C15.6477 32.3333 15.937 32.2741 16.2068 32.1591C16.4767 32.0441 16.7219 31.8755 16.9284 31.6629L35.2922 12.7748C35.7093 12.3457 35.9436 11.7638 35.9436 11.157V3.15467C35.9436 2.85418 35.8861 2.55664 35.7743 2.27902C35.6625 2.00141 35.4987 1.74916 35.2921 1.53669C35.0855 1.32421 34.8403 1.15568 34.5704 1.0407C34.3005 0.925721 34.0112 0.866555 33.7191 0.866581V0.866581Z" fill="#28A8EA"/>
<path d="M33.7193 32.3333H25.939C25.3491 32.3333 24.7833 32.0923 24.3662 31.6632L20.6472 27.8381V20.6907C20.6472 19.6058 21.0663 18.5653 21.8121 17.7981C22.5579 17.031 23.5695 16.6 24.6243 16.6H31.5733L35.2921 20.4252C35.7093 20.8542 35.9436 21.4362 35.9436 22.0429V30.0454C35.9436 30.6522 35.7093 31.2342 35.2921 31.6632C34.875 32.0923 34.3092 32.3333 33.7193 32.3333Z" fill="#0078D4"/>
<path d="M7.57535 0.866581H15.3555C15.9455 0.866582 16.5112 1.10763 16.9284 1.53669L20.6473 5.36186V12.5092C20.6473 13.0464 20.5444 13.5784 20.3446 14.0747C20.1447 14.571 19.8518 15.0219 19.4825 15.4018C19.1132 15.7816 18.6747 16.083 18.1922 16.2885C17.7097 16.4941 17.1925 16.5999 16.6703 16.5999H9.72135L6.00244 12.7747C5.58534 12.3457 5.35101 11.7638 5.35101 11.157V3.15447C5.35101 2.54768 5.58536 1.96575 6.00251 1.53669C6.41965 1.10763 6.98542 0.866581 7.57535 0.866581V0.866581Z" fill="#50D9FF"/>
<path opacity="0.2" d="M19.3726 8.94963V26.217C19.374 26.305 19.3655 26.393 19.3471 26.479C19.2892 26.8337 19.1106 27.1556 18.8432 27.3874C18.5759 27.6192 18.2372 27.7457 17.8875 27.7444H5.35095V7.42218H17.8875C18.0827 7.42184 18.2759 7.46111 18.4562 7.53775C18.6366 7.61439 18.8004 7.72688 18.9384 7.86879C19.0763 8.0107 19.1857 8.17922 19.2602 8.36469C19.3347 8.55016 19.3729 8.74894 19.3726 8.94963H19.3726Z" fill="black"/>
<path opacity="0.1" d="M20.01 8.94958V24.9058C20.0047 25.4831 19.7794 26.0352 19.3825 26.4435C18.9856 26.8517 18.4488 27.0834 17.8875 27.0888H5.35095V6.76658H17.8875C18.4498 6.76862 18.9885 6.99927 19.3861 7.40822C19.7837 7.81717 20.0079 8.37124 20.0099 8.94958H20.01Z" fill="black"/>
<path opacity="0.2" d="M19.3726 8.94963V24.9059C19.373 25.1066 19.3348 25.3053 19.2603 25.4908C19.1857 25.6763 19.0764 25.8448 18.9384 25.9867C18.8004 26.1286 18.6366 26.2411 18.4562 26.3178C18.2759 26.3944 18.0827 26.4337 17.8875 26.4333H5.35095V7.42218H17.8875C18.0826 7.42184 18.2759 7.46111 18.4562 7.53775C18.6365 7.61439 18.8004 7.72689 18.9383 7.86879C19.0763 8.0107 19.1857 8.17922 19.2602 8.36469C19.3347 8.55017 19.3729 8.74894 19.3726 8.94963H19.3726Z" fill="black"/>
<path opacity="0.1" d="M18.7353 8.94963V24.9059C18.7356 25.1066 18.6974 25.3053 18.6229 25.4908C18.5484 25.6763 18.439 25.8448 18.3011 25.9867C18.1631 26.1286 17.9992 26.2411 17.8189 26.3178C17.6386 26.3944 17.4453 26.4337 17.2502 26.4333H5.35095V7.42218H17.2502C17.4453 7.42184 17.6386 7.46111 17.8189 7.53775C17.9992 7.61439 18.1631 7.72689 18.301 7.86879C18.439 8.0107 18.5484 8.17922 18.6229 8.36469C18.6974 8.55017 18.7356 8.74894 18.7352 8.94963H18.7353Z" fill="black"/>
<path d="M17.2483 7.42224H2.37686C1.55555 7.42224 0.88974 8.10707 0.88974 8.95185V24.2482C0.88974 25.093 1.55555 25.7778 2.37686 25.7778H17.2483C18.0696 25.7778 18.7354 25.093 18.7354 24.2482V8.95185C18.7354 8.10707 18.0696 7.42224 17.2483 7.42224Z" fill="#0078D4"/>
<path d="M12.7349 13.2443H8.5621V15.7542H12.4788V17.3627H8.5621V19.9696H12.9573V21.5714H6.66791V11.6286H12.7349V13.2443Z" fill="white"/>
</svg>
