<svg width="80" height="80" viewBox="0 0 80 80" fill="none" xmlns="http://www.w3.org/2000/svg">
<rect width="80" height="80" rx="10" fill="#EC2227"/>
<path d="M37.4374 61.9998C36.8739 61.9998 36.4166 61.5424 36.4166 60.9789V52.8123C36.4166 52.2488 36.8739 51.7915 37.4374 51.7915C38.0009 51.7915 38.4582 52.2488 38.4582 52.8123V60.9789C38.4582 61.5424 38.0009 61.9998 37.4374 61.9998Z" fill="white" stroke="white"/>
<path d="M43.5624 61.9998C42.9989 61.9998 42.5415 61.5424 42.5415 60.9789V52.8123C42.5415 52.2488 42.9989 51.7915 43.5624 51.7915C44.1259 51.7915 44.5832 52.2488 44.5832 52.8123V60.9789C44.5832 61.5424 44.1259 61.9998 43.5624 61.9998Z" fill="white" stroke="white"/>
<path d="M49.6873 61.9997H31.3124C30.7489 61.9997 30.2916 61.5423 30.2916 60.9788C30.2916 60.4153 30.7489 59.958 31.3124 59.958H49.6873C50.2508 59.958 50.7081 60.4153 50.7081 60.9788C50.7081 61.5423 50.2508 61.9997 49.6873 61.9997Z" fill="white" stroke="white"/>
<path d="M61.9372 53.833H19.0625C17.374 53.833 16 52.4589 16 50.7705V24.229C16 22.5405 17.374 21.1665 19.0625 21.1665H27.2291C27.7926 21.1665 28.2499 21.6238 28.2499 22.1873C28.2499 22.7508 27.7926 23.2082 27.2291 23.2082H19.0625C18.501 23.2082 18.0417 23.6655 18.0417 24.229V50.7705C18.0417 51.334 18.501 51.7913 19.0625 51.7913H61.9372C62.4986 51.7913 62.958 51.334 62.958 50.7705V24.229C62.958 23.6655 62.4986 23.2082 61.9372 23.2082H59.8955C59.332 23.2082 58.8747 22.7508 58.8747 22.1873C58.8747 21.6238 59.332 21.1665 59.8955 21.1665H61.9372C63.6256 21.1665 64.9997 22.5405 64.9997 24.229V50.7705C64.9997 52.4589 63.6256 53.833 61.9372 53.833Z" fill="white" stroke="white"/>
<path d="M42.0495 37.1691C41.7881 37.1691 41.5268 37.069 41.3267 36.871L33.9829 29.5272C33.597 29.1434 33.5807 28.5247 33.9462 28.1225L39.9629 21.4443C44.234 16.5096 51.0103 13.1082 56.8127 13C57.1536 13.0041 57.3598 13.1041 57.5538 13.2981C57.7498 13.4941 57.858 13.7615 57.8519 14.0392C57.7416 19.8416 54.3423 26.6199 49.3913 30.9053L42.7294 36.9078C42.5374 37.0833 42.2924 37.1691 42.0495 37.1691ZM36.1124 28.7697L42.0862 34.7436L48.0438 29.3761C52.2822 25.7072 55.2773 20.105 55.749 15.1049C50.751 15.5786 45.1508 18.5717 41.4942 22.7959L36.1124 28.7697Z" fill="white" stroke="white"/>
<path d="M44.7955 43.0541C44.7036 43.0541 44.6097 43.0419 44.5178 43.0153C44.1605 42.9153 43.887 42.6315 43.8012 42.2701L42.3598 36.2472C42.2291 35.698 42.5681 35.1488 43.1152 35.0161C43.6665 34.8814 44.2157 35.2244 44.3463 35.7715L45.3039 39.7691C47.076 36.9965 47.4313 33.4461 47.468 31.3677C47.4782 30.8062 47.9744 30.3938 48.5072 30.3652C49.0687 30.3754 49.5178 30.843 49.5076 31.4044C49.4219 36.235 48.005 40.2652 45.5162 42.754C45.3222 42.95 45.0609 43.0541 44.7955 43.0541Z" fill="white" stroke="white"/>
<path d="M34.8431 28.5226C34.7655 28.5226 34.6859 28.5144 34.6062 28.494L28.5834 27.0506C28.222 26.9648 27.9382 26.6933 27.8382 26.336C27.7381 25.9807 27.8382 25.599 28.0995 25.3376C30.5883 22.8488 34.6165 21.4319 39.449 21.3462C39.9819 21.3748 40.478 21.7851 40.4883 22.3486C40.4985 22.9121 40.0493 23.3776 39.4858 23.3878C37.4074 23.4246 33.859 23.7778 31.0864 25.552L35.084 26.5095C35.6332 26.6402 35.9721 27.1914 35.8394 27.7406C35.7251 28.2082 35.3065 28.5226 34.8431 28.5226Z" fill="white" stroke="white"/>
<path d="M28.2499 43.6244C27.9824 43.6244 27.7211 43.5203 27.5272 43.3263C27.2617 43.0609 27.1637 42.6709 27.272 42.3116C27.6088 41.1846 29.3585 35.4966 30.7305 34.1246C32.3863 32.4708 35.0731 32.4708 36.7289 34.1246C38.3826 35.7783 38.3806 38.4692 36.7289 40.123C35.3569 41.4929 29.6689 43.2467 28.5419 43.5836C28.4479 43.6101 28.3479 43.6244 28.2499 43.6244ZM33.7317 34.9249C33.1703 34.9249 32.6047 35.1372 32.176 35.566C31.5982 36.1458 30.5978 38.704 29.8199 41.0335C32.1515 40.2536 34.7097 39.2573 35.2875 38.6775C36.1429 37.82 36.1429 36.4235 35.2875 35.568C34.8567 35.1393 34.2952 34.9249 33.7317 34.9249ZM36.0082 39.4002H36.0286H36.0082Z" fill="white" stroke="white"/>
</svg>
