<svg width="50" height="50" viewBox="0 0 50 50" fill="none" xmlns="http://www.w3.org/2000/svg">
<path d="M6.43471 37.2519L12.7474 43.5646C19.6566 50.4738 30.2909 51.9324 38.7697 47.3925C39.0166 47.2747 40.1407 46.6361 41.15 45.9137C43.3366 44.3492 43.5742 41.1482 41.6587 39.2326L35.6326 33.2065C33.9193 31.4932 31.1312 31.493 29.4177 33.2065L27.3462 35.2781C25.6289 36.9955 22.8491 36.9957 21.1313 35.2781L14.7211 28.8679C13.0039 27.1507 13.0033 24.3715 14.7206 22.6536C14.7207 22.6535 14.7208 22.6535 14.7208 22.6534L14.7213 22.6529L16.7927 20.5815C18.5062 18.868 18.5062 16.0801 16.7927 14.3667L10.7667 8.34055C8.85191 6.42579 5.65052 6.66192 4.08557 8.84914C-2.06993 17.4514 -1.2542 29.5631 6.43471 37.2519ZM33.561 35.2782L39.5871 41.3042C40.2184 41.9357 40.1659 43.0156 39.4452 43.5312C39.0962 43.7809 38.7406 44.017 38.3789 44.2398L30.4533 36.3141L31.4893 35.2781C32.0607 34.7069 32.9899 34.7071 33.561 35.2782ZM19.0598 37.3497C21.5878 39.8776 25.4628 40.1515 28.2782 38.2823L35.6291 45.6332C28.6503 48.4755 20.3052 46.9793 14.8188 41.4929L8.5061 35.1803C3.01984 29.6939 1.52364 21.3488 4.36585 14.37L11.7168 21.7209C9.84957 24.5333 10.1186 28.4086 12.6495 30.9394L19.0598 37.3497ZM8.69507 10.4122L14.7212 16.4383C15.2936 17.0109 15.2937 17.9375 14.7212 18.5099L13.6851 19.546L5.75951 11.6203C5.98226 11.2587 6.2184 10.9031 6.46811 10.554C6.98295 9.83469 8.06294 9.78011 8.69507 10.4122Z" fill="#EC2227"/>
<path d="M29.4914 2.9297C39.184 2.9297 47.0696 10.8153 47.0696 20.5079C47.0696 21.3169 47.7255 21.9728 48.5344 21.9728C49.3434 21.9728 49.9993 21.3169 49.9993 20.5079C49.9993 9.19986 40.7995 0 29.4914 0C28.6824 0 28.0265 0.655863 28.0265 1.46485C28.0265 2.27384 28.6824 2.9297 29.4914 2.9297Z" fill="#EC2227"/>
<path d="M29.4914 20.5067C29.4914 20.5067 29.4915 20.5071 29.4915 20.5081C29.4915 21.317 30.1473 21.9729 30.9563 21.9729C31.7653 21.9729 32.4212 21.317 32.4212 20.5081C32.4212 18.8926 31.1069 17.5784 29.4915 17.5784C28.6825 17.5784 28.0266 18.2335 28.0266 19.0425C28.0265 19.8515 28.6823 20.5067 29.4914 20.5067Z" fill="#EC2227"/>
<path d="M29.4914 14.6484C32.7222 14.6484 35.3508 17.277 35.3508 20.5078C35.3508 21.3168 36.0066 21.9727 36.8156 21.9727C37.6246 21.9727 38.2805 21.3168 38.2805 20.5078C38.2805 15.6615 34.3377 11.7188 29.4914 11.7188C28.6824 11.7188 28.0265 12.3746 28.0265 13.1836C28.0265 13.9926 28.6824 14.6484 29.4914 14.6484Z" fill="#EC2227"/>
<path d="M29.4914 8.78906C35.9531 8.78906 41.2101 14.0461 41.2101 20.5078C41.2101 21.3168 41.866 21.9727 42.675 21.9727C43.484 21.9727 44.1398 21.3168 44.1398 20.5078C44.1398 12.4307 37.5685 5.85938 29.4914 5.85938C28.6824 5.85938 28.0265 6.51523 28.0265 7.32422C28.0265 8.1332 28.6824 8.78906 29.4914 8.78906Z" fill="#EC2227"/>
</svg>
