<svg width="50" height="50" viewBox="0 0 50 50" fill="none" xmlns="http://www.w3.org/2000/svg">
<g clip-path="url(#clip0)">
<path d="M49.7963 21.3241L41.4276 10.453C41.1179 10.0509 40.5529 9.95176 40.1245 10.2241L34.7214 13.6604H27.6745C27.5833 13.6604 27.4925 13.6799 27.4048 13.7054L21.941 15.2782L16.2716 13.7276L10.7628 10.2241C10.3416 9.95634 9.78698 10.0471 9.4738 10.4355L0.217432 21.9009C-0.11521 22.3129 -0.0602782 22.9145 0.341028 23.2597L5.19256 27.4349L9.54513 33.3004C8.27217 34.6565 8.29696 36.7954 9.62142 38.1203C10.2085 38.707 10.955 39.0385 11.7229 39.1155C11.6962 39.2895 11.6825 39.4661 11.6825 39.6454C11.6825 40.5708 12.043 41.441 12.6972 42.0952C13.3518 42.7498 14.2219 43.1103 15.1474 43.1103C15.16 43.1103 15.1722 43.1095 15.1844 43.1091C15.184 43.1328 15.1829 43.156 15.1829 43.1797C15.1829 44.1051 15.5434 44.9753 16.1976 45.6299C16.8522 46.2841 17.7223 46.6446 18.6478 46.6446C18.8305 46.6446 19.0113 46.6297 19.1887 46.6022C19.2638 47.3728 19.5961 48.1228 20.1851 48.7118C20.8603 49.3874 21.7476 49.725 22.6349 49.725C23.5222 49.725 24.4095 49.3874 25.0851 48.7118L25.6149 48.1819L25.8373 48.3612C26.5072 49.0101 27.3769 49.3343 28.2467 49.3343C29.134 49.3343 30.0213 48.9967 30.6965 48.3211C31.3858 47.6318 31.7234 46.722 31.7093 45.8168C32.6141 45.8305 33.5243 45.4933 34.2136 44.8044C34.9022 44.1154 35.2398 43.2064 35.2264 42.3015C36.1691 42.3164 37.0632 41.9544 37.7304 41.2872C38.4197 40.5979 38.7573 39.6881 38.7432 38.7829C39.6488 38.7966 40.5582 38.4594 41.2476 37.7701C42.424 36.5936 42.5755 34.7751 41.703 33.4328L44.8811 26.7769L49.659 22.6654C50.0538 22.3255 50.1141 21.7365 49.7963 21.3241ZM10.4492 12.3485L14.4104 14.8674L5.79338 25.3654L2.34031 22.3934L10.4492 12.3485ZM11.0081 34.6065L12.2036 33.411C12.2398 33.3748 12.278 33.3404 12.3169 33.3084C12.5507 33.1177 12.8338 33.004 13.1336 32.9769C13.142 32.9761 13.1508 32.9761 13.1592 32.9758C13.2019 32.9723 13.2446 32.97 13.2877 32.9704C13.6974 32.9761 14.0781 33.1436 14.3604 33.4415C14.9143 34.0271 14.8846 34.9838 14.294 35.5743L13.1348 36.7336C12.5484 37.3199 11.5944 37.3199 11.0081 36.7336C10.4217 36.1469 10.4217 35.1929 11.0081 34.6065ZM14.0839 40.7085C13.7997 40.4247 13.6433 40.0471 13.6433 39.6454C13.6433 39.2437 13.7997 38.866 14.0839 38.5818L16.402 36.2636C16.8461 35.8196 17.5442 35.6979 18.1118 35.9684C18.697 36.2472 19.0262 36.8824 18.9403 37.5214C18.8946 37.8624 18.7359 38.1836 18.4925 38.4273L16.2109 40.7085C15.9267 40.9927 15.5491 41.1491 15.1474 41.1491C14.7457 41.1491 14.3681 40.9927 14.0839 40.7085ZM17.5842 44.2428C17.3 43.959 17.1436 43.5814 17.1436 43.1797C17.1436 42.778 17.3 42.4003 17.5842 42.1162L19.902 39.798C20.377 39.3234 21.1388 39.2212 21.7201 39.5595C22.2511 39.8685 22.5292 40.4751 22.438 41.0793C22.3881 41.4116 22.2301 41.724 21.9925 41.9617L19.7113 44.2428C19.4271 44.527 19.0494 44.6834 18.6478 44.6834C18.2461 44.6834 17.8684 44.527 17.5842 44.2428ZM21.5713 47.3251C20.985 46.7388 20.985 45.7847 21.5713 45.1984L22.7669 44.0029C22.8031 43.9667 22.8409 43.9327 22.8798 43.9007C22.8809 43.8999 22.8817 43.8991 22.8825 43.8984C23.077 43.7405 23.3055 43.6348 23.5493 43.5886C23.555 43.5879 23.5607 43.5871 23.5664 43.5863C23.6084 43.5787 23.6511 43.5726 23.6938 43.5688C23.711 43.5673 23.7282 43.5673 23.7457 43.5661C23.7808 43.5642 23.8155 43.5619 23.851 43.5623C24.2603 43.568 24.6414 43.7351 24.9237 44.0334C24.9584 44.07 24.9908 44.1082 25.0206 44.1475C25.4715 44.7369 25.4108 45.6123 24.8512 46.1723L23.698 47.3255C23.1117 47.9118 22.1577 47.9114 21.5713 47.3251ZM39.8609 36.3834C39.2746 36.9701 38.3205 36.9697 37.7342 36.3834C37.7129 36.3621 37.6904 36.3422 37.6675 36.3235L31.3633 29.953C30.9822 29.5681 30.3616 29.565 29.9767 29.9461C29.5917 30.3268 29.5887 30.9475 29.9694 31.3324L36.3419 37.7712C36.3426 37.772 36.3434 37.7727 36.3441 37.7735C36.9305 38.3598 36.9305 39.3143 36.3441 39.9006C36.06 40.1848 35.6823 40.3412 35.2806 40.3412C34.8785 40.3412 34.5009 40.1848 34.2171 39.9006L29.9541 35.5934C29.5734 35.2085 28.9528 35.2054 28.5679 35.5862C28.183 35.9672 28.1799 36.5879 28.5606 36.9728L32.7583 41.214C32.7797 41.2407 32.8026 41.2662 32.827 41.2907C33.4133 41.877 33.4133 42.8314 32.827 43.4177C32.2403 44.004 31.2859 44.0037 30.6995 43.4173L28.373 41.0663C27.9919 40.6814 27.3712 40.678 26.9863 41.0591C26.6014 41.4398 26.5984 42.0605 26.9791 42.4454L29.2408 44.7304C29.2622 44.7571 29.285 44.783 29.3098 44.8074C29.8962 45.3937 29.8962 46.3482 29.3098 46.9345C28.7235 47.5212 27.7695 47.5208 27.1831 46.9345C27.1156 46.867 27.0363 46.8151 26.9608 46.7571C26.8967 46.7083 26.8799 46.6743 26.9119 46.5965C26.9443 46.5176 26.9928 46.4462 27.0252 46.3669C27.0611 46.2784 27.0901 46.1872 27.1183 46.0956C27.2686 45.6112 27.3128 45.0901 27.2453 44.5873C27.1156 43.6226 26.585 42.7521 25.7809 42.2012C25.3464 41.9041 24.8436 41.7091 24.3225 41.6359C24.575 40.522 24.2718 39.3143 23.4829 38.4807C22.8336 37.7949 21.9566 37.41 21.0133 37.397C20.9789 37.3966 20.9446 37.3966 20.9099 37.397C20.9309 36.4967 20.6036 35.6022 19.9829 34.9464C19.3333 34.2605 18.4563 33.8756 17.5133 33.8627C17.2329 33.8589 16.9498 33.8886 16.6767 33.9516C16.56 33.1394 16.1507 32.3879 15.5308 31.8504C14.9147 31.3171 14.1399 31.0211 13.3148 31.0097C12.4462 30.9971 11.5929 31.3175 10.9478 31.9L7.15789 26.7933L16.2247 15.7474L19.1143 16.5378L15.3404 23.1972C14.8842 24.0024 14.769 24.937 15.0158 25.8289C15.2626 26.7212 15.8417 27.4635 16.647 27.9198C16.6973 27.9484 16.748 27.9754 16.7995 28.0014C16.8034 28.0033 16.8072 28.0052 16.8114 28.0071C16.9468 28.0746 17.086 28.1326 17.2272 28.1814C17.8844 28.4092 18.5944 28.434 19.2791 28.2448C20.171 27.998 20.9133 27.4185 21.3695 26.6136L23.822 22.2858L28.2009 22.5963L39.8613 34.2563C40.4472 34.8431 40.4472 35.7971 39.8609 36.3834ZM40.2672 31.8893L29.3285 20.9511C29.3079 20.9301 29.2862 20.9102 29.2637 20.8916C29.1061 20.7603 28.9108 20.681 28.7048 20.6665L23.3433 20.2862C22.9725 20.2606 22.604 20.4578 22.4209 20.7809L19.6636 25.647C19.4656 25.9964 19.1433 26.2478 18.7561 26.355C18.3693 26.4622 17.9634 26.4118 17.6136 26.2138C17.2642 26.0158 17.0128 25.6935 16.9056 25.3063C16.7984 24.9191 16.8484 24.5132 17.0467 24.1638L20.7275 17.6678L22.2191 17.2386C22.229 17.2355 22.2385 17.2317 22.2485 17.2287L27.8152 15.6212H34.5413L42.9382 26.2955L40.2672 31.8893ZM44.2226 24.7566L36.4574 14.88L40.4205 12.3596L47.6765 21.7846L44.2226 24.7566Z" fill="#EC2227" stroke="#EC2227" stroke-width="0.5"/>
<path d="M30.2914 11.8194C30.5424 11.8194 30.7934 11.7236 30.9849 11.5321L37.682 4.83502C38.065 4.45203 38.065 3.83138 37.682 3.44838C37.299 3.06538 36.6783 3.06538 36.2953 3.44838L29.5982 10.1455C29.2152 10.5285 29.2152 11.1491 29.5982 11.5321C29.7897 11.7236 30.0407 11.8194 30.2914 11.8194Z" fill="#EC2227" stroke="#EC2227" stroke-width="0.5"/>
<path d="M19.0151 11.5321C19.2066 11.7236 19.4576 11.8194 19.7086 11.8194C19.9593 11.8194 20.2103 11.7236 20.4018 11.5321C20.7848 11.1491 20.7848 10.5285 20.4018 10.1455L13.7047 3.44838C13.3217 3.06538 12.701 3.06538 12.318 3.44838C11.935 3.83138 11.935 4.45203 12.318 4.83502L19.0151 11.5321Z" fill="#EC2227" stroke="#EC2227" stroke-width="0.5"/>
<path d="M25 11.8195C25.5413 11.8195 25.9804 11.3805 25.9804 10.8392V5.29678C25.9804 4.75548 25.5413 4.31641 25 4.31641C24.4587 4.31641 24.0196 4.75548 24.0196 5.29678V10.8392C24.0196 11.3805 24.4587 11.8195 25 11.8195Z" fill="#EC2227" stroke="#EC2227" stroke-width="0.5"/>
<path d="M24.0952 1.74331C24.2508 2.12058 24.6387 2.36816 25.0481 2.34679C25.4524 2.32581 25.8076 2.05268 25.9327 1.66778C26.0582 1.27982 25.9216 0.837699 25.5966 0.590507C25.2651 0.337974 24.8028 0.323859 24.456 0.553123C24.0692 0.808707 23.9193 1.31759 24.0952 1.74331Z" fill="#EC2227" stroke="#EC2227" stroke-width="0.5"/>
</g>
<defs>
<clipPath id="clip0">
<rect width="50" height="50" fill="white"/>
</clipPath>
</defs>
</svg>
