<svg width="34" height="32" viewBox="0 0 34 32" fill="none" xmlns="http://www.w3.org/2000/svg">
<path d="M33.0612 16.8311C33.0621 16.704 33.031 16.5788 32.971 16.4677C32.9111 16.3566 32.8242 16.2633 32.7189 16.1969H32.7152L32.7017 16.1892L21.5655 9.40882C21.5174 9.3754 21.4675 9.34486 21.416 9.31735C21.2041 9.2049 20.9691 9.14622 20.7307 9.14622C20.4922 9.14622 20.2572 9.2049 20.0453 9.31735C19.9938 9.34487 19.9439 9.37541 19.8958 9.40882L8.75965 16.1892L8.74621 16.1969C8.40585 16.4146 8.30151 16.8749 8.51316 17.2249C8.57552 17.3281 8.66142 17.414 8.76339 17.4753L19.8996 24.2557C19.9478 24.2888 19.9977 24.3193 20.0491 24.3472C20.261 24.4596 20.496 24.5183 20.7344 24.5183C20.9729 24.5183 21.2079 24.4596 21.4198 24.3472C21.4711 24.3193 21.521 24.2888 21.5693 24.2557L32.7055 17.4753C32.8148 17.4098 32.9052 17.3156 32.9677 17.2025C33.0302 17.0893 33.0624 16.9612 33.0612 16.8311V16.8311Z" fill="#0A2767"/>
<path d="M10.0578 12.3041H17.3659V19.1944H10.0578V12.3041ZM31.5664 5.30001V2.14813C31.5839 1.36009 30.9775 0.706395 30.2114 0.687511H11.2469C10.4808 0.706395 9.87436 1.36009 9.89191 2.14813V5.30001L21.1028 8.375L31.5664 5.30001Z" fill="#0364B8"/>
<path d="M9.89197 5.29992H17.3659V12.2187H9.89197V5.29992Z" fill="#0078D4"/>
<path d="M24.8399 5.29992H17.3659V12.2187L24.8399 19.1374H31.5664V12.2187L24.8399 5.29992Z" fill="#28A8EA"/>
<path d="M17.3659 12.2188H24.8398V19.1375H17.3659V12.2188Z" fill="#0078D4"/>
<path d="M17.3659 19.1375H24.8398V26.0562H17.3659V19.1375Z" fill="#0364B8"/>
<path d="M10.0579 19.1944H17.3659V25.4582H10.0579V19.1944Z" fill="#14447D"/>
<path d="M24.8398 19.1375H31.5663V26.0562H24.8398V19.1375Z" fill="#0078D4"/>
<path d="M32.7188 17.4331L32.7046 17.4408L21.5684 23.8829C21.5198 23.9136 21.4705 23.9429 21.4189 23.969C21.2298 24.0616 21.0244 24.1139 20.815 24.1228L20.2067 23.7568C20.1553 23.7303 20.1053 23.7008 20.0572 23.6684L8.77153 17.0433H8.7663L8.39709 16.8312V29.8722C8.40285 30.7423 9.09306 31.4429 9.93896 31.4374H31.5431C31.5559 31.4374 31.5671 31.4313 31.5805 31.4313C31.7592 31.4195 31.9353 31.3817 32.1037 31.319C32.1764 31.2873 32.2467 31.2498 32.3137 31.2068C32.3638 31.1776 32.4497 31.1138 32.4497 31.1138C32.6385 30.9701 32.7921 30.783 32.8983 30.5675C33.0044 30.3519 33.0602 30.1139 33.0611 29.8723V16.8312C33.061 16.9537 33.0292 17.074 32.9691 17.1797C32.9089 17.2855 32.8226 17.3729 32.7188 17.4331V17.4331Z" fill="url(#paint0_linear)"/>
<path opacity="0.5" d="M32.4632 16.7797V17.5792L20.8188 25.8256L8.76333 17.0488C8.76333 17.0467 8.76255 17.0448 8.76114 17.0433C8.75974 17.0419 8.75784 17.0411 8.75586 17.0411L7.64972 16.3569V15.7803L8.10563 15.7726L9.06976 16.3415L9.09218 16.3492L9.17439 16.403C9.17439 16.403 20.5049 23.0527 20.5348 23.0681L20.9683 23.3294C21.0056 23.3141 21.043 23.2987 21.0879 23.2833C21.1103 23.2679 32.3361 16.772 32.3361 16.772L32.4632 16.7797Z" fill="#0A2767"/>
<path d="M32.7189 17.4331L32.7047 17.4415L21.5685 23.8837C21.5199 23.9144 21.4706 23.9436 21.419 23.9698C21.2056 24.077 20.9712 24.1327 20.7336 24.1327C20.4961 24.1327 20.2617 24.077 20.0483 23.9698C19.9971 23.9437 19.9472 23.9149 19.8988 23.8837L8.76263 17.4415L8.74918 17.4331C8.64361 17.3742 8.55528 17.2874 8.49338 17.1815C8.43148 17.0757 8.39825 16.9547 8.39716 16.8312V29.8722C8.40251 30.7422 9.09247 31.4429 9.93822 31.4374H31.52C32.3658 31.443 33.0558 30.7422 33.0612 29.8723C33.0612 29.8723 33.0612 29.8723 33.0612 29.8723V16.8312C33.061 16.9537 33.0293 17.074 32.9691 17.1797C32.909 17.2855 32.8226 17.3729 32.7189 17.4331V17.4331Z" fill="#1490DF"/>
<path opacity="0.1" d="M21.7307 23.7885L21.564 23.8846C21.5157 23.9162 21.4658 23.9452 21.4145 23.9714C21.2309 24.0641 21.0313 24.1185 20.8271 24.1313L25.0641 29.285L32.4551 31.1169C32.6576 30.9596 32.8187 30.7527 32.9237 30.515L21.7307 23.7885Z" fill="black"/>
<path opacity="0.05" d="M22.4856 23.3518L21.564 23.8845C21.5157 23.9162 21.4658 23.9452 21.4145 23.9714C21.2309 24.0641 21.0313 24.1185 20.8271 24.1313L22.8122 29.7609L32.4573 31.1146C32.6447 30.9699 32.7968 30.7823 32.9016 30.5667C33.0065 30.3511 33.0611 30.1134 33.0612 29.8723V29.704L22.4856 23.3518Z" fill="black"/>
<path d="M9.95921 31.4374H31.5178C31.8495 31.4391 32.1731 31.3313 32.4408 31.1299L20.206 23.7584C20.1546 23.7318 20.1047 23.7023 20.0565 23.67L8.77084 17.0449H8.76561L8.39716 16.8312V29.8276C8.39631 30.7158 9.09566 31.4365 9.95921 31.4374C9.95919 31.4374 9.95919 31.4374 9.95921 31.4374Z" fill="#28A8EA"/>
<path opacity="0.1" d="M18.8606 8.24673V24.6442C18.8593 25.2191 18.5194 25.7358 18.0011 25.951C17.8406 26.022 17.6676 26.0586 17.4929 26.0587H8.39709V7.60636H9.89189V6.83762H17.4929C18.2479 6.84056 18.859 7.4701 18.8606 8.24673V8.24673Z" fill="black"/>
<path opacity="0.2" d="M18.1132 9.01538V25.4128C18.1151 25.5985 18.0768 25.7823 18.0011 25.9509C17.7936 26.4771 17.2976 26.8224 16.7455 26.825H8.39709V7.60627H16.7455C16.9624 7.60404 17.1761 7.65966 17.3658 7.76772C17.824 8.00513 18.1131 8.48772 18.1132 9.01538V9.01538Z" fill="black"/>
<path opacity="0.2" d="M18.1132 9.01538V23.8753C18.1096 24.6516 17.5002 25.2808 16.7455 25.2875H8.39709V7.60627H16.7455C16.9624 7.60404 17.1761 7.65966 17.3658 7.76772C17.824 8.00513 18.1131 8.48772 18.1132 9.01538V9.01538Z" fill="black"/>
<path opacity="0.2" d="M17.3658 9.01534V23.8753C17.365 24.6528 16.754 25.2837 15.9981 25.2875H8.39709V7.60623H15.9981C16.7539 7.60665 17.3662 8.2372 17.3658 9.01459C17.3658 9.01484 17.3658 9.01509 17.3658 9.01534V9.01534Z" fill="black"/>
<path d="M2.29319 7.60623H15.9959C16.7526 7.60623 17.3659 8.23712 17.3659 9.01534V23.1096C17.3659 23.8878 16.7526 24.5187 15.9959 24.5187H2.29319C1.53657 24.5187 0.923218 23.8878 0.923218 23.1096V9.01534C0.923218 8.23712 1.53658 7.60623 2.29319 7.60623Z" fill="url(#paint1_linear)"/>
<path d="M5.20501 13.5163C5.54266 12.7763 6.08768 12.1571 6.77007 11.7382C7.52577 11.2932 8.38622 11.0713 9.25665 11.097C10.0634 11.0791 10.8595 11.2894 11.5579 11.7051C12.2145 12.1079 12.7434 12.6981 13.0803 13.4041C13.4472 14.1819 13.6301 15.038 13.614 15.9025C13.6317 16.8059 13.4436 17.701 13.0646 18.5162C12.7197 19.2474 12.174 19.8586 11.4951 20.2744C10.7697 20.7028 9.94415 20.9187 9.10792 20.8986C8.28394 20.919 7.47032 20.7063 6.75587 20.2836C6.09352 19.8803 5.558 19.2894 5.21325 18.5816C4.84418 17.8149 4.65914 16.9685 4.67363 16.1131C4.65826 15.2174 4.83991 14.3297 5.20501 13.5163V13.5163ZM6.8732 17.6906C7.05323 18.1584 7.35851 18.5641 7.75363 18.8606C8.15607 19.15 8.63798 19.2992 9.12883 19.2865C9.65156 19.3078 10.1668 19.1534 10.5967 18.8468C10.9868 18.5512 11.2841 18.1444 11.4517 17.6768C11.6391 17.1545 11.7316 16.6013 11.7245 16.0447C11.7303 15.4828 11.6434 14.9239 11.4674 14.3919C11.312 13.9116 11.0243 13.488 10.6393 13.1727C10.2202 12.8515 9.70631 12.6886 9.18413 12.7114C8.68265 12.6981 8.18995 12.8485 7.77679 13.1411C7.37499 13.4389 7.06391 13.8482 6.87992 14.3212C6.47177 15.4052 6.46964 16.6066 6.87394 17.6921L6.8732 17.6906Z" fill="white"/>
<path d="M24.8398 5.29992H31.5663V12.2187H24.8398V5.29992Z" fill="#50D9FF"/>
<defs>
<linearGradient id="paint0_linear" x1="20.7291" y1="16.8312" x2="20.7291" y2="31.4374" gradientUnits="userSpaceOnUse">
<stop stop-color="#35B8F1"/>
<stop offset="1" stop-color="#28A8EA"/>
</linearGradient>
<linearGradient id="paint1_linear" x1="3.77965" y1="6.50517" x2="14.9692" y2="25.3467" gradientUnits="userSpaceOnUse">
<stop stop-color="#1784D9"/>
<stop offset="0.5" stop-color="#107AD5"/>
<stop offset="1" stop-color="#0A63C9"/>
</linearGradient>
</defs>
</svg>
