<svg width="46" height="48" viewBox="0 0 46 48" fill="none" xmlns="http://www.w3.org/2000/svg">
<path d="M15.4845 29.3359L14.2685 30.5161C14.0968 30.683 14 30.912 14 31.1512V31.6549C14 32.1437 14.3964 32.5401 14.8854 32.5401H22.1461C22.6356 32.5401 23.0317 32.1437 23.0317 31.6549V31.003C23.0317 30.5142 22.6356 30.1176 22.1461 30.1176H18.1343L18.2449 30.0159C20.8669 27.4898 22.7226 25.5015 22.7226 22.9127C22.7226 20.8427 21.3774 18.7542 18.371 18.7542C17.0585 18.7542 15.7732 19.1754 14.7515 19.9398C14.4197 20.1887 14.3045 20.6347 14.4753 21.0131L14.6986 21.5069C14.8071 21.7471 15.0163 21.9265 15.2708 21.9963C15.5237 22.0662 15.7966 22.019 16.0125 21.8683C16.6695 21.4095 17.3457 21.1767 18.0232 21.1767C19.3418 21.1767 20.0101 21.8323 20.0101 23.1162C19.9925 24.8562 18.5493 26.4182 15.4845 29.3359Z" fill="#EC2227"/>
<path d="M29.6809 18.9696C29.6573 18.9675 29.6334 18.9666 29.6099 18.9666H29.3395C29.05 18.9666 28.7792 19.1079 28.6137 19.3448L23.1912 27.1048C23.0873 27.2535 23.0317 27.4306 23.0317 27.612V28.234C23.0317 28.723 23.4279 29.1194 23.9168 29.1194H28.8679V31.6547C28.8679 32.1435 29.264 32.5399 29.7529 32.5399H30.5983C31.087 32.5399 31.4838 32.1435 31.4838 31.6547V29.1194H32.3567C32.8456 29.1194 33.2422 28.723 33.2422 28.234V27.6591C33.2422 27.1705 32.8456 26.7739 32.3567 26.7739H31.4838V19.8519C31.4838 19.3633 31.087 18.9667 30.5983 18.9667H29.7529C29.7287 18.9667 29.7045 18.9676 29.6809 18.9696ZM28.8679 26.7739H26.1944C26.8736 25.7878 28.0349 24.0953 28.8679 22.8444V26.7739Z" fill="#EC2227"/>
<path d="M23.0322 43.7039C12.9309 43.7039 4.71262 35.4857 4.71262 25.3843C4.71262 15.8192 12.0819 7.94414 21.4406 7.13452V10.0548C21.4406 10.2622 21.5551 10.4529 21.738 10.5503C21.8209 10.5945 21.9116 10.6162 22.0021 10.6162C22.1115 10.6162 22.221 10.5842 22.3151 10.5207L28.9459 6.06577C29.1012 5.96153 29.1943 5.78674 29.1943 5.59963C29.1943 5.41267 29.1012 5.23774 28.9459 5.1335L22.3151 0.678524C22.143 0.562843 21.921 0.551261 21.7379 0.649121C21.5549 0.746685 21.4404 0.937358 21.4404 1.14466V3.40987C10.0323 4.22839 1 13.7708 1 25.3842C1 37.5327 10.8838 47.4162 23.0321 47.4162C28.6566 47.4162 34.0112 45.297 38.1095 41.4491L35.5685 38.7425C32.161 41.942 27.709 43.7039 23.0322 43.7039Z" fill="#EC2227"/>
<path d="M41.8391 13.9019C41.0801 12.6606 40.1925 11.4885 39.2019 10.4187L36.4778 12.941C37.3023 13.8312 38.0404 14.8064 38.6721 15.8389L41.8391 13.9019Z" fill="#EC2227"/>
<path d="M41.1847 22.8962L44.8635 22.3968C44.6672 20.9505 44.3252 19.52 43.8469 18.145L40.3405 19.3643C40.7376 20.5062 41.0215 21.6944 41.1847 22.8962Z" fill="#EC2227"/>
<path d="M35.6684 7.3338C34.4738 6.49582 33.1918 5.77516 31.8579 5.19141L30.3697 8.59248C31.4781 9.07763 32.5437 9.67667 33.5367 10.3731L35.6684 7.3338Z" fill="#EC2227"/>
<path d="M37.1843 37.0177L40.0507 39.3769C40.978 38.2502 41.7956 37.0281 42.4806 35.7443L39.2055 33.9963C38.6358 35.0637 37.9559 36.0804 37.1843 37.0177Z" fill="#EC2227"/>
<path d="M41.2977 26.801C41.2053 28.0123 40.9916 29.2162 40.6631 30.3788L44.2356 31.3889C44.6315 29.9892 44.8884 28.5407 44.9998 27.0839L41.2977 26.801Z" fill="#EC2227"/>
</svg>
