<svg width="60" height="60" viewBox="0 0 60 60" fill="none" xmlns="http://www.w3.org/2000/svg">
<g clip-path="url(#clip0)">
<path d="M53.5547 38.8738C50.6101 38.8738 48.1223 40.8593 47.355 43.5613H41.1328V36.6994H47.4859C54.3862 36.6994 60 31.0856 60 24.1853C60 18.6527 56.3306 13.7925 51.1214 12.2095C49.5468 5.90438 43.8552 1.38224 37.2635 1.38224C34.7082 1.38224 32.2604 2.04118 30.1002 3.30013C27.8123 1.20786 24.8125 0.0324707 21.6605 0.0324707C14.8996 0.0324707 9.37371 5.42204 9.15316 12.1301C3.80227 13.6258 0 18.525 0 24.1853C0 31.0856 5.61375 36.6994 12.5141 36.6994H18.8672V43.5613H12.645C11.8778 40.8593 9.38988 38.8738 6.44531 38.8738C2.89137 38.8738 0 41.7652 0 45.3191C0 48.8731 2.89137 51.7644 6.44531 51.7644C9.38988 51.7644 11.8777 49.7789 12.645 47.0769H20.625C21.5958 47.0769 22.3828 46.2899 22.3828 45.3191V36.6994H28.2422V47.3225C25.5402 48.0898 23.5547 50.5777 23.5547 53.5222C23.5547 57.0762 26.4461 59.9675 30 59.9675C33.5539 59.9675 36.4453 57.0762 36.4453 53.5222C36.4453 50.5777 34.4598 48.0899 31.7578 47.3225V36.6994H37.6172V45.3191C37.6172 46.2899 38.4042 47.0769 39.375 47.0769H47.355C48.1222 49.7789 50.6101 51.7644 53.5547 51.7644C57.1086 51.7644 60 48.8731 60 45.3191C60 41.7652 57.1086 38.8738 53.5547 38.8738ZM6.44531 48.2488C4.82988 48.2488 3.51562 46.9345 3.51562 45.3191C3.51562 43.7037 4.82988 42.3894 6.44531 42.3894C8.06074 42.3894 9.375 43.7037 9.375 45.3191C9.375 46.9345 8.06074 48.2488 6.44531 48.2488ZM32.9297 53.5222C32.9297 55.1377 31.6154 56.4519 30 56.4519C28.3846 56.4519 27.0703 55.1377 27.0703 53.5222C27.0703 51.9068 28.3846 50.5925 30 50.5925C31.6154 50.5925 32.9297 51.9068 32.9297 53.5222ZM12.5141 33.1838C7.55238 33.1838 3.51562 29.1471 3.51562 24.1853C3.51562 19.7506 6.82113 15.9229 11.2043 15.2818C12.1293 15.1466 12.7864 14.3111 12.7002 13.3804C12.6748 13.1058 12.6619 12.8252 12.6619 12.5465C12.6619 7.58485 16.6986 3.54821 21.6604 3.54821C24.3076 3.54821 26.8041 4.69899 28.5094 6.70548C29.1081 7.40989 30.15 7.53013 30.8936 6.98075C32.7371 5.6181 34.9398 4.89786 37.2634 4.89786C42.6104 4.89786 47.0571 8.82118 47.8883 13.9248C48.0059 14.6465 48.5579 15.22 49.2745 15.365C53.4521 16.2108 56.4843 19.9201 56.4843 24.1853C56.4843 29.1471 52.4475 33.1838 47.4858 33.1838H12.5141ZM53.5547 48.2488C51.9393 48.2488 50.625 46.9345 50.625 45.3191C50.625 43.7037 51.9393 42.3894 53.5547 42.3894C55.1701 42.3894 56.4844 43.7037 56.4844 45.3191C56.4844 46.9345 55.1701 48.2488 53.5547 48.2488Z" fill="#EC2227"/>
</g>
<defs>
<clipPath id="clip0">
<rect width="60" height="60" fill="white"/>
</clipPath>
</defs>
</svg>
