<svg width="46" height="46" viewBox="0 0 46 46" fill="none" xmlns="http://www.w3.org/2000/svg">
<path d="M43.3047 30.0599V16.0299C44.8733 15.4736 46 13.9756 46 12.2188C46 9.98946 44.1863 8.17578 41.957 8.17578C40.785 8.17578 39.7284 8.67747 38.9893 9.4769L27.0333 4.30909C27.039 4.22104 27.043 4.13245 27.043 4.04297C27.043 1.81368 25.2293 0 23 0C20.7707 0 18.957 1.81368 18.957 4.04297C18.957 4.13245 18.961 4.22095 18.9667 4.309L7.01069 9.4769C6.27154 8.67747 5.21498 8.17578 4.04297 8.17578C1.81368 8.17578 0 9.98946 0 12.2188C0 13.9756 1.12673 15.4736 2.69531 16.0299V30.0599C1.12673 30.6162 0 32.1142 0 33.8711C0 36.1004 1.81368 37.9141 4.04297 37.9141C5.21723 37.9141 6.27586 37.4104 7.01509 36.6083L18.9662 41.6973C18.9608 41.7833 18.957 41.8697 18.957 41.957C18.957 44.1863 20.7707 46 23 46C25.2293 46 27.043 44.1863 27.043 41.957C27.043 41.8697 27.0392 41.7833 27.0337 41.6973L38.9848 36.6083C39.7241 37.4104 40.7827 37.9141 41.957 37.9141C44.1863 37.9141 46 36.1004 46 33.8711C46 32.1142 44.8733 30.6162 43.3047 30.0599ZM41.957 10.8711C42.7001 10.8711 43.3047 11.4757 43.3047 12.2188C43.3047 12.9618 42.7001 13.5664 41.957 13.5664C41.2139 13.5664 40.6094 12.9618 40.6094 12.2188C40.6094 11.4757 41.2139 10.8711 41.957 10.8711ZM23 2.69531C23.7431 2.69531 24.3477 3.29987 24.3477 4.04297C24.3477 4.78607 23.7431 5.39062 23 5.39062C22.2569 5.39062 21.6523 4.78607 21.6523 4.04297C21.6523 3.29987 22.2569 2.69531 23 2.69531ZM20.0323 6.78482C20.4734 7.26198 21.0278 7.63259 21.6523 7.85414V9.52344C21.6523 10.2677 22.2557 10.8711 23 10.8711C23.7443 10.8711 24.3477 10.2677 24.3477 9.52344V7.85414C24.9722 7.63259 25.5266 7.26198 25.9677 6.78482L37.9238 11.9526C37.918 12.0407 37.9141 12.1293 37.9141 12.2188C37.9141 12.3061 37.9178 12.3925 37.9233 12.4785L25.9722 17.5675C25.5304 17.0881 24.9743 16.7158 24.3477 16.4935V14.9141C24.3477 14.1698 23.7443 13.5664 23 13.5664C22.2557 13.5664 21.6523 14.1698 21.6523 14.9141V16.4935C21.0257 16.7158 20.4697 17.088 20.0278 17.5675L8.07668 12.4785C8.08216 12.3925 8.08594 12.3061 8.08594 12.2188C8.08594 12.1293 8.08198 12.0408 8.07623 11.9527L20.0323 6.78482ZM24.3477 20.3047C24.3477 21.0478 23.7431 21.6523 23 21.6523C22.2569 21.6523 21.6523 21.0478 21.6523 20.3047C21.6523 19.5616 22.2569 18.957 23 18.957C23.7431 18.957 24.3477 19.5616 24.3477 20.3047ZM4.04297 10.8711C4.78607 10.8711 5.39062 11.4757 5.39062 12.2188C5.39062 12.9618 4.78607 13.5664 4.04297 13.5664C3.29987 13.5664 2.69531 12.9618 2.69531 12.2188C2.69531 11.4757 3.29987 10.8711 4.04297 10.8711ZM4.04297 35.2188C3.29987 35.2188 2.69531 34.6142 2.69531 33.8711C2.69531 33.128 3.29987 32.5234 4.04297 32.5234C4.78607 32.5234 5.39062 33.128 5.39062 33.8711C5.39062 34.6142 4.78607 35.2188 4.04297 35.2188ZM20.0279 39.2199L8.07668 34.1308C8.08216 34.0448 8.08594 33.9584 8.08594 33.8711C8.08594 32.1142 6.95921 30.6162 5.39062 30.0599V16.0299C6.01729 15.8076 6.57324 15.4354 7.01518 14.9559L18.9663 20.045C18.9608 20.1309 18.957 20.2174 18.957 20.3047C18.957 22.0616 20.0838 23.5595 21.6523 24.1159V38.1459C21.0257 38.3681 20.4697 38.7404 20.0279 39.2199ZM23 43.3047C22.2569 43.3047 21.6523 42.7001 21.6523 41.957C21.6523 41.2139 22.2569 40.6094 23 40.6094C23.7431 40.6094 24.3477 41.2139 24.3477 41.957C24.3477 42.7001 23.7431 43.3047 23 43.3047ZM37.9141 33.8711C37.9141 33.9584 37.9178 34.0448 37.9233 34.1308L25.9721 39.2199C25.5303 38.7404 24.9742 38.3681 24.3477 38.1459V24.1159C25.9162 23.5595 27.043 22.0616 27.043 20.3047C27.043 20.2174 27.0392 20.1309 27.0337 20.0449L38.9848 14.9559C39.4267 15.4353 39.9827 15.8076 40.6094 16.0299V30.0599C39.0408 30.6162 37.9141 32.1142 37.9141 33.8711ZM41.957 35.2188C41.2139 35.2188 40.6094 34.6142 40.6094 33.8711C40.6094 33.128 41.2139 32.5234 41.957 32.5234C42.7001 32.5234 43.3047 33.128 43.3047 33.8711C43.3047 34.6142 42.7001 35.2188 41.957 35.2188Z" fill="#EC2227"/>
</svg>
