<svg width="60" height="60" viewBox="0 0 60 60" fill="none" xmlns="http://www.w3.org/2000/svg">
<path d="M51.8514 45.6458L27.242 59.7669C26.7002 60.0777 26.034 60.0777 25.4923 59.7669L0.882891 45.6458C0.336797 45.3323 0 44.7507 0 44.1211V15.8789C0 15.2493 0.336797 14.6677 0.883008 14.3542L25.4924 0.233086C25.7633 0.0776939 26.0653 -3.8147e-06 26.3672 -3.8147e-06C26.6691 -3.8147e-06 26.9712 0.0776939 27.242 0.233086L51.8514 14.3542C52.3976 14.6677 52.7344 15.2493 52.7344 15.8789V44.1211C52.7344 44.7507 52.3976 45.3323 51.8514 45.6458ZM49.2188 16.8969L26.3672 3.78445L3.51563 16.8969V43.1031L26.3672 56.2155L49.2188 43.1031V16.8969Z" fill="#EC2227"/>
<path d="M37.2117 33.693L27.6932 44.6305C27.3593 45.0142 26.8757 45.2344 26.3672 45.2344C25.8587 45.2344 25.3751 45.0142 25.0412 44.6306L15.5227 33.6932C15.0704 33.1734 14.9634 32.4375 15.2489 31.8107C15.5345 31.1837 16.1598 30.7814 16.8486 30.7814H20.5078V22.3828C20.5078 21.412 21.2948 20.625 22.2656 20.625H30.4688C31.4395 20.625 32.2266 21.412 32.2266 22.3828V30.7813H35.8858C36.5746 30.7813 37.2 31.1837 37.4855 31.8105C37.771 32.4375 37.664 33.1734 37.2117 33.693ZM30.4688 34.2969C29.498 34.2969 28.7109 33.5099 28.7109 32.5391V24.1406H24.0234V32.5391C24.0234 33.5099 23.2364 34.2969 22.2656 34.2969H20.7087L26.3672 40.7989L32.0257 34.2969H30.4688Z" fill="#EC2227"/>
<path d="M30.4688 18.2812H22.2656C21.2948 18.2812 20.5078 17.4942 20.5078 16.5234C20.5078 15.5527 21.2948 14.7656 22.2656 14.7656H30.4688C31.4395 14.7656 32.2266 15.5527 32.2266 16.5234C32.2266 17.4942 31.4395 18.2812 30.4688 18.2812Z" fill="#EC2227"/>
</svg>
