<svg width="49" height="45" viewBox="0 0 49 45" fill="none" xmlns="http://www.w3.org/2000/svg">
<path d="M48.8531 42.0064C42.3333 28.207 44.4014 32.5843 39.5514 22.3174C39.0054 21.164 37.3596 21.1623 36.8129 22.3174L32.9779 30.4357L32.9507 30.4933C29.2697 22.7165 26.0357 15.883 26.0148 15.8389V10.9799H35.3044C36.564 10.9799 37.272 9.52612 36.4989 8.53335L34.4481 5.90598L36.4989 3.27862C37.2729 2.28468 36.5624 0.832031 35.3044 0.832031H24.5001C23.664 0.832031 22.9855 1.51061 22.9855 2.34662C22.9855 2.49171 22.9855 15.6029 22.9855 15.8389C17.6792 27.0502 19.276 23.6764 15.7304 31.1689L11.9469 23.4261C11.3928 22.2936 9.77796 22.2955 9.22463 23.4261C4.24919 33.61 6.45685 29.0915 0.15508 41.9892C-0.33591 42.993 0.39897 44.1683 1.51622 44.1683C1.97541 44.1683 47.0236 44.1683 47.4838 44.1683C48.5948 44.1683 49.3276 43.0092 48.8531 42.0064ZM26.0148 3.86121H32.2015L31.3331 4.97399C30.906 5.52225 30.906 6.28971 31.3331 6.83798L32.2015 7.95065H26.0148V3.86121ZM38.1821 26.5108L39.626 29.5683H36.7383L38.1821 26.5108ZM24.5001 19.7203L26.7084 24.3853H22.2918L24.5001 19.7203ZM10.5859 27.5408L12.0864 30.6115H9.08538L10.5859 27.5408ZM11.0119 41.139H3.9417L7.60502 33.6406H13.5665L14.0714 34.6745L11.0119 41.139ZM14.3633 41.139L20.8589 27.4145H28.1412L34.6369 41.139H14.3633ZM37.9883 41.139L34.6269 34.0364L35.3064 32.5975H41.0579L45.0929 41.1389H37.9883V41.139Z" fill="#EC2227"/>
</svg>
