<svg width="46" height="46" viewBox="0 0 46 46" fill="none" xmlns="http://www.w3.org/2000/svg">
<path d="M42.1665 23V15.3335C42.1665 13.2261 40.4409 11.5 38.3335 11.5V3.83352C38.3335 1.72557 36.6074 0 34.5 0H3.83352C1.72557 0 0 1.72557 0 3.83352V30.667C0 32.7744 1.72557 34.5 3.83352 34.5H19.1665V38.3335C19.1665 40.4409 20.8926 42.1665 23 42.1665H30.6665C30.6665 44.2744 32.3926 46 34.5 46H42.1665C44.2744 46 46 44.2744 46 42.1665V26.833C46 24.7262 44.2744 23 42.1665 23ZM19.1665 15.3335V30.667H3.83352V3.83352H34.5V11.5H23C20.8926 11.5 19.1665 13.2256 19.1665 15.3335ZM30.6665 26.833V38.3335H23V15.3335H38.3335V23H34.5C32.3926 23 30.6665 24.7262 30.6665 26.833ZM42.1665 42.1665H34.5V26.833H42.1665V42.1665Z" fill="#EC2227"/>
</svg>
