<svg width="16" height="16" viewBox="0 0 16 16" fill="none" xmlns="http://www.w3.org/2000/svg">
<g clip-path="url(#clip0)">
<path d="M13.6559 13.6561C10.5317 16.7803 5.46638 16.7803 2.3422 13.6561C-0.782034 10.5319 -0.782034 5.46661 2.3422 2.34243C5.46638 -0.781754 10.5317 -0.781754 13.6559 2.34243C16.7801 5.46661 16.7801 10.5319 13.6559 13.6561ZM3.65113 2.41161C3.18039 2.76206 2.76168 3.18067 2.41128 3.65141C3.46841 4.43807 4.52582 5.22437 5.58304 6.0109C5.72825 5.81573 5.81545 5.72853 6.01053 5.58346C5.22405 4.52614 4.43756 3.46892 3.65113 2.41161ZM9.6242 6.37412C8.72667 5.47659 7.27138 5.47663 6.37389 6.37412C5.47635 7.27166 5.47635 8.7269 6.37389 9.62444C7.27143 10.522 8.72667 10.522 9.6242 9.62444C10.5217 8.72695 10.5217 7.2717 9.6242 6.37412ZM10.415 9.98771C10.2698 10.1829 10.1826 10.2701 9.98752 10.4151C10.774 11.4724 11.5605 12.5296 12.3469 13.587C12.8177 13.2366 13.2363 12.8179 13.5867 12.3472C12.5296 11.5605 11.4722 10.7742 10.415 9.98771Z" fill="#EC2227"/>
</g>
<defs>
<clipPath id="clip0">
<rect width="16" height="16" fill="white" transform="matrix(1 0 0 -1 -0.000976562 16)"/>
</clipPath>
</defs>
</svg>
