<svg width="44" height="46" viewBox="0 0 44 46" fill="none" xmlns="http://www.w3.org/2000/svg">
<path d="M43.0699 16.206V16.2061C43.0696 16.8275 42.9375 17.4417 42.6823 18.0083C42.4469 18.5309 42.1117 19.0021 41.696 19.3955C42.1501 21.7763 42.1502 24.2215 41.6961 26.6023C42.2915 27.1633 42.7192 27.8802 42.9296 28.6727M43.0699 16.206L42.688 28.7369M43.0699 16.206C43.0699 15.4173 42.936 14.8919 42.4843 14.0141C42.2153 13.4912 41.8262 12.8297 41.2774 11.8966C40.928 11.3025 40.5138 10.5983 40.0247 9.74973L40.0238 9.74825M43.0699 16.206L40.0238 9.74825M42.9296 28.6727L42.688 28.7369M42.9296 28.6727C42.9295 28.6725 42.9295 28.6723 42.9294 28.6721L42.688 28.7369M42.9296 28.6727C43.0761 29.219 43.1239 29.7082 43.0678 30.2036C43.0118 30.6974 42.854 31.184 42.6062 31.7262C42.2808 32.4383 41.7851 33.2749 41.1331 34.3755C40.806 34.9275 40.4397 35.5458 40.0358 36.2482L40.0344 36.2506C39.519 37.1239 38.7201 37.7943 37.7706 38.1503C36.8661 38.4895 35.877 38.5239 34.9532 38.2505M42.688 28.7369C43.1542 30.4737 42.5485 31.4959 40.9278 34.2312C40.5997 34.785 40.2299 35.4091 39.819 36.1235C39.3327 36.9476 38.5788 37.5803 37.6829 37.9163C36.7869 38.2522 35.8029 38.2713 34.8946 37.9702M34.9532 38.2505C34.9886 38.2199 35.024 38.1892 35.0593 38.1583L34.8946 37.9702M34.9532 38.2505C34.9073 38.2369 34.8615 38.2226 34.816 38.2075L34.8946 37.9702M34.9532 38.2505C33.1182 39.8333 31.0056 41.0623 28.7226 41.8751M34.8946 37.9702C33.0241 39.6072 30.8558 40.8686 28.5083 41.6855M28.5083 41.6855L28.7533 41.735C28.7438 41.7819 28.7336 41.8286 28.7226 41.8751M28.5083 41.6855C28.3203 42.6166 27.8158 43.4538 27.0804 44.055C26.3449 44.6561 25.424 44.9841 24.4742 44.9831L24.4739 45.2331C25.4815 45.2342 26.4584 44.8863 27.2386 44.2485C27.9816 43.6411 28.5025 42.8065 28.7226 41.8751M28.5083 41.6855L28.5904 41.9216C28.6346 41.9062 28.6786 41.8907 28.7226 41.8751M40.0238 9.74825C39.5119 8.87408 38.715 8.20248 37.7667 7.84609C36.8635 7.50663 35.8753 7.47278 34.9531 7.74736C33.1218 6.16484 31.0127 4.93588 28.733 4.12291C28.509 3.19154 27.9855 2.35776 27.241 1.75083C26.4596 1.11382 25.4825 0.765658 24.4743 0.765017H24.4742M40.0238 9.74825L24.4742 0.765017M24.4742 0.765017H19.5279M24.4742 0.765017L3.9676 9.7475M3.9676 9.7475L3.96763 9.74752C4.48301 8.87426 5.28189 8.20382 6.23134 7.84778C7.13584 7.50859 8.12501 7.47423 9.04882 7.7476C10.8838 6.16476 12.9964 4.93581 15.2793 4.12305C15.4994 3.19162 16.0203 2.35697 16.7634 1.74956C17.5435 1.11187 18.5203 0.763986 19.5279 0.765017M3.9676 9.7475L3.9656 9.75103M3.9676 9.7475L3.9656 9.75103M19.5279 0.765017C19.528 0.765017 19.528 0.765017 19.528 0.765017L19.5278 1.01502V0.765017H19.5279ZM2.30589 19.3958C1.7106 18.8349 1.28294 18.1182 1.0725 17.3258L2.30589 19.3958ZM2.30589 19.3958C1.85181 21.7766 1.85184 24.2218 2.30595 26.6026C1.89025 26.996 1.55505 27.4672 1.31966 27.9898C1.0645 28.5564 0.932415 29.1706 0.932108 29.792V29.7921C0.932108 30.5808 1.06599 31.1062 1.51766 31.984C1.78672 32.5069 2.17581 33.1684 2.72458 34.1015C3.07401 34.6956 3.48818 35.3998 3.97733 36.2484L3.97765 36.2489C4.48651 37.1266 5.28339 37.8011 6.23303 38.158C7.13736 38.4979 8.12716 38.5298 9.04942 38.2512L2.30589 19.3958ZM3.9656 9.75103C3.54437 10.4919 3.16496 11.1389 2.82877 11.7122M3.9656 9.75103L2.82877 11.7122M38.8941 19.1319L38.8939 19.1308C38.8033 18.7363 38.8649 18.4285 39.0286 18.171C39.1705 17.9477 39.3842 17.7748 39.5704 17.624C39.5826 17.6142 39.5946 17.6044 39.6065 17.5948C39.8124 17.4276 39.9985 17.2702 40.1381 17.06C40.2731 16.8568 40.3715 16.5926 40.3715 16.206C40.3715 16.0317 40.3686 15.9375 40.3337 15.8131C40.2966 15.681 40.22 15.5052 40.0495 15.1881C39.8463 14.8101 39.5252 14.2588 39.0146 13.3822C38.668 12.787 38.234 12.0419 37.6902 11.0993C37.4658 10.7172 37.1007 10.438 36.6731 10.3217C36.2467 10.2058 35.792 10.2608 35.4058 10.475C35.1548 10.6289 34.8604 10.6966 34.5673 10.6675C34.2723 10.6382 33.9951 10.5126 33.7786 10.3101M38.8941 19.1319L33.9493 10.1274M38.8941 19.1319C39.4901 21.6756 39.4901 24.3225 38.8941 26.8662L38.8939 26.8671M38.8941 19.1319L38.8939 26.8671M33.7786 10.3101C33.7786 10.31 33.7785 10.31 33.7785 10.3099L33.9493 10.1274M33.7786 10.3101C33.7787 10.3101 33.7788 10.3102 33.7788 10.3102L33.9493 10.1274M33.7786 10.3101C31.4519 8.14069 29.596 7.35339 28.3193 6.88593C28.1878 6.83781 28.0594 6.79197 27.9362 6.74802C27.7632 6.68629 27.6006 6.62828 27.4549 6.57292C27.2026 6.47699 26.9744 6.37943 26.7841 6.26294C26.5915 6.14509 26.4274 6.00177 26.3137 5.80973C26.1993 5.6165 26.1478 5.39394 26.1478 5.13702V5.13412H26.1478C26.1504 4.914 26.1089 4.6956 26.0259 4.49175C25.9428 4.28789 25.8198 4.10269 25.6642 3.94704C25.5085 3.79139 25.3233 3.66842 25.1195 3.58537C24.9156 3.50231 24.6972 3.46084 24.4771 3.4634L24.4742 3.46344L19.5285 3.46342M33.9493 10.1274C31.3439 7.69808 29.3122 6.97341 28.0157 6.51095C26.9657 6.13641 26.3978 5.93386 26.3978 5.13702C26.4007 4.8836 26.353 4.63213 26.2574 4.39742C26.1617 4.16271 26.0202 3.94948 25.841 3.77026C25.6617 3.59105 25.4485 3.44947 25.2138 3.35384C24.9791 3.25822 24.7276 3.21047 24.4742 3.21342H19.5278M19.5285 3.46342C19.5287 3.46342 19.529 3.46342 19.5292 3.46342L19.5278 3.21342M19.5285 3.46342H19.5278V3.21342M19.5285 3.46342C19.0853 3.46611 18.661 3.64337 18.3476 3.9568C18.0341 4.27023 17.8569 4.69457 17.8542 5.13782M19.5278 3.21342C19.0185 3.21631 18.5309 3.4199 18.1708 3.78002C17.8107 4.14014 17.6071 4.62774 17.6042 5.13702M16.8237 39.8059C17.4657 40.0061 17.5176 40.3925 17.5812 40.8671C17.6364 41.2782 17.7005 41.7555 18.1648 42.2351M16.8237 39.8059L35.3123 35.7608M16.8237 39.8059C13.5584 38.8094 11.9156 37.423 10.8392 36.5146M16.8237 39.8059L10.8392 36.5146M18.1648 42.2351C18.765 42.8174 19.0294 42.8156 21.9992 42.795C22.673 42.7903 23.4862 42.7847 24.4742 42.7847M18.1648 42.2351L18.3444 42.0612C18.3435 42.0603 18.3426 42.0593 18.3417 42.0584C18.3407 42.0575 18.3398 42.0566 18.3389 42.0557L18.1648 42.2351ZM24.4742 42.7847C24.976 42.782 25.4571 42.5845 25.816 42.2338C26.175 41.8831 26.3835 41.4067 26.3978 40.9051M24.4742 42.7847V42.5347C24.474 42.5347 24.4738 42.5347 24.4736 42.5347C24.4733 42.5347 24.4731 42.5347 24.4729 42.5347L24.4742 42.7847ZM26.3978 40.9051C26.3874 40.6612 26.4584 40.4208 26.5997 40.2218C26.741 40.0227 26.9446 39.8764 27.1782 39.8059C30.5146 38.8013 32.1728 37.3675 33.2389 36.4456C34.1328 35.6726 34.6105 35.2595 35.3123 35.7608M26.3978 40.9051L26.1479 40.898C26.1478 40.9006 26.1477 40.9033 26.1476 40.906C26.1478 40.9092 26.1479 40.9125 26.148 40.9157L26.3978 40.9051ZM35.3123 35.7608L35.4576 35.5574C35.4528 35.5539 35.4481 35.5506 35.4433 35.5472C35.4387 35.5448 35.4342 35.5424 35.4296 35.54L35.3123 35.7608ZM17.6042 5.13702H17.8542C17.8542 5.13729 17.8542 5.13755 17.8542 5.13782M17.6042 5.13702L17.8542 5.13844C17.8542 5.13823 17.8542 5.13803 17.8542 5.13782M17.6042 5.13702L10.2234 10.31C12.5334 8.15733 14.3893 7.36991 15.6708 6.89815C15.799 6.85094 15.9243 6.80592 16.0446 6.76268C16.2223 6.69881 16.3892 6.63881 16.539 6.58135C16.7928 6.48402 17.0223 6.38503 17.2137 6.2673C17.4073 6.14827 17.5723 6.00397 17.6867 5.81145C17.8018 5.61777 17.8541 5.39492 17.8542 5.13782M38.8939 26.8671C38.8121 27.2228 38.844 27.5063 38.974 27.7458C39.0969 27.9722 39.2942 28.1307 39.468 28.2636C39.4899 28.2804 39.5118 28.297 39.5337 28.3136C39.8684 28.5677 40.1841 28.8073 40.3121 29.3544L40.312 29.3544M38.8939 26.8671L40.312 29.3544M40.312 29.3544L40.314 29.3621M40.312 29.3544L40.314 29.3621M40.314 29.3621C40.4212 29.7628 40.3775 30.1878 40.1932 30.5571L40.314 29.3621ZM2.82877 11.7122C2.19091 12.7999 1.70864 13.6223 1.39158 14.3174M2.82877 11.7122L1.39158 14.3174M1.39158 14.3174C1.14599 14.8559 0.990533 15.3354 0.935746 15.8209M1.39158 14.3174L0.935746 15.8209M0.935746 15.8209C0.880749 16.3082 0.928703 16.7879 1.07244 17.3256L0.935746 15.8209ZM10.8392 36.5146C9.94445 35.7594 9.44112 35.3347 8.72263 35.7388L10.8392 36.5146ZM15.269 41.8752C15.3127 41.8908 15.3565 41.9063 15.4004 41.9216L15.4827 41.6855L15.2379 41.736C15.2475 41.7826 15.2579 41.829 15.269 41.8752ZM37.701 34.8992C37.7006 34.8999 37.7002 34.9005 37.6999 34.9012L37.9174 35.0243L37.7019 34.8977C37.7016 34.8982 37.7013 34.8987 37.701 34.8992ZM6.31209 34.8994C5.76815 33.9564 5.33402 33.2111 4.98728 32.6158C4.47674 31.7393 4.15566 31.188 3.95245 30.81C3.78197 30.4929 3.70537 30.3171 3.66826 30.185C3.63334 30.0606 3.63051 29.9664 3.63051 29.7921C3.63051 29.4055 3.72888 29.1413 3.86389 28.9381C4.00351 28.7279 4.18958 28.5706 4.39549 28.4033C4.40738 28.3937 4.41941 28.3839 4.43157 28.3741C4.6178 28.2233 4.83147 28.0504 4.97339 27.8271C5.1371 27.5696 5.19864 27.2618 5.1081 26.8673L5.10784 26.8662C4.51189 24.3225 4.51189 21.6756 5.10785 19.1319L5.10817 19.1305C5.18977 18.7727 5.1581 18.4881 5.02813 18.2479C4.90508 18.0206 4.70754 17.8624 4.53353 17.73C4.511 17.7129 4.48851 17.6959 4.46611 17.679C4.13187 17.4267 3.81754 17.1895 3.6899 16.6437L3.69005 16.6437L3.68772 16.6351C3.62238 16.3946 3.59734 16.2299 3.61988 16.0465C3.64313 15.8575 3.71974 15.6275 3.89744 15.2667C4.14146 14.7713 4.55158 14.0755 5.20562 12.9659C5.51368 12.4432 5.87587 11.8287 6.3003 11.1001C6.52322 10.7209 6.88393 10.4425 7.30718 10.3228C7.7268 10.2042 8.17576 10.2508 8.56196 10.4526C8.81271 10.6171 9.11125 10.6934 9.41043 10.6693C9.71409 10.6448 10.0005 10.5183 10.2231 10.3103L6.31209 34.8994Z" fill="#EC2227" stroke="#EC2227" stroke-width="0.5"/>
<path d="M26.9901 12.8817L26.9899 12.8816L18.9518 14.0959L18.7018 14.0954H18.9518V14.0957C18.9522 13.8665 18.8942 13.6409 18.7833 13.4404C18.6724 13.2397 18.5121 13.0706 18.3177 12.9491C18.1232 12.8276 17.901 12.7576 17.6721 12.7458C17.4431 12.734 17.2148 12.7808 17.0089 12.8816L17.0087 12.8817C15.2791 13.7311 13.7969 15.0108 12.7043 16.598C11.6116 18.1851 10.9453 20.0265 10.7692 21.9454C10.5931 23.8642 10.9132 25.7961 11.6987 27.5556C12.4671 29.2767 13.6556 30.7764 15.1542 31.9173C15.1535 33.6479 15.1385 35.0938 15.126 36.3111C15.1057 38.2749 15.0916 39.6436 15.1533 40.6523C15.2041 41.4823 15.307 42.0948 15.5101 42.6102C15.7153 43.1308 16.0162 43.5356 16.4353 43.9605L16.4372 43.9623C16.8152 44.3374 17.1718 44.6137 17.5858 44.8101C17.9995 45.0063 18.4557 45.1157 19.0241 45.1766C19.8243 45.2624 20.8835 45.2544 22.4089 45.2428C23.0181 45.2382 23.7016 45.233 24.4726 45.233C25.6321 45.233 26.7442 44.7724 27.5641 43.9525C28.384 43.1326 28.8446 42.0205 28.8446 40.861V31.9173C30.3432 30.7764 31.5317 29.2767 32.3001 27.5556C33.0856 25.7961 33.4057 23.8642 33.2296 21.9454C33.0535 20.0265 32.3872 18.1851 31.2945 16.598C30.2019 15.0108 28.7197 13.7311 26.9901 12.8817ZM18.9518 22.745L18.8272 22.6728L18.7018 22.889H18.9518V22.745ZM25.297 14.0954H25.047H25.297ZM27.7454 23.5266V16.6707C28.6048 17.4517 29.2975 18.4011 29.7791 19.4619C30.3344 20.6851 30.5934 22.022 30.5351 23.3641C30.4769 24.7062 30.103 26.0156 29.4437 27.1861C28.8626 28.218 28.0741 29.1163 27.1299 29.8254V29.7954L26.7404 30.0572L26.7307 30.0637C26.6539 30.1153 26.5656 30.1746 26.4891 30.2517C26.403 30.3385 26.3365 30.4417 26.2865 30.579C26.1938 30.8337 26.1551 31.2193 26.1367 31.8652C26.1157 32.6034 26.1214 33.734 26.1304 35.4988C26.1374 36.8583 26.1462 38.5941 26.1462 40.817H26.1462L26.1462 40.8213C26.15 41.0441 26.1096 41.2655 26.0272 41.4726C25.9449 41.6796 25.8223 41.8683 25.6665 42.0277C25.5107 42.187 25.3248 42.3139 25.1196 42.4009C24.9147 42.4878 24.6945 42.5333 24.4719 42.5346L19.5262 42.5346L19.5233 42.5346C19.3032 42.5372 19.0848 42.4957 18.8809 42.4127C18.6771 42.3296 18.4919 42.2066 18.3362 42.051C18.1806 41.8953 18.0576 41.7101 17.9745 41.5063C17.8915 41.3024 17.85 41.084 17.8526 40.8639H17.8526V40.861C17.8526 38.6526 17.8614 36.9249 17.8684 35.5694C17.8774 33.8061 17.8832 32.6726 17.8621 31.9298C17.8437 31.2801 17.8049 30.8903 17.7129 30.6322C17.6634 30.4937 17.5976 30.3885 17.5117 30.2999C17.4323 30.218 17.3407 30.1565 17.2608 30.1028L17.2584 30.1012L17.2577 30.1007C16.1402 29.3552 15.2143 28.3566 14.5551 27.1861C13.8959 26.0156 13.5219 24.7062 13.4637 23.3641C13.4054 22.022 13.6645 20.6851 14.2198 19.4619C14.7013 18.4012 15.3938 17.452 16.2531 16.671C16.2515 18.0496 16.2441 19.1732 16.238 20.0913C16.2284 21.5491 16.2222 22.4885 16.2481 23.107C16.27 23.6304 16.3151 23.9695 16.4246 24.2079C16.5463 24.4726 16.7361 24.5893 16.9284 24.6996C17.8564 25.2358 18.6055 25.6775 19.2154 26.0371C20.1283 26.5754 20.7294 26.9298 21.152 27.1423C21.5046 27.3197 21.7715 27.4195 22.0149 27.43C22.2728 27.4411 22.4703 27.3508 22.6696 27.241L22.6696 27.2411L22.6739 27.2386C23.5828 26.7146 24.3282 26.2931 24.9384 25.9481C25.8874 25.4114 26.5095 25.0597 26.9116 24.7947C27.2418 24.5771 27.462 24.3948 27.5913 24.1885C27.7288 23.9693 27.7454 23.7525 27.7454 23.5266Z" fill="#EC2227" stroke="#EC2227" stroke-width="0.5"/>
</svg>
