<svg width="454" height="515" viewBox="0 0 454 515" fill="none" xmlns="http://www.w3.org/2000/svg">
<mask id="mask0" mask-type="alpha" maskUnits="userSpaceOnUse" x="0" y="0" width="454" height="515">
<rect width="454" height="515" rx="8" fill="#F7F8FB"/>
</mask>
<g mask="url(#mask0)">
<path d="M288.695 525.871L200.381 474.901C194.972 471.757 195.648 466.316 201.903 462.699L287.207 413.453C290.424 411.673 294.012 410.667 297.686 410.514C301.36 410.361 305.019 411.067 308.373 412.574L396.72 463.578C402.13 466.721 401.454 472.163 395.199 475.78L309.894 525.026C306.67 526.806 303.075 527.809 299.395 527.956C295.714 528.103 292.051 527.388 288.695 525.871Z" fill="#E5E5E5"/>
<path d="M425.966 424.742V386.582H340.391L310.807 369.513C304.045 365.593 292.144 366.133 284.333 370.595L256.744 386.515H171.034V425.756C171.018 427.256 171.441 428.727 172.252 429.989C173.064 431.25 174.227 432.246 175.598 432.854L286.227 496.702C292.989 500.622 304.89 500.082 312.7 495.62L419.508 433.969C424.039 431.265 426.237 427.885 425.966 424.742Z" fill="#686868"/>
<path d="M298.432 366.843C293.466 366.905 288.591 368.181 284.232 370.561L256.643 386.48H171.034V425.722C171.018 427.222 171.441 428.693 172.252 429.954C173.064 431.216 174.227 432.212 175.598 432.82L286.227 496.667C290.021 498.626 294.27 499.536 298.534 499.304L298.432 366.843Z" fill="#727272"/>
<path d="M180.738 386.447H171.034V425.688C171.018 427.188 171.441 428.659 172.252 429.921C173.064 431.182 174.227 432.178 175.598 432.786L180.738 435.761V386.447Z" fill="#C1C1C1"/>
<path d="M287.917 497.445C294.77 499.922 302.287 499.838 309.083 497.209V452.661H287.917V497.445Z" fill="#C1C1C1"/>
<path d="M286.226 457.527L175.597 393.679C168.835 389.758 169.646 382.931 177.49 378.402L284.298 316.751C292.142 312.222 304.01 311.749 310.772 315.669L421.401 379.517C428.163 383.438 427.351 390.265 419.507 394.795L312.699 456.445C304.855 460.941 292.988 461.448 286.226 457.527Z" fill="#F2F2F2"/>
<path d="M288.289 446.035L195.58 392.53C189.9 389.15 190.61 383.506 197.169 379.72L286.666 328.041C290.04 326.162 293.807 325.101 297.665 324.942C301.523 324.784 305.364 325.533 308.88 327.128L401.589 380.633C407.269 384.013 406.559 389.658 400 393.443L310.503 445.123C307.13 447.001 303.363 448.063 299.505 448.221C295.647 448.38 291.805 447.631 288.289 446.035Z" fill="#C6C6C6"/>
<path d="M385.292 434.814C385.209 436.364 384.762 437.873 383.987 439.218C383.211 440.563 382.129 441.706 380.829 442.554C378.361 443.974 376.366 442.825 376.366 439.985C376.449 438.435 376.896 436.926 377.671 435.582C378.447 434.237 379.529 433.094 380.829 432.245C383.263 430.792 385.292 431.941 385.292 434.814Z" fill="#FAFDFF"/>
<path d="M399.662 426.499C399.579 428.049 399.132 429.558 398.356 430.903C397.581 432.248 396.499 433.391 395.199 434.239C392.73 435.659 390.735 434.51 390.735 431.67C390.818 430.12 391.265 428.612 392.041 427.267C392.816 425.922 393.898 424.779 395.199 423.93C397.667 422.511 399.662 423.66 399.662 426.499Z" fill="#FAFDFF"/>
<path d="M414.031 418.219C413.948 419.769 413.501 421.278 412.726 422.623C411.95 423.967 410.868 425.11 409.568 425.959C407.1 427.378 405.105 426.229 405.105 423.39C405.188 421.84 405.635 420.331 406.41 418.986C407.186 417.641 408.268 416.498 409.568 415.65C412.036 414.197 414.031 415.278 414.031 418.219Z" fill="#FAFDFF"/>
</g>
</svg>
