<svg width="18" height="16" viewBox="0 0 18 16" fill="none" xmlns="http://www.w3.org/2000/svg">
<path d="M13.2188 0C12.242 0 11.3465 0.29232 10.5572 0.868859C9.80044 1.42159 9.29661 2.1256 9 2.63752C8.70339 2.12556 8.19956 1.42159 7.44282 0.868859C6.6535 0.29232 5.758 0 4.78125 0C2.05552 0 0 2.10564 0 4.89793C0 7.91456 2.5644 9.9785 6.44657 13.103C7.10582 13.6336 7.85306 14.2351 8.62973 14.8765C8.73211 14.9612 8.86359 15.0078 9 15.0078C9.13641 15.0078 9.26789 14.9612 9.37027 14.8766C10.147 14.235 10.8942 13.6336 11.5539 13.1027C15.4356 9.9785 18 7.91456 18 4.89793C18 2.10564 15.9445 0 13.2188 0Z" fill="#CECECE"/>
</svg>
