<svg width="60" height="60" viewBox="0 0 60 60" fill="none" xmlns="http://www.w3.org/2000/svg">
<g clip-path="url(#clip0)">
<path d="M34.742 39.4451C33.2749 38.4215 31.707 37.5874 30.0673 36.9502C32.2486 34.9677 33.6955 32.1904 33.9473 29.0813C37.2551 25.8582 41.5911 24.0912 46.2392 24.0912C49.8679 24.0912 53.3519 25.1839 56.3155 27.2507C57.3775 27.9913 58.8378 27.7313 59.5784 26.6693C60.3186 25.6078 60.0586 24.147 58.9971 23.4068C57.5299 22.3833 55.9616 21.5497 54.3219 20.912C56.7288 18.7244 58.2422 15.5699 58.2422 12.0689C58.2422 5.47852 52.8809 0.117188 46.2905 0.117188C39.7005 0.117188 34.3392 5.47852 34.3392 12.0689C34.3392 15.5557 35.8402 18.6987 38.2306 20.8855C37.9033 21.0114 37.5778 21.1446 37.2556 21.2865C35.7889 21.9319 34.4101 22.7257 33.1279 23.6577C31.3596 19.2645 27.0543 16.1554 22.0358 16.1554C15.4459 16.1554 10.0841 21.5167 10.0841 28.1067C10.0841 31.5839 11.5769 34.7182 13.9545 36.904C7.59752 39.2858 2.44311 44.4013 0.344717 50.9253C-0.351083 53.0887 0.0174163 55.383 1.35592 57.22C2.69442 59.0566 4.76534 60.1099 7.03768 60.1099H27.426C28.7201 60.1099 29.7693 59.0607 29.7693 57.7661C29.7693 56.472 28.7201 55.4228 27.426 55.4228H7.03768C6.28008 55.4228 5.58977 55.0717 5.14345 54.4592C4.69713 53.8468 4.57445 53.0818 4.80608 52.3604C7.12237 45.1589 14.1866 40.1294 21.9846 40.1294C25.6128 40.1294 29.0973 41.2221 32.0609 43.2889C33.1224 44.0296 34.5831 43.7691 35.3238 42.7075C36.064 41.646 35.804 40.1853 34.742 39.4451ZM46.2905 4.80423C50.2963 4.80423 53.5552 8.06305 53.5552 12.0689C53.5552 16.0744 50.2963 19.3337 46.2905 19.3337C42.285 19.3337 39.0257 16.0744 39.0257 12.0689C39.0257 8.06305 42.285 4.80423 46.2905 4.80423ZM22.0358 20.842C26.0417 20.842 29.3006 24.1013 29.3006 28.1067C29.3006 32.1126 26.0417 35.3714 22.0358 35.3714C18.03 35.3714 14.7711 32.1126 14.7711 28.1067C14.7711 24.1013 18.03 20.842 22.0358 20.842ZM60 48.9784C60 50.2725 58.9508 51.3217 57.6563 51.3217H51.2119V57.7661C51.2119 59.0607 50.1627 60.1099 48.8686 60.1099C47.574 60.1099 46.5248 59.0607 46.5248 57.7661V51.3217H40.0804C38.7863 51.3217 37.7371 50.2725 37.7371 48.9784C37.7371 47.6839 38.7863 46.6347 40.0804 46.6347H46.5248V40.1903C46.5248 38.8962 47.574 37.847 48.8686 37.847C50.1627 37.847 51.2119 38.8962 51.2119 40.1903V46.6347H57.6563C58.9508 46.6347 60 47.6839 60 48.9784Z" fill="#EC2227"/>
</g>
<defs>
<clipPath id="clip0">
<rect width="60" height="60" fill="white"/>
</clipPath>
</defs>
</svg>
