<svg width="56" height="60" viewBox="0 0 56 60" fill="none" xmlns="http://www.w3.org/2000/svg">
<path d="M43.9188 5.72684L50.2828 11.0339C50.7209 11.3994 51.2532 11.5778 51.7825 11.5778C52.4539 11.5778 53.1202 11.2909 53.5838 10.7351C54.4128 9.74098 54.279 8.26301 53.2848 7.43403L46.9208 2.12684C45.9269 1.29786 44.4488 1.43157 43.6197 2.42579C42.7907 3.41989 42.9246 4.89774 43.9188 5.72684Z" fill="#EC2227"/>
<path d="M4.21759 11.5781C4.74681 11.5781 5.27919 11.3997 5.71736 11.0342L12.0812 5.72725C13.0753 4.89827 13.2093 3.4203 12.3803 2.4262C11.5514 1.43221 10.0733 1.29827 9.07923 2.12725L2.71525 7.43432C1.72114 8.26331 1.5872 9.74128 2.41618 10.7354C2.87989 11.2912 3.54622 11.5781 4.21759 11.5781Z" fill="#EC2227"/>
<path d="M47.5559 12.7879C42.8888 8.12074 36.847 5.32898 30.3438 4.78676V2.34375C30.3438 1.0493 29.2945 0 28 0C26.7055 0 25.6562 1.0493 25.6562 2.34375V4.78676C19.153 5.32898 13.1112 8.12063 8.4441 12.7877C3.22047 18.0114 0.34375 24.9565 0.34375 32.3438C0.34375 39.731 3.22047 46.6761 8.4441 51.8997C13.6676 57.1233 20.6127 60 28 60C33.9477 60 39.6154 58.1404 44.3903 54.6218C45.4325 53.854 45.6547 52.3868 44.8868 51.3446C44.1189 50.3024 42.6516 50.0803 41.6096 50.8481C37.6461 53.7688 32.9399 55.3125 28 55.3125C15.335 55.3125 5.03125 45.0088 5.03125 32.3438C5.03125 19.6787 15.335 9.375 28 9.375C40.665 9.375 50.9688 19.6787 50.9688 32.3438C50.9688 36.2121 49.9898 40.0357 48.1374 43.4011C47.5132 44.5351 47.9266 45.9604 49.0606 46.5845C50.1943 47.2084 51.6197 46.7954 52.244 45.6613C54.4763 41.6053 55.6562 37.0002 55.6562 32.3438C55.6562 24.9565 52.7795 18.0114 47.5559 12.7879Z" fill="#EC2227"/>
<path d="M39.418 18.2343C38.4121 17.4202 36.9362 17.5755 36.1218 18.5818L28.7318 27.7136C28.4932 27.676 28.2489 27.6561 28 27.6561C25.4153 27.6561 23.3125 29.7589 23.3125 32.3436C23.3125 34.9283 25.4153 37.0311 28 37.0311C30.5847 37.0311 32.6875 34.9283 32.6875 32.3436C32.6875 31.7515 32.576 31.1853 32.3748 30.6633L39.7655 21.5306C40.5798 20.5243 40.4243 19.0484 39.418 18.2343Z" fill="#EC2227"/>
</svg>
