<svg width="60" height="60" viewBox="0 0 60 60" fill="none" xmlns="http://www.w3.org/2000/svg">
<path d="M13.8281 11.6016C13.8281 12.8961 12.7789 13.9453 11.4844 13.9453C10.1898 13.9453 9.14062 12.8961 9.14062 11.6016C9.14062 10.307 10.1898 9.25781 11.4844 9.25781C12.7789 9.25781 13.8281 10.307 13.8281 11.6016ZM17.5781 41.6016H9.375C6.79047 41.6016 4.6875 43.7045 4.6875 46.2891V50.625C4.6875 53.2095 6.79047 55.3125 9.375 55.3125H12.3047C13.5992 55.3125 14.6484 56.3617 14.6484 57.6562C14.6484 58.9508 13.5992 60 12.3047 60H9.375C4.20547 60 0 55.7945 0 50.625V46.2891C0 43.4908 1.23367 40.9772 3.18375 39.2578C1.23367 37.5385 0 35.0249 0 32.2266V27.7734C0 24.9751 1.23367 22.4615 3.18375 20.7422C1.23367 19.0228 0 16.5092 0 13.7109V9.375C0 4.20547 4.20547 0 9.375 0H45.9375C51.107 0 55.3125 4.20547 55.3125 9.375V16.0547C55.3125 18.1998 54.3457 20.1224 52.8264 21.4133C53.3698 22.0024 53.844 22.6666 54.2299 23.3968C54.8351 24.5412 54.3974 25.9593 53.253 26.564C52.1095 27.1692 50.6909 26.732 50.0858 25.5876C49.27 24.0445 47.6807 23.0859 45.9375 23.0859H22.6172V31.0547C22.6172 32.3492 21.568 33.3984 20.2734 33.3984C18.9789 33.3984 17.9297 32.3492 17.9297 31.0547V23.0859H9.375C6.79047 23.0859 4.6875 25.1889 4.6875 27.7734V32.2266C4.6875 34.8111 6.79047 36.9141 9.375 36.9141H17.5781C18.8727 36.9141 19.9219 37.9633 19.9219 39.2578C19.9219 40.5524 18.8727 41.6016 17.5781 41.6016ZM9.375 18.3984H48.2812C49.5735 18.3984 50.625 17.347 50.625 16.0547V9.375C50.625 6.79047 48.522 4.6875 45.9375 4.6875H22.6172V12.5391C22.6172 13.8336 21.568 14.8828 20.2734 14.8828C18.9789 14.8828 17.9297 13.8336 17.9297 12.5391V4.6875H9.375C6.79047 4.6875 4.6875 6.79047 4.6875 9.375V13.7109C4.6875 16.2955 6.79047 18.3984 9.375 18.3984ZM9.14062 48.5156C9.14062 49.8102 10.1898 50.8594 11.4844 50.8594C12.7789 50.8594 13.8281 49.8102 13.8281 48.5156C13.8281 47.2211 12.7789 46.1719 11.4844 46.1719C10.1898 46.1719 9.14062 47.2211 9.14062 48.5156ZM9.14062 30C9.14062 31.2946 10.1898 32.3438 11.4844 32.3438C12.7789 32.3438 13.8281 31.2946 13.8281 30C13.8281 28.7054 12.7789 27.6562 11.4844 27.6562C10.1898 27.6562 9.14062 28.7054 9.14062 30ZM60 50.2432C60 52.468 59.2282 54.6451 57.8275 56.3727C56.4505 58.071 54.5206 59.2726 52.3938 59.756C51.671 59.9203 50.9569 60 50.2116 60H25.659C23.5648 60 21.6106 59.1852 20.1567 57.7048C18.7207 56.2427 17.9297 54.2931 17.9297 52.2148C17.9297 48.7239 20.2657 45.7622 23.4737 44.7775V43.9343C23.4737 41.8497 24.2917 39.8996 25.7776 38.4435C27.2466 37.0038 29.2017 36.2109 31.2822 36.2109C32.2586 36.2109 33.2094 36.384 34.091 36.7113C34.7726 35.3178 35.7358 34.0627 36.9324 33.0331C39.0285 31.2282 41.7105 30.2344 44.4836 30.2344C50.8557 30.2344 56.0399 35.4012 56.0399 41.7513V42.4031C58.5132 44.2273 60 47.1172 60 50.2432ZM55.3125 50.2432C55.3125 48.3636 54.2738 46.6475 52.6012 45.7635C51.833 45.3575 51.3524 44.5601 51.3524 43.6913V41.7513C51.3524 37.9852 48.2712 34.9219 44.4836 34.9219C41.1259 34.9219 38.2077 37.4043 37.6959 40.6956C37.5563 41.5929 36.9113 42.3285 36.0397 42.5844C35.1686 42.8403 34.2284 42.5693 33.6259 41.8904C33.0588 41.2505 32.2266 40.898 31.2822 40.898C29.5322 40.898 28.1612 42.2319 28.1612 43.9339V46.7729C28.1612 48.0675 27.112 49.1167 25.8174 49.1167H25.8051C24.0472 49.1167 22.6172 50.5064 22.6172 52.2148C22.6172 53.952 23.9534 55.3125 25.659 55.3125H50.2116C50.6035 55.3125 50.9775 55.2708 51.3556 55.1848C53.6852 54.6556 55.3125 52.6236 55.3125 50.2432Z" fill="#EC2227"/>
</svg>
