<svg width="50" height="50" viewBox="0 0 50 50" fill="none" xmlns="http://www.w3.org/2000/svg">
<path d="M38.4569 14.1482C38.1323 12.1037 37.1598 10.2221 35.6492 8.7523C33.8247 6.97742 31.4158 6 28.8658 6C26.8527 6 24.9214 6.6088 23.2806 7.76016C22.1302 8.56765 21.1815 9.59759 20.4826 10.7881C18.6886 9.69694 16.611 9.10788 14.4904 9.10788C8.15457 9.10821 3 14.2452 3 20.5593C3 26.8737 8.15457 32.0107 14.4904 32.0107H16.6604V41.2062C16.6604 42.7466 17.9182 44 19.4641 44H30.5359C32.0821 44 33.34 42.7466 33.34 41.2062V32.0107H38.0333C42.9774 32.0107 47 28.002 47 23.0744C47 18.2887 43.2053 14.3696 38.4569 14.1482ZM30.7618 41.2062C30.7618 41.33 30.6605 41.431 30.5359 41.431H19.4641C19.3395 41.431 19.2385 41.33 19.2385 41.2062V37.808H30.7618V41.2062ZM30.7618 35.239H19.2385V25.2129H30.7618V35.239ZM30.7618 22.6439H19.2385V21.2975C19.2385 21.1734 19.3395 21.0728 19.4641 21.0728H30.5359C30.6605 21.0728 30.7618 21.1734 30.7618 21.2975V22.6439ZM38.0333 29.4417H33.34V21.2975C33.34 19.7568 32.0821 18.5038 30.5359 18.5038H19.4641C17.9182 18.5038 16.6604 19.7568 16.6604 21.2975V29.4417H14.4904C9.57623 29.4417 5.57812 25.4571 5.57812 20.5593C5.57812 15.6615 9.57623 11.6772 14.4904 11.6772C16.5576 11.6772 18.5715 12.3981 20.162 13.7073C20.4829 13.9716 20.9123 14.0649 21.3141 13.9585C21.7166 13.8518 22.0425 13.5585 22.1892 13.1704C23.2309 10.4181 25.9141 8.56899 28.8658 8.56899C30.7387 8.56899 32.5081 9.28684 33.8482 10.5904C35.1859 11.892 35.949 13.6327 35.997 15.4919C36.006 15.8485 36.1635 16.185 36.4314 16.4211C36.6992 16.6573 37.0541 16.7717 37.4096 16.7376C37.618 16.7175 37.8279 16.7071 38.0333 16.7071C41.5561 16.7071 44.4219 19.5635 44.4219 23.0744C44.4219 26.5854 41.5557 29.4417 38.0333 29.4417Z" fill="#EC2227"/>
<path d="M24.8118 41.2428C25.7558 41.3623 26.5497 40.5691 26.4309 39.6261C26.3497 38.9836 25.8307 38.4649 25.1885 38.384C24.2445 38.2645 23.4506 39.0578 23.5694 40.0007C23.6507 40.6432 24.1697 41.1615 24.8118 41.2428Z" fill="#EC2227"/>
</svg>
