<svg width="42" height="38" viewBox="0 0 42 38" fill="none" xmlns="http://www.w3.org/2000/svg">
<path d="M39.5391 22.903V21.4609C39.5391 19.1195 38.5995 16.9937 37.0781 15.4395V4.23438C37.0781 2.19696 35.4193 0.542969 33.3867 0.542969H3.69141C1.66171 0.542969 0 2.19401 0 4.23438V23.9219C0 25.9573 1.65596 27.6133 3.69141 27.6133H19.8516V33.7656C19.8516 35.8011 21.5075 37.457 23.543 37.457H38.3086C40.344 37.457 42 35.8011 42 33.7656V26.3828C42 24.7787 40.9712 23.411 39.5391 22.903ZM37.0781 21.4609V22.6914H34.6172V21.4609C34.6172 19.4255 32.9612 17.7695 30.9258 17.7695C28.8903 17.7695 27.2344 19.4255 27.2344 21.4609V22.6914H24.7734V21.4609C24.7734 18.0685 27.5334 15.3086 30.9258 15.3086C34.3182 15.3086 37.0781 18.0685 37.0781 21.4609ZM32.1562 21.4609V22.6914H29.6953V21.4609C29.6953 20.7825 30.2473 20.2305 30.9258 20.2305C31.6043 20.2305 32.1562 20.7825 32.1562 21.4609ZM31.9966 3.00391L18.5391 12.5686L5.08151 3.00391H31.9966ZM20.0632 25.1523H3.69141C3.01293 25.1523 2.46094 24.6004 2.46094 23.9219V4.23438C2.46094 4.21034 2.46315 4.1868 2.46455 4.16309L17.8263 15.081C18.0397 15.2327 18.2894 15.3085 18.5391 15.3085C18.7887 15.3085 19.0385 15.2327 19.2518 15.081L34.6136 4.16309C34.615 4.1868 34.6172 4.21034 34.6172 4.23438V13.6799C33.4978 13.1467 32.2461 12.8477 30.9258 12.8477C26.1764 12.8477 22.3125 16.7116 22.3125 21.4609V22.903C21.2655 23.2744 20.4346 24.1053 20.0632 25.1523ZM39.5391 33.7656C39.5391 34.4441 38.9871 34.9961 38.3086 34.9961H23.543C22.8645 34.9961 22.3125 34.4441 22.3125 33.7656V26.386C22.3125 26.3849 22.3127 26.384 22.3127 26.3828C22.3127 26.3823 22.3126 26.3817 22.3126 26.3812C22.3135 25.7035 22.865 25.1523 23.543 25.1523C26.4994 25.1523 35.3628 25.1523 38.3086 25.1523C38.9871 25.1523 39.5391 25.7043 39.5391 26.3828V33.7656Z" fill="#EC2227"/>
</svg>
