<svg width="50" height="50" viewBox="0 0 50 50" fill="none" xmlns="http://www.w3.org/2000/svg">
<path d="M23.9044 23.832C23.9044 23.1848 23.3797 22.6602 22.7325 22.6602H13.2793C12.6321 22.6602 12.1074 23.1848 12.1074 23.832C12.1074 24.4792 12.6321 25.0039 13.2793 25.0039H22.7325C23.3797 25.0039 23.9044 24.4792 23.9044 23.832Z" fill="#EC2227"/>
<path d="M17.9708 27.3477H13.2753C12.6281 27.3477 12.1035 27.8723 12.1035 28.5195C12.1035 29.1667 12.6281 29.6914 13.2753 29.6914H17.9708C18.618 29.6914 19.1427 29.1667 19.1427 28.5195C19.1427 27.8723 18.618 27.3477 17.9708 27.3477Z" fill="#EC2227"/>
<path d="M17.9708 32.0273H13.2716C12.6244 32.0273 12.0997 32.552 12.0997 33.1992C12.0997 33.8464 12.6244 34.3711 13.2716 34.3711H17.9708C18.618 34.3711 19.1427 33.8464 19.1427 33.1992C19.1427 32.552 18.618 32.0273 17.9708 32.0273Z" fill="#EC2227"/>
<path d="M16.826 16.7972H19.1389V19.11C19.1389 19.7572 19.6635 20.2819 20.3107 20.2819C20.9579 20.2819 21.4826 19.7572 21.4826 19.11V16.7972H23.7954C24.4426 16.7972 24.9673 16.2725 24.9673 15.6253C24.9673 14.9781 24.4426 14.4534 23.7954 14.4534H21.4826V12.1406C21.4826 11.4934 20.9579 10.9688 20.3107 10.9688C19.6635 10.9688 19.1389 11.4934 19.1389 12.1406V14.4534H16.826C16.1789 14.4534 15.6542 14.9781 15.6542 15.6253C15.6542 16.2725 16.1788 16.7972 16.826 16.7972Z" fill="#EC2227"/>
<path d="M33.1934 23.9618V21.4844H41.4785C42.1257 21.4844 42.6504 20.9597 42.6504 20.3125V10.9004C42.6504 7.65836 40.0162 5.00008 36.747 5.00008C35.9179 5.00008 14.0285 5 13.2039 5C9.97384 5 7.34595 7.62797 7.34595 10.858V43.807C7.34595 44.8641 8.63876 45.3751 9.36423 44.6175L10.8634 43.0519L12.447 44.6356C12.9047 45.0931 13.6465 45.0933 14.1043 44.6358L15.605 43.1355L17.1211 44.6391C17.5779 45.0922 18.3145 45.0921 18.7714 44.6392L20.3113 43.1123L21.852 44.6393C22.309 45.0923 23.0457 45.0921 23.5024 44.6388L25.4941 42.6622C27.3043 44.1235 29.6053 45 32.1075 45C37.9231 45 42.6544 40.2687 42.6544 34.4531C42.6544 29.0041 38.5007 24.5071 33.1934 23.9618ZM40.3066 10.9004V19.1406H33.1933V10.9004C33.1933 8.93922 34.7888 7.34375 36.7499 7.34375C38.711 7.34375 40.3066 8.9393 40.3066 10.9004ZM22.6763 42.1566L21.1361 40.63C20.6792 40.1771 19.9429 40.1773 19.486 40.6302L17.9463 42.1567L16.4268 40.6498C15.9687 40.1955 15.2295 40.1968 14.7731 40.653L13.2759 42.1498L11.6738 40.5477C11.1977 40.0716 10.4428 40.1021 9.99884 40.5659L9.6897 40.8887V10.858C9.6897 8.92031 11.2662 7.34375 13.2039 7.34375H32.0458C31.2956 8.33344 30.8495 9.56563 30.8495 10.9004V23.9816C25.6249 24.6054 21.5606 29.0632 21.5606 34.4531C21.5606 36.9239 22.415 39.1987 23.8434 40.9984L22.6763 42.1566ZM32.1075 42.6562C27.5843 42.6562 23.9044 38.9763 23.9044 34.4531C23.9044 29.9299 27.5843 26.25 32.1075 26.25C36.6307 26.25 40.3106 29.9299 40.3106 34.4531C40.3106 38.9763 36.6308 42.6562 32.1075 42.6562Z" fill="#EC2227"/>
<path d="M34.0619 33.7666C33.0834 33.004 31.7852 32.8495 31.5374 32.4023C31.478 32.2949 31.546 32.0713 31.7196 31.9545C31.9778 31.7811 32.572 31.8528 32.7647 32.0308C33.2404 32.4695 33.9818 32.4397 34.4207 31.9639C34.8594 31.4881 34.8295 30.7468 34.3538 30.308C34.0427 30.021 33.6541 29.8101 33.2323 29.6783C33.2221 29.0399 32.7021 28.5254 32.0614 28.5254C31.4142 28.5254 30.8895 29.0501 30.8895 29.6973V29.7563C29.3922 30.3725 28.7315 32.1737 29.4873 33.5381C30.018 34.4963 30.9322 34.8573 31.6667 35.1474C32.1521 35.3391 32.9651 35.6286 32.9071 36.1475C32.8799 36.3911 32.685 36.644 32.4333 36.7625C32.0446 36.9453 31.254 36.8261 30.7745 36.5123C30.2328 36.158 29.5066 36.3098 29.1522 36.8515C28.7979 37.3931 28.9497 38.1194 29.4914 38.4738C29.8775 38.7264 30.3646 38.9332 30.8895 39.0583V39.0781C30.8895 39.7253 31.4142 40.25 32.0614 40.25C32.7085 40.25 33.2332 39.7253 33.2332 39.0781V38.9667C35.3678 38.1478 36.0696 35.331 34.0619 33.7666Z" fill="#EC2227"/>
</svg>
