<svg width="16" height="14" viewBox="0 0 16 14" fill="none" xmlns="http://www.w3.org/2000/svg">
<path d="M12.2499 0.03125H0.468628C0.209753 0.03125 -0.00012207 0.241125 -0.00012207 0.5V2.84375H12.2499V0.03125Z" fill="#EC2227"/>
<path d="M-0.00012207 13.5C-0.00012207 13.7589 0.209753 13.9688 0.468628 13.9688H15.5311C15.79 13.9688 15.9999 13.7589 15.9999 13.5V3.78125H-0.00012207V13.5ZM2.01219 8.54356L2.94969 7.60606C3.13272 7.423 3.42953 7.423 3.6126 7.60606C3.79566 7.78913 3.79566 8.08591 3.6126 8.26897L3.47528 8.40625H7.53113V6.78791L7.39382 6.92519C7.21078 7.10825 6.91397 7.10825 6.73091 6.92519C6.54785 6.74213 6.54785 6.44534 6.73091 6.26228L7.66841 5.32478C7.85144 5.14172 8.14825 5.14172 8.33132 5.32478L9.26882 6.26228C9.45188 6.44534 9.45188 6.74213 9.26882 6.92519C9.17731 7.01675 9.05735 7.0625 8.93738 7.0625C8.81741 7.0625 8.69744 7.01675 8.60594 6.92519L8.46863 6.78791V8.40625H12.5245L12.3872 8.26894C12.2041 8.08587 12.2041 7.78909 12.3872 7.60603C12.5702 7.42297 12.867 7.42297 13.0501 7.60603L13.9876 8.54353C14.1707 8.72659 14.1707 9.02337 13.9876 9.20644L13.0501 10.1439C12.9586 10.2355 12.8386 10.2812 12.7186 10.2812C12.5987 10.2812 12.4787 10.2355 12.3872 10.1439C12.2041 9.96087 12.2041 9.66409 12.3872 9.48103L12.5245 9.34372H8.46863V10.9621L8.60594 10.8247C8.78897 10.6417 9.08578 10.6417 9.26885 10.8247C9.45191 11.0078 9.45191 11.3046 9.26885 11.4877L8.33135 12.4252C8.23982 12.5168 8.11985 12.5625 7.99988 12.5625C7.87991 12.5625 7.75994 12.5167 7.66844 12.4252L6.73094 11.4877C6.54788 11.3046 6.54788 11.0078 6.73094 10.8248C6.91397 10.6417 7.21078 10.6417 7.39385 10.8248L7.53116 10.9621V9.34375H3.47528L3.6126 9.48106C3.79566 9.66413 3.79566 9.96091 3.6126 10.144C3.52107 10.2355 3.4011 10.2812 3.28113 10.2812C3.16116 10.2812 3.04119 10.2355 2.94969 10.1439L2.01219 9.20644C1.82913 9.02341 1.82913 8.72659 2.01219 8.54356Z" fill="#EC2227"/>
<path d="M15.5311 0.03125H13.1874V2.84375H15.9999V0.5C15.9999 0.241125 15.79 0.03125 15.5311 0.03125Z" fill="#EC2227"/>
</svg>
