<svg width="46" height="46" viewBox="0 0 46 46" fill="none" xmlns="http://www.w3.org/2000/svg">
<g clip-path="url(#clip0)">
<path d="M38.3335 30.6665V34.5H3.83353V3.83295H38.3335V9.58295H42.1665V3.83295C42.1665 1.72615 40.4409 0 38.3335 0H3.83353C1.72558 0 0 1.72615 0 3.83295V34.5C0 36.6074 1.72558 38.3335 3.83353 38.3335H19.1665V42.1665H13.4165C11.2993 42.1665 9.58353 43.8829 9.58353 46L32.5835 45.9983C32.5835 43.8811 30.8672 42.1648 28.75 42.1648H23V38.3335H38.3335C40.4409 38.3335 42.1665 36.6074 42.1665 34.5V30.6665H38.3335Z" fill="#EC2227"/>
<path d="M41.6259 14.0922C41.04 13.2165 39.8049 12.9187 38.8763 13.4287L34.1296 16.0564L30.1184 12.0619C29.3675 11.3127 28.1491 11.3127 27.397 12.0619C26.646 12.8111 26.646 14.0215 27.397 14.7684L35.6741 23.0042H32.1574C31.0977 23.0042 30.2329 23.8632 30.2329 24.9207C30.2329 25.9764 31.0977 26.8337 32.1574 26.8337H39.7566L45.9999 20.6214L41.6259 14.0922Z" fill="#EC2227"/>
</g>
<defs>
<clipPath id="clip0">
<rect width="46" height="46" fill="white"/>
</clipPath>
</defs>
</svg>
