<svg width="46" height="46" viewBox="0 0 46 46" fill="none" xmlns="http://www.w3.org/2000/svg">
<path d="M40.2499 30.9384V13.4188C40.2499 9.18505 36.8189 5.75 32.5852 5.75H25.7105L28.7482 2.70998L26.0376 0L19.7282 6.31177C18.9795 7.0587 18.9795 8.2731 19.7282 9.02232L26.0399 15.3341L28.7499 12.623L25.7105 9.58352L32.5852 9.58525C34.7023 9.58525 36.4164 11.3016 36.4164 13.4188V30.9384C33.117 31.7935 30.6664 34.7656 30.6664 38.3335C30.6664 42.5672 34.0997 46 38.3334 46C42.5672 46 45.9999 42.5672 45.9999 38.3335C45.9999 34.7656 43.5498 31.7935 40.2499 30.9384ZM38.3334 42.1665C36.2163 42.1665 34.4999 40.4507 34.4999 38.3335C34.4999 36.2164 36.2163 34.5 38.3334 34.5C40.4506 34.5 42.1664 36.2164 42.1664 38.3335C42.1664 40.4507 40.4506 42.1665 38.3334 42.1665Z" fill="#EC2227"/>
<path d="M26.2717 36.9782L19.9605 30.6665L17.25 33.377L20.2894 36.4165L13.4147 36.4147C11.2976 36.4147 9.58352 34.6984 9.58352 32.5812V15.0616C12.8852 14.2065 15.3335 11.2344 15.3335 7.66647C15.3335 3.43333 11.9002 0 7.66647 0C3.43275 0 0 3.43333 0 7.66647C0 11.2344 2.44835 14.2065 5.75 15.0616V32.5812C5.75 36.8149 9.18102 40.25 13.4147 40.25H20.2894L17.2517 43.2895L19.9623 46L26.2717 39.6882C27.0204 38.9419 27.0204 37.7269 26.2717 36.9782ZM7.66647 11.5C5.54932 11.5 3.83352 9.78362 3.83352 7.66647C3.83352 5.5499 5.54932 3.83295 7.66647 3.83295C9.78362 3.83295 11.5 5.5499 11.5 7.66647C11.5 9.78362 9.78362 11.5 7.66647 11.5Z" fill="#EC2227"/>
</svg>
