<svg width="46" height="46" viewBox="0 0 46 46" fill="none" xmlns="http://www.w3.org/2000/svg">
<g clip-path="url(#clip0)">
<path d="M46.084 25.8854V20.1144L41.6334 19.0011C41.271 17.8337 40.743 16.7395 40.0949 15.7313L42.1107 11.5918L37.6907 7.88159L33.9747 10.5772C32.9417 10.1444 31.8389 9.85123 30.6945 9.68676V5.68688C30.6945 3.57065 28.9626 1.83936 26.8475 1.83936H3.76355C1.64791 1.83936 -0.0839691 3.57065 -0.0839691 5.68688V40.3129C-0.0839691 42.4285 1.64791 44.1598 3.76355 44.1598H26.8475C28.9626 44.1598 30.6945 42.4285 30.6945 40.3129V36.3113C31.8383 36.1479 32.9417 35.8548 33.9747 35.4208L37.6907 38.117L42.1107 34.4086L40.0949 30.2673C40.743 29.2585 41.2693 28.1649 41.6317 26.9974L46.084 25.8854ZM26.8475 40.3129H3.76355V5.68688H26.8475V40.3129ZM30.6945 30.422V15.5766C34.0082 16.4348 36.4655 19.4172 36.4655 22.9999C36.4655 26.5808 34.0082 29.5632 30.6945 30.422Z" fill="#EC2227"/>
<path d="M15.3056 9.53467H7.61055V13.3822H15.3056V9.53467Z" fill="#EC2227"/>
<path d="M23.0001 17.229H7.61055V21.0765H23.0001V17.229Z" fill="#EC2227"/>
<path d="M19.1525 24.9238H7.61055V28.7708H19.1525V24.9238Z" fill="#EC2227"/>
<path d="M23.0001 32.6177H7.61055V36.4658H23.0001V32.6177Z" fill="#EC2227"/>
</g>
<defs>
<clipPath id="clip0">
<rect width="46" height="46" fill="white"/>
</clipPath>
</defs>
</svg>
