<svg width="50" height="50" viewBox="0 0 50 50" fill="none" xmlns="http://www.w3.org/2000/svg">
<path d="M43.957 2H6.04297C3.81368 2 2 3.81368 2 6.04297V30.3906C2 32.6199 3.81368 34.4336 6.04297 34.4336H18.7703L20.1401 37.2188H19.6094C15.8939 37.2188 12.8711 40.2415 12.8711 43.957C12.8711 44.7013 13.4745 45.3047 14.2188 45.3047H26.5795C27.1358 46.8732 28.6337 48 30.3906 48H43.957C46.1863 48 48 46.1863 48 43.957C48 43.562 48 23.0216 48 22.3047V6.04297C48 3.81368 46.1863 2 43.957 2ZM26.3477 42.6094H15.7973C16.3535 41.0406 17.8524 39.9141 19.6094 39.9141H26.3477V42.6094ZM26.3477 37.2188H23.1437L21.774 34.4336H26.3477V37.2188ZM26.3477 31.7383H6.04297C5.29987 31.7383 4.69531 31.1337 4.69531 30.3906V29.043H26.3477V31.7383ZM45.3047 43.957C45.3047 44.7001 44.7001 45.3047 43.957 45.3047H30.3906C29.6475 45.3047 29.043 44.7001 29.043 43.957V42.6094H45.3047V43.957ZM45.3047 39.9141H29.043V26.3477H45.3047C45.3047 27.9449 45.3047 37.7021 45.3047 39.9141ZM45.3047 23.6523H29.043V22.3047C29.043 21.5616 29.6475 20.957 30.3906 20.957H43.957C44.7001 20.957 45.3047 21.5616 45.3047 22.3047V23.6523ZM45.3047 18.4935C44.8829 18.3439 44.4294 18.2617 43.957 18.2617H30.3906C28.1613 18.2617 26.3477 20.0754 26.3477 22.3047V26.3477H4.69531V6.04297C4.69531 5.29987 5.29987 4.69531 6.04297 4.69531H43.957C44.7001 4.69531 45.3047 5.29987 45.3047 6.04297V18.4935Z" fill="#EC2227"/>
<path d="M23.273 10.5863L20.5777 7.8011C20.0602 7.26626 19.207 7.25225 18.6721 7.76984C18.1373 8.28743 18.1233 9.14058 18.6409 9.67542L19.1251 10.1758H8.73828C7.99402 10.1758 7.39062 10.7792 7.39062 11.5234C7.39062 12.2677 7.99402 12.8711 8.73828 12.8711H19.0512L18.6564 13.2659C18.1301 13.7922 18.1301 14.6454 18.6564 15.1717C19.1826 15.698 20.036 15.6981 20.5623 15.1717L23.2573 12.4766C23.7727 11.9619 23.786 11.1155 23.273 10.5863Z" fill="#EC2227"/>
<path d="M22.3047 18.2618H11.9918L12.3864 17.867C12.9127 17.3407 12.9127 16.4874 12.3864 15.9611C11.8602 15.4348 11.0069 15.4348 10.4806 15.9611L7.78554 18.6563C7.28934 19.1523 7.26616 19.9403 7.69597 20.4635C7.72427 20.498 7.7541 20.531 7.78554 20.5626L10.4806 23.2577C11.0068 23.784 11.8601 23.7841 12.3864 23.2577C12.9127 22.7314 12.9127 21.8781 12.3864 21.3518L11.9918 20.9571H22.3047C23.0489 20.9571 23.6523 20.3537 23.6523 19.6094C23.6523 18.8652 23.0489 18.2618 22.3047 18.2618Z" fill="#EC2227"/>
</svg>
