<svg width="50" height="50" viewBox="0 0 50 50" fill="none" xmlns="http://www.w3.org/2000/svg">
<path d="M41.0716 12.2219C40.5333 5.39277 34.8447 0.00146484 27.9297 0.00146484C22.2521 0.00146484 17.1951 3.73398 15.419 9.20352C14.7848 9.01094 14.0256 8.88818 13.2812 8.88818C9.40488 8.88818 6.22217 11.9149 5.97275 15.7294C2.48789 17.3898 0 20.989 0 25.0991C0 30.7531 4.64365 35.353 10.3516 35.353H15.5146C15.8183 36.0197 16.1945 36.6544 16.6397 37.2472L14.3166 39.5703C12.6834 38.7924 10.666 39.0776 9.31582 40.4279L7.24414 42.4995C5.53076 44.2129 5.53076 47.0009 7.24414 48.7143C8.95752 50.4276 11.7455 50.4277 13.459 48.7143L15.5306 46.6427C16.881 45.2924 17.1662 43.275 16.3882 41.6418L18.7113 39.3187C22.7017 42.3156 28.4279 42.0315 32.1033 38.3563C32.9865 37.473 33.6882 36.4567 34.1908 35.3529H38.1836C44.6992 35.3529 50 30.0959 50 23.6342C50 18.2367 46.24 13.5336 41.0716 12.2219ZM13.459 44.5711L11.3874 46.6427C10.8162 47.2139 9.88691 47.2139 9.31572 46.6427C8.74453 46.0715 8.74453 45.1422 9.31572 44.5711L11.3873 42.4995C11.9584 41.9284 12.8877 41.9283 13.4589 42.4995C14.0301 43.0706 14.0301 43.9999 13.459 44.5711ZM30.0317 36.2847C27.1695 39.1469 22.5365 39.1475 19.6737 36.2847C16.8115 33.4225 16.811 28.7894 19.6737 25.9267C22.5359 23.0644 27.1689 23.064 30.0317 25.9267C32.8939 28.7888 32.8944 33.4221 30.0317 36.2847ZM38.1836 32.4233H35.0229C35.4154 29.344 34.4336 26.1854 32.1033 23.8551C28.0961 19.8479 21.6099 19.8473 17.6021 23.8551C15.2721 26.1852 14.29 29.3438 14.6826 32.4233H10.3516C6.25908 32.4233 2.92969 29.1377 2.92969 25.0991C2.92969 22.565 4.30645 20.1741 6.41914 18.8236C6.78408 19.826 7.35518 20.742 8.10234 21.4892C8.67432 22.0611 9.60186 22.0612 10.1739 21.4892C10.746 20.9171 10.746 19.9896 10.1739 19.4176C9.3501 18.5937 8.88672 17.382 8.88672 16.2124C8.88672 13.7893 10.8581 11.8179 13.2812 11.8179C14.4949 11.8179 15.5946 12.3109 16.3887 13.105C16.9606 13.677 17.8882 13.677 18.4603 13.105C19.0323 12.5329 19.0323 11.6055 18.4603 11.0334C18.3264 10.8995 18.187 10.7733 18.0449 10.6513C19.2297 6.129 23.2567 2.93115 27.9297 2.93115C33.0884 2.93115 37.3689 6.79717 38.0794 11.8098C36.5611 11.8243 35.0464 12.1368 33.6218 12.7394C32.8767 13.0545 32.5281 13.914 32.8432 14.6591C33.1589 15.4055 34.0191 15.7522 34.7629 15.4376C36.1403 14.855 37.6262 14.6318 39.0824 14.7847C39.1911 14.8288 39.306 14.8617 39.4267 14.8789C43.7843 15.5013 47.0703 19.2652 47.0703 23.6343C47.0703 28.4806 43.0838 32.4233 38.1836 32.4233Z" fill="#EC2227"/>
</svg>
