<svg width="50" height="50" viewBox="0 0 50 50" fill="none" xmlns="http://www.w3.org/2000/svg">
<path d="M48.9865 20.6768L46.355 19.8245C45.8206 17.6085 44.9484 15.5063 43.754 13.5554L44.9547 11.1538C45.2366 10.5898 45.1261 9.90879 44.6803 9.46299L40.5371 5.31982C40.0913 4.87393 39.4102 4.76348 38.8463 5.04541L36.444 6.24648C34.6645 5.16025 32.7355 4.33721 30.6907 3.79219L29.247 0.824121C29.0018 0.32002 28.4903 0 27.9297 0H22.0703C21.5097 0 20.9982 0.32002 20.753 0.824121L19.3094 3.79219C17.2646 4.33721 15.3356 5.16025 13.5561 6.24648L11.1538 5.04541C10.5899 4.76348 9.90879 4.87402 9.46299 5.31982L5.31982 9.46289C4.87402 9.90869 4.76348 10.5897 5.04541 11.1537L6.24639 13.556C5.16006 15.3354 4.33721 17.2645 3.79219 19.3094L0.824121 20.753C0.319922 20.9982 0 21.5097 0 22.0703V27.9297C0 28.4903 0.319922 29.0018 0.824121 29.247L3.79268 30.6908C4.2877 32.5385 5.02354 34.3106 5.98691 35.9749L4.96592 39.0378C4.79043 39.5642 4.92744 40.1445 5.31973 40.5368L9.46289 44.6802C9.85537 45.0726 10.4355 45.2094 10.962 45.0341L14.0245 44.0132C15.862 45.0795 17.8068 45.8645 19.8243 46.3541L20.6768 48.9864C20.8724 49.5907 21.4352 50 22.0703 50H27.9297C28.5648 50 29.1276 49.5907 29.3233 48.9865L30.1758 46.3542C32.1932 45.8645 34.138 45.0796 35.9756 44.0133L39.0381 45.0342C39.5646 45.2097 40.1448 45.0727 40.5372 44.6803L44.6803 40.537C45.0726 40.1446 45.2096 39.5644 45.0341 39.038L44.0133 35.9757C45.0796 34.1383 45.8646 32.1935 46.3542 30.176L48.9865 29.3234C49.5907 29.1276 50 28.5648 50 27.9297V22.0703C50 21.4352 49.5907 20.8724 48.9865 20.6768ZM47.0703 26.8644L44.654 27.6469C44.1495 27.8103 43.7729 28.2335 43.6689 28.7534C43.2298 30.9508 42.3878 33.0611 41.1664 35.0259C40.9363 35.3959 40.883 35.8491 41.0208 36.2625L41.9686 39.1055L39.1058 41.9684L36.2627 41.0206C35.8492 40.8829 35.3961 40.9362 35.0261 41.1662C33.0611 42.3877 30.9508 43.2297 28.7536 43.6688C28.2337 43.7727 27.8104 44.1494 27.6471 44.6538L26.8644 47.0703H23.1356L22.3531 44.654C22.1897 44.1495 21.7665 43.7729 21.2466 43.6689C19.0493 43.2298 16.939 42.3878 14.9741 41.1664C14.604 40.9364 14.1509 40.8831 13.7375 41.0208L10.8944 41.9686L8.03154 39.1055L8.9793 36.2625C9.11709 35.8492 9.06377 35.3959 8.83369 35.0259C7.73662 33.2609 6.94268 31.3478 6.47393 29.3393C6.37363 28.9096 6.08496 28.5479 5.68818 28.3549L2.92969 27.0133V22.9868L5.68818 21.6451C6.08496 21.4521 6.37373 21.0905 6.47393 20.6607C6.99697 18.4196 7.89619 16.332 9.14678 14.4561C9.43838 14.0187 9.47324 13.4587 9.23818 12.9885L8.13799 10.788L10.788 8.13799L12.9885 9.23818C13.4586 9.47324 14.0187 9.43838 14.456 9.14688C16.3321 7.89629 18.4197 6.99697 20.6607 6.47393C21.0904 6.37363 21.4521 6.08496 21.645 5.68818L22.9867 2.92969H27.0132L28.3549 5.68809C28.5479 6.08486 28.9095 6.37354 29.3392 6.47383C31.5801 6.99687 33.6677 7.89619 35.5439 9.14678C35.9813 9.43828 36.5414 9.47314 37.0114 9.23809L39.2119 8.13789L41.8619 10.7879L40.7617 12.9884C40.5267 13.4585 40.5615 14.0186 40.853 14.456C42.2354 16.5297 43.1827 18.8144 43.6688 21.2465C43.7726 21.7664 44.1494 22.1896 44.6538 22.353L47.0703 23.1356V26.8644Z" fill="#EC2227"/>
<path d="M25 8.88672C16.1203 8.88672 8.88672 16.1099 8.88672 25C8.88672 33.8785 16.1098 41.1133 25 41.1133C33.8797 41.1133 41.1133 33.8901 41.1133 25C41.1133 16.1215 33.8902 8.88672 25 8.88672ZM38.1019 23.5352H32.2959C32.2213 21.5792 31.997 19.6974 31.6382 17.9683C32.8316 17.5115 33.9145 16.93 34.8432 16.2399C36.6137 18.2271 37.7927 20.7517 38.1019 23.5352ZM32.5977 14.2317C32.0776 14.5644 31.4994 14.8607 30.8755 15.1163C30.7577 14.7664 30.6343 14.4255 30.5033 14.0979C30.3123 13.6203 30.1085 13.1743 29.8938 12.7587C30.8561 13.1447 31.7626 13.6408 32.5977 14.2317ZM22.2169 15.186C23.0356 13.1391 24.1281 11.8164 25 11.8164C25.8719 11.8164 26.9644 13.1391 27.7832 15.186C27.8794 15.4265 27.9702 15.677 28.0583 15.9321C27.0782 16.114 26.0483 16.2109 25 16.2109C23.9517 16.2109 22.9218 16.114 21.9418 15.9321C22.0299 15.677 22.1207 15.4266 22.2169 15.186ZM20.1062 12.7587C19.8915 13.1744 19.6878 13.6203 19.4967 14.0979C19.3656 14.4255 19.2423 14.7664 19.1245 15.1163C18.5005 14.8606 17.9224 14.5644 17.4023 14.2317C18.2374 13.6408 19.1439 13.1447 20.1062 12.7587ZM15.1568 16.2399C16.0854 16.93 17.1684 17.5116 18.3618 17.9683C18.003 19.6974 17.7787 21.5792 17.7041 23.5352H11.8982C12.2073 20.7517 13.3864 18.2271 15.1568 16.2399ZM11.8982 26.4648H17.7041C17.7787 28.4208 18.003 30.3026 18.3618 32.0317C17.1684 32.4885 16.0855 33.07 15.1568 33.7601C13.3864 31.7729 12.2073 29.2483 11.8982 26.4648ZM17.4024 35.7682C17.9225 35.4356 18.5006 35.1393 19.1246 34.8836C19.2424 35.2335 19.3657 35.5744 19.4968 35.902C19.6878 36.3796 19.8916 36.8256 20.1062 37.2412C19.144 36.8552 18.2375 36.3591 17.4024 35.7682ZM27.7831 34.814C26.9644 36.8609 25.8719 38.1836 25 38.1836C24.1281 38.1836 23.0356 36.8609 22.2168 34.814C22.1206 34.5735 22.0298 34.323 21.9417 34.0679C22.9218 33.886 23.9517 33.7891 25 33.7891C26.0483 33.7891 27.0782 33.886 28.0582 34.0679C27.9701 34.323 27.8793 34.5734 27.7831 34.814ZM28.8144 31.2271C27.5954 30.9866 26.3128 30.8594 25 30.8594C23.6872 30.8594 22.4046 30.9866 21.1856 31.2271C20.8917 29.7504 20.7045 28.1432 20.6359 26.4648H29.3641C29.2954 28.1432 29.1082 29.7504 28.8144 31.2271ZM20.6359 23.5352C20.7046 21.8568 20.8918 20.2496 21.1856 18.7729C22.4046 19.0134 23.6872 19.1406 25 19.1406C26.3128 19.1406 27.5954 19.0134 28.8144 18.7729C29.1083 20.2496 29.2955 21.8568 29.3641 23.5352H20.6359ZM29.8938 37.2413C30.1085 36.8256 30.3122 36.3797 30.5033 35.9021C30.6344 35.5745 30.7577 35.2336 30.8755 34.8837C31.4995 35.1394 32.0776 35.4356 32.5977 35.7683C31.7626 36.3592 30.8561 36.8553 29.8938 37.2413ZM34.8431 33.7601C33.9145 33.07 32.8315 32.4884 31.6381 32.0317C31.9969 30.3026 32.2213 28.411 32.2958 26.4551H38.1017C37.7927 29.2386 36.6136 31.7729 34.8431 33.7601Z" fill="#EC2227"/>
</svg>
