<svg width="47" height="47" viewBox="0 0 47 47" fill="none" xmlns="http://www.w3.org/2000/svg">
<path d="M35.9844 3.0293H1.37695C0.616508 3.0293 0 3.6458 0 4.40625V11.291H35.9844V3.0293Z" fill="#EC2227"/>
<path d="M0 42.5938C0 43.3542 0.616508 43.9707 1.37695 43.9707H45.623C46.3835 43.9707 47 43.3542 47 42.5938V14.0449H0V42.5938ZM5.91117 28.0342L8.66507 25.2803C9.20273 24.7426 10.0746 24.7426 10.6124 25.2803C11.1501 25.8181 11.1501 26.6898 10.6124 27.2276L10.209 27.6309H22.123V22.877L21.7197 23.2802C21.182 23.818 20.3102 23.818 19.7724 23.2802C19.2347 22.7425 19.2347 21.8707 19.7724 21.333L22.5263 18.579C23.064 18.0413 23.9359 18.0413 24.4736 18.579L27.2275 21.333C27.7652 21.8707 27.7652 22.7425 27.2275 23.2802C26.9587 23.5492 26.6063 23.6836 26.2539 23.6836C25.9015 23.6836 25.5491 23.5492 25.2803 23.2802L24.877 22.877V27.6309H36.791L36.3877 27.2275C35.85 26.6898 35.85 25.818 36.3877 25.2802C36.9254 24.7425 37.7973 24.7425 38.335 25.2802L41.0889 28.0341C41.6267 28.5719 41.6267 29.4437 41.0889 29.9814L38.335 32.7353C38.0661 33.0043 37.7137 33.1387 37.3613 33.1387C37.0089 33.1387 36.6565 33.0043 36.3877 32.7353C35.85 32.1976 35.85 31.3258 36.3877 30.788L36.791 30.3847H24.877V35.1386L25.2803 34.7352C25.818 34.1975 26.6898 34.1975 27.2276 34.7352C27.7653 35.2729 27.7653 36.1447 27.2276 36.6825L24.4737 39.4364C24.2048 39.7055 23.8524 39.8398 23.5 39.8398C23.1476 39.8398 22.7952 39.7055 22.5264 39.4365L19.7725 36.6826C19.2347 36.1448 19.2347 35.273 19.7725 34.7353C20.3102 34.1975 21.182 34.1975 21.7198 34.7353L22.1231 35.1386V30.3848H10.209L10.6124 30.7881C11.1501 31.3259 11.1501 32.1977 10.6124 32.7354C10.3435 33.0043 9.99108 33.1387 9.63867 33.1387C9.28626 33.1387 8.93386 33.0043 8.66507 32.7353L5.91117 29.9814C5.37342 29.4438 5.37342 28.5719 5.91117 28.0342Z" fill="#EC2227"/>
<path d="M45.623 3.0293H38.7383V11.291H47V4.40625C47 3.6458 46.3835 3.0293 45.623 3.0293Z" fill="#EC2227"/>
</svg>
