<?xml version="1.0" encoding="utf-8"?>
<!-- Generator: Adobe Illustrator 24.1.2, SVG Export Plug-In . SVG Version: 6.00 Build 0)  -->
<svg version="1.1" id="Слой_1" xmlns="http://www.w3.org/2000/svg" xmlns:xlink="http://www.w3.org/1999/xlink" x="0px" y="0px"
	 width="57.7px" height="47px" viewBox="0 0 57.7 47" style="enable-background:new 0 0 57.7 47;" xml:space="preserve">
<style type="text/css">
	.st0{clip-path:url(#SVGID_2_);}
	.st1{fill:#EC2227;}
</style>
<g>
	<defs>
		<rect id="SVGID_1_" width="57.3" height="47"/>
	</defs>
	<clipPath id="SVGID_2_">
		<use xlink:href="#SVGID_1_"  style="overflow:visible;"/>
	</clipPath>
	<g class="st0">
		<path class="st1" d="M34.8,18.5c1.1,0,1.9-0.7,1.9-1.6c0-0.9-0.9-1.6-1.9-1.6c-1.1,0-1.9,0.7-1.9,1.6
			C32.9,17.8,33.8,18.5,34.8,18.5z"/>
		<path class="st1" d="M45.6,31.7c1.1,0,1.9-0.7,1.9-1.6s-0.9-1.6-1.9-1.6c-1.1,0-1.9,0.7-1.9,1.6S44.5,31.7,45.6,31.7z"/>
		<path class="st1" d="M55.6,0H24.2c-0.9,0-1.7,0.6-1.7,1.4V47h33.1c0.9,0,1.7-0.6,1.7-1.4V1.4C57.3,0.6,56.6,0,55.6,0z M36.5,21
			v17.9c0,0.8-0.8,1.4-1.7,1.4c-0.9,0-1.7-0.6-1.7-1.4V21c-2.1-0.6-3.6-2.2-3.6-4.1c0-1.9,1.5-3.5,3.6-4.1V8.1
			c0-0.8,0.8-1.4,1.7-1.4c0.9,0,1.7,0.6,1.7,1.4v4.7c2.1,0.6,3.6,2.2,3.6,4.1C40.1,18.8,38.6,20.4,36.5,21z M47.2,34.2v4.7
			c0,0.8-0.8,1.4-1.7,1.4c-0.9,0-1.7-0.6-1.7-1.4v-4.7c-2.1-0.6-3.6-2.2-3.6-4.1c0-1.9,1.5-3.5,3.6-4.1V8.1c0-0.8,0.8-1.4,1.7-1.4
			c0.9,0,1.7,0.6,1.7,1.4V26c2.1,0.6,3.6,2.2,3.6,4.1C50.8,32,49.3,33.6,47.2,34.2z"/>
		<path class="st1" d="M13.6,17.3v2.3c-0.2,0.1-0.4,0.1-0.6,0.2l-2-1.7c-0.6-0.5-1.4-0.5-2.1-0.2c-1.2,0.6-2.3,1.4-3.3,2.2
			c-1,0.8-1.9,1.7-2.7,2.7c-0.4,0.5-0.4,1.3,0.2,1.7l2,1.7c-0.1,0.2-0.2,0.3-0.2,0.5H2.1c-0.8,0-1.5,0.5-1.6,1.1
			C0.1,29,0,30.2,0,31.3c0,1.2,0.1,2.3,0.4,3.5c0.2,0.6,0.8,1.1,1.6,1.1h2.9C5,36,5.1,36.2,5.2,36.3l-2,1.7
			c-0.6,0.5-0.7,1.2-0.2,1.7c0.8,1,1.7,1.9,2.7,2.7c1,0.8,2.1,1.6,3.3,2.2c0.7,0.4,1.5,0.3,2.1-0.2l2-1.7c0.2,0.1,0.4,0.1,0.6,0.2
			v2.3c0,0.7,0.6,1.2,1.3,1.3c1.4,0.2,2.8,0.3,4.2,0.3V34.7c-2.3,0-4.1-1.5-4.1-3.4c0-1.9,1.9-3.4,4.1-3.4V15.6
			c-1.4,0-2.8,0.1-4.2,0.3C14.1,16.1,13.6,16.7,13.6,17.3z"/>
	</g>
</g>
</svg>
