<svg width="47" height="47" viewBox="0 0 47 47" fill="none" xmlns="http://www.w3.org/2000/svg">
<path d="M25.5654 0H7.66504C6.90459 0 6.28809 0.616508 6.28809 1.37695V5.50781H25.5654V0Z" fill="#EC2227"/>
<path d="M33.8271 1.37695C33.8271 0.616508 33.2106 0 32.4502 0H28.3193V5.50781H33.8271V1.37695Z" fill="#EC2227"/>
<path d="M14.5498 30.8438H25.5654V33.6895H14.5498V30.8438Z" fill="#EC2227"/>
<path d="M33.8271 38.7383V8.26172H6.28809V38.7383C6.28809 39.4987 6.90459 40.1152 7.66504 40.1152H32.4502C33.2106 40.1152 33.8271 39.4987 33.8271 38.7383ZM28.3193 35.0664C28.3193 35.8269 27.7028 36.4434 26.9424 36.4434H13.1729C12.4124 36.4434 11.7959 35.8269 11.7959 35.0664V29.4668C11.7959 28.7064 12.4124 28.0898 13.1729 28.0898H26.9424C27.7028 28.0898 28.3193 28.7064 28.3193 29.4668V35.0664ZM26.9424 25.2441H13.1729C12.4124 25.2441 11.7959 24.6276 11.7959 23.8672C11.7959 23.1067 12.4124 22.4902 13.1729 22.4902H26.9424C27.7028 22.4902 28.3193 23.1067 28.3193 23.8672C28.3193 24.6276 27.7028 25.2441 26.9424 25.2441ZM26.9424 19.7363H13.1729C12.4124 19.7363 11.7959 19.1198 11.7959 18.3594C11.7959 17.5989 12.4124 16.9824 13.1729 16.9824H26.9424C27.7028 16.9824 28.3193 17.5989 28.3193 18.3594C28.3193 19.1198 27.7028 19.7363 26.9424 19.7363ZM26.9424 14.2285H13.1729C12.4124 14.2285 11.7959 13.612 11.7959 12.8516C11.7959 12.0911 12.4124 11.4746 13.1729 11.4746H26.9424C27.7028 11.4746 28.3193 12.0911 28.3193 12.8516C28.3193 13.612 27.7028 14.2285 26.9424 14.2285Z" fill="#EC2227"/>
<path d="M39.335 5.50781H36.5811V11.0156H40.7119V6.88477C40.7119 6.12432 40.0954 5.50781 39.335 5.50781Z" fill="#EC2227"/>
<path d="M36.5811 38.7383C36.5811 41.0161 34.728 42.8691 32.4502 42.8691H11.7959V45.623C11.7959 46.3835 12.4124 47 13.1729 47H39.335C40.0954 47 40.7119 46.3835 40.7119 45.623V13.7695H36.5811V38.7383Z" fill="#EC2227"/>
</svg>
