<svg width="47" height="47" viewBox="0 0 47 47" fill="none" xmlns="http://www.w3.org/2000/svg">
<path d="M1.37695 8.26172C2.13731 8.26172 2.75391 7.64521 2.75391 6.88477V2.75391H6.88477C7.64512 2.75391 8.26172 2.1374 8.26172 1.37695C8.26172 0.616508 7.64512 0 6.88477 0H1.37695C0.616508 0 0 0.616508 0 1.37695V6.88477C0 7.64521 0.616508 8.26172 1.37695 8.26172Z" fill="#EC2227"/>
<path d="M6.88477 44.2461H2.75391V40.1152C2.75391 39.3548 2.13731 38.7383 1.37695 38.7383C0.616508 38.7383 0 39.3548 0 40.1152V45.623C0 46.3835 0.616508 47 1.37695 47H6.88477C7.64512 47 8.26172 46.3835 8.26172 45.623C8.26172 44.8626 7.64512 44.2461 6.88477 44.2461Z" fill="#EC2227"/>
<path d="M45.623 38.7383C44.8626 38.7383 44.2461 39.3548 44.2461 40.1152V44.2461H40.1152C39.3548 44.2461 38.7383 44.8626 38.7383 45.623C38.7383 46.3835 39.3548 47 40.1152 47H45.623C46.3834 47 47 46.3835 47 45.623V40.1152C47 39.3548 46.3834 38.7383 45.623 38.7383Z" fill="#EC2227"/>
<path d="M45.623 0H40.1152C39.3548 0 38.7383 0.616508 38.7383 1.37695C38.7383 2.1374 39.3548 2.75391 40.1152 2.75391H44.2461V6.88477C44.2461 7.64521 44.8626 8.26172 45.623 8.26172C46.3834 8.26172 47 7.64521 47 6.88477V1.37695C47 0.616508 46.3834 0 45.623 0Z" fill="#EC2227"/>
<path d="M14.531 19.9038L35.461 8.02944L32.2058 6.17432L11.2759 18.0487L14.531 19.9038Z" fill="#EC2227"/>
<path d="M4.01953 13.1127C4.01953 13.6074 4.28492 14.0641 4.71471 14.309L8.49215 16.4618L29.4221 4.58746L24.1801 1.60002C23.7575 1.35924 23.2392 1.35924 22.8166 1.60002L4.71471 11.9164C4.28482 12.1613 4.01953 12.618 4.01953 13.1127Z" fill="#EC2227"/>
<path d="M42.2838 11.9162L38.2472 9.61572L17.3171 21.4902L22.8184 24.6253C23.0298 24.7457 23.2649 24.806 23.5002 24.806C23.7355 24.806 23.9707 24.7458 24.182 24.6253L42.2839 14.3087C42.7138 14.0638 42.9791 13.6071 42.9791 13.1125C42.9791 12.6178 42.7137 12.1611 42.2838 11.9162Z" fill="#EC2227"/>
<path d="M42.2839 22.2325L38.1129 19.8555L25.5456 27.0178C24.9233 27.3723 24.2161 27.5597 23.5003 27.5597C22.7843 27.5597 22.0772 27.3723 21.4552 27.0179L8.88739 19.8555L4.71633 22.2325C4.28653 22.4775 4.02124 22.9342 4.02124 23.4288C4.02124 23.9235 4.28662 24.3802 4.71633 24.6251L22.8183 34.9418C23.0297 35.0623 23.2649 35.1225 23.5002 35.1225C23.7354 35.1225 23.9706 35.0623 24.182 34.9418L42.2838 24.6251C42.7137 24.3802 42.979 23.9234 42.979 23.4288C42.9791 22.9342 42.7138 22.4775 42.2839 22.2325Z" fill="#EC2227"/>
<path d="M42.9791 33.7458C42.9791 33.2511 42.7137 32.7945 42.2839 32.5495L38.1129 30.1724L25.5457 37.3347C24.923 37.6893 24.2159 37.8766 23.5003 37.8766C22.7846 37.8766 22.0775 37.6893 21.4555 37.3351L8.88749 30.1725L4.71642 32.5496C4.28653 32.7945 4.02124 33.2512 4.02124 33.7459C4.02124 34.2406 4.28662 34.6973 4.71642 34.9422L22.8184 45.2587C23.0297 45.3792 23.2649 45.4394 23.5002 45.4394C23.7354 45.4394 23.9706 45.3792 24.1819 45.2587L42.2838 34.9422C42.7138 34.6972 42.9791 34.2405 42.9791 33.7458Z" fill="#EC2227"/>
</svg>
