<svg width="60" height="60" viewBox="0 0 60 60" fill="none" xmlns="http://www.w3.org/2000/svg">
<path d="M30 44.0039C29.0292 44.0039 28.2422 44.7909 28.2422 45.7617V49.3945C28.2422 50.3653 29.0292 51.1523 30 51.1523C30.9708 51.1523 31.7578 50.3653 31.7578 49.3945V45.7617C31.7578 44.7909 30.9708 44.0039 30 44.0039Z" fill="#EC2227"/>
<path d="M49.2802 16.3093C48.604 8.20453 41.7921 1.81641 33.5156 1.81641C26.5874 1.81641 20.5866 6.29648 18.501 12.7411C17.7157 12.5029 16.8067 12.3633 15.9375 12.3633C11.2879 12.3633 7.47 15.9928 7.16777 20.5672C2.83313 22.5964 0 26.9246 0 31.6992C0 38.484 5.57238 44.0039 12.4219 44.0039H14.1797V52.9102C14.1797 55.8179 16.5454 58.1836 19.4531 58.1836H40.5469C43.4546 58.1836 45.8203 55.8179 45.8203 52.9102V44.0039C53.6391 44.0039 60 37.6955 60 29.9414C60 23.346 55.2544 17.8427 49.2802 16.3093ZM42.3047 52.9102C42.3047 53.8794 41.5161 54.668 40.5469 54.668H19.4531C18.4839 54.668 17.6953 53.8794 17.6953 52.9102V42.2461C17.6953 41.2768 18.4839 40.4883 19.4531 40.4883C23.6766 40.4883 36.3386 40.4883 40.5469 40.4883C41.5161 40.4883 42.3047 41.2768 42.3047 42.2461V52.9102ZM30 29.9414C27.0922 29.9414 24.7266 32.3071 24.7266 35.2148V36.9727H21.2109V35.2148C21.2109 30.3686 25.1537 26.4258 30 26.4258C34.8463 26.4258 38.7891 30.3686 38.7891 35.2148V36.9727H35.2734V35.2148C35.2734 32.3071 32.9078 29.9414 30 29.9414ZM31.7578 35.2148V36.9727H28.2422V35.2148C28.2422 34.2456 29.0307 33.457 30 33.457C30.9693 33.457 31.7578 34.2456 31.7578 35.2148ZM45.8203 40.4883H45.518C44.9875 38.9925 43.8005 37.8055 42.3047 37.275V35.2148C42.3047 28.43 36.7848 22.9102 30 22.9102C23.2152 22.9102 17.6953 28.43 17.6953 35.2148V37.275C16.1995 37.8055 15.0125 38.9925 14.482 40.4883H12.4219C7.5109 40.4883 3.51562 36.5455 3.51562 31.6992C3.51562 28.6546 5.14406 25.8609 7.71516 24.2637C8.15016 25.4147 8.82668 26.471 9.7227 27.367C10.4091 28.0535 11.5221 28.0536 12.2086 27.367C12.8951 26.6805 12.8951 25.5676 12.2086 24.8811C8.91047 21.5831 11.2474 15.8789 15.9375 15.8789C17.3347 15.8789 18.6717 16.4287 19.6664 17.4234C20.3528 18.1099 21.4658 18.11 22.1523 17.4234C22.8388 16.737 22.8388 15.624 22.1523 14.9375C21.9919 14.7771 21.8249 14.6259 21.6547 14.4796C23.0702 9.12059 27.9007 5.33203 33.5156 5.33203C39.7002 5.33203 44.8329 9.91922 45.6928 15.8696C43.878 15.8852 42.0669 16.2568 40.3459 16.9848C39.4518 17.363 39.0336 18.3943 39.4117 19.2885C39.7893 20.1811 40.8196 20.6014 41.7155 20.2227C43.3848 19.5166 45.1676 19.2601 46.9232 19.4487C47.0464 19.4966 47.1759 19.5329 47.3119 19.5523C52.5411 20.2991 56.4844 24.7655 56.4844 29.9414C56.4844 35.757 51.7005 40.4883 45.8203 40.4883Z" fill="#EC2227"/>
</svg>
