<svg width="60" height="60" viewBox="0 0 60 60" fill="none" xmlns="http://www.w3.org/2000/svg">
<g clip-path="url(#clip0)">
<path d="M37.7842 32.4643L35.2268 30.9878C35.2582 30.6476 35.2737 30.3197 35.2737 30C35.2737 29.6803 35.2582 29.3524 35.2268 29.0122L37.7842 27.5357C38.6249 27.0503 38.9129 25.9752 38.4275 25.1345L34.9119 19.0452C34.4265 18.2045 33.3516 17.9164 32.5108 18.4018L29.9172 19.8991C29.3837 19.5305 28.8245 19.2062 28.2423 18.9281V15.8203C28.2423 14.8495 27.4553 14.0625 26.4845 14.0625H19.4533C18.4825 14.0625 17.6954 14.8495 17.6954 15.8203V18.9281C17.1133 19.2062 16.554 19.5305 16.0206 19.8991L13.427 18.4018C12.5862 17.9162 11.5111 18.2044 11.0258 19.0452L7.5102 25.1345C7.02481 25.9752 7.31286 27.0503 8.15356 27.5357L10.7109 29.0122C10.6795 29.3524 10.6641 29.6803 10.6641 30C10.6641 30.3197 10.6795 30.6476 10.7109 30.9878L8.15356 32.4643C7.31286 32.9497 7.02481 34.0248 7.5102 34.8655L11.0258 40.9548C11.5112 41.7956 12.5861 42.0837 13.427 41.5982L16.0206 40.1009C16.554 40.4695 17.1133 40.7938 17.6954 41.0719V44.1797C17.6954 45.1505 18.4825 45.9375 19.4533 45.9375H26.4845C27.4553 45.9375 28.2423 45.1505 28.2423 44.1797V41.0719C28.8244 40.7937 29.3836 40.4695 29.9172 40.1009L32.5108 41.5982C33.3515 42.0837 34.4265 41.7955 34.9119 40.9548L38.4275 34.8655C38.9129 34.0248 38.6249 32.9497 37.7842 32.4643ZM31.5938 28.4005C31.7058 29.0082 31.7579 29.5165 31.7579 30C31.7579 30.4835 31.7058 30.9918 31.5938 31.5994C31.4589 32.3311 31.7992 33.0684 32.4435 33.4404L34.504 34.63L32.7462 37.6746L30.6585 36.4693C30.014 36.0971 29.2048 36.1713 28.6388 36.6544C27.8184 37.3542 26.8956 37.8893 25.8959 38.2446C25.195 38.4937 24.7268 39.1571 24.7268 39.9009V42.4219H21.2112V39.9009C21.2112 39.1571 20.743 38.4939 20.0421 38.2446C19.0424 37.8893 18.1195 37.3542 17.2992 36.6544C16.7331 36.1714 15.924 36.0971 15.2795 36.4693L13.1918 37.6746L11.434 34.63L13.4945 33.4404C14.1386 33.0684 14.4789 32.3311 14.344 31.5994C14.232 30.9918 14.1798 30.4835 14.1798 30C14.1798 29.5165 14.232 29.0082 14.344 28.4006C14.4789 27.6689 14.1386 26.9316 13.4943 26.5596L11.4338 25.37L13.1916 22.3254L15.2793 23.5307C15.9238 23.9029 16.7329 23.8287 17.2991 23.3456C18.1193 22.6459 19.0422 22.1108 20.0421 21.7553C20.7429 21.5061 21.2111 20.8429 21.2111 20.0991V17.5781H24.7267V20.0989C24.7267 20.8427 25.1949 21.506 25.8956 21.7552C26.8956 22.1107 27.8184 22.6458 28.6386 23.3455C29.2048 23.8286 30.0138 23.9029 30.6585 23.5305L32.7462 22.3253L34.504 25.3699L32.4435 26.5595C31.7991 26.9314 31.4589 27.6688 31.5938 28.4005Z" fill="#EC2227"/>
<path d="M22.9688 24.7266C20.061 24.7266 17.6953 27.0922 17.6953 30C17.6953 32.9078 20.061 35.2734 22.9688 35.2734C25.8765 35.2734 28.2422 32.9078 28.2422 30C28.2422 27.0922 25.8765 24.7266 22.9688 24.7266ZM22.9688 31.7578C21.9995 31.7578 21.2109 30.9693 21.2109 30C21.2109 29.0307 21.9995 28.2422 22.9688 28.2422C23.938 28.2422 24.7266 29.0307 24.7266 30C24.7266 30.9693 23.938 31.7578 22.9688 31.7578Z" fill="#EC2227"/>
<path d="M44.393 10.0321C44.3902 10.0293 44.3873 10.0264 44.3844 10.0235L35.7825 1.53879C34.7872 0.546445 33.4654 0 32.0595 0H5.27344C2.36566 0 0 2.36566 0 5.27344V47.6953C0 50.6031 2.36566 52.9688 5.27344 52.9688H25.9521L36.0561 59.7048C36.5962 60.0649 37.2899 60.0975 37.8606 59.792C38.4321 59.4861 38.7889 58.8905 38.7889 58.2422V52.9688H40.5468C41.9477 52.9688 43.2827 52.43 44.306 51.4519C45.3581 50.4462 45.9375 49.112 45.9375 47.6953V13.7609C45.9375 12.3523 45.3889 11.028 44.393 10.0321ZM35.2734 5.9748L39.9087 10.5469H35.2734V5.9748ZM42.4219 47.6953C42.4219 48.6318 41.5457 49.4531 40.5469 49.4531H37.0312C36.0605 49.4531 35.2734 50.2402 35.2734 51.2109V54.9577L27.4594 49.7483C27.1706 49.5558 26.8314 49.4531 26.4844 49.4531H5.27344C4.30418 49.4531 3.51562 48.6646 3.51562 47.6953V5.27344C3.51562 4.30418 4.30418 3.51562 5.27344 3.51562H31.7578V12.3047C31.7578 13.2755 32.5448 14.0625 33.5156 14.0625H42.4219V47.6953Z" fill="#EC2227"/>
<path d="M54.7265 3.51562C51.8188 3.51562 49.4531 5.88129 49.4531 8.78906C49.4531 9.14555 49.4531 43.2122 49.4531 44.1387C49.4483 44.3482 49.4813 44.5661 49.5563 44.7746L53.0589 55.2825C53.2982 56.0003 53.9698 56.4844 54.7265 56.4844C55.4832 56.4844 56.1548 56.0003 56.3941 55.2824L59.8967 44.7745C59.9627 44.5909 59.9991 44.393 60 44.1867C60 44.1865 60 44.1862 60 44.186C60 44.1855 60 44.1851 60 44.1846C60 44.1841 60 44.1837 60 44.1831C60 44.1827 60 44.1825 60 44.1821C60 44.1813 60 44.1805 60 44.1797C60 43.2529 60 9.14695 60 8.78906C60 5.88129 57.6343 3.51562 54.7265 3.51562ZM54.7265 49.1679L53.6498 45.9375H55.8034L54.7265 49.1679ZM56.4843 42.4219H52.9687V17.5781H56.4843V42.4219ZM56.4843 14.0625H52.9687V8.78906C52.9687 7.8198 53.7573 7.03125 54.7265 7.03125C55.6958 7.03125 56.4843 7.8198 56.4843 8.78906V14.0625Z" fill="#EC2227"/>
</g>
<defs>
<clipPath id="clip0">
<rect width="60" height="60" fill="white"/>
</clipPath>
</defs>
</svg>
