<svg width="73" height="73" viewBox="0 0 73 73" fill="none" xmlns="http://www.w3.org/2000/svg">
<g clip-path="url(#clip0)">
<path d="M55.9915 61.0335C54.6664 62.0642 53.3353 63.0509 52.035 63.9662C51.7197 64.1882 51.5484 64.5628 51.5864 64.9463C51.59 64.9828 51.9437 68.6211 51.5879 71.8121C51.5224 72.399 51.945 72.9278 52.532 72.9934C52.5724 72.9978 52.6123 73.0001 52.6519 73.0001C53.1894 73 53.6524 72.5957 53.7133 72.0491C54.0068 69.4177 53.8578 66.5894 53.767 65.3599C54.9346 64.5268 56.1223 63.6411 57.3045 62.7215C57.7708 62.3589 57.8547 61.6871 57.492 61.221C57.1296 60.7548 56.4578 60.6708 55.9915 61.0335Z" fill="#EC2227"/>
<path d="M72.9982 47.741C72.1724 34.0719 72.9895 21.2795 72.9979 21.1519C73.0173 20.8568 72.9135 20.5668 72.7113 20.351C72.5091 20.1353 72.2267 20.0127 71.9308 20.0127C67.7959 20.0127 65.4909 21.4097 64.333 24.659C62.6419 24.8099 61.2506 25.4555 60.1892 26.584C57.0714 29.8996 57.4945 36.7765 57.8678 42.8439C57.8789 43.0247 57.89 43.2047 57.9009 43.3842C56.8057 43.2241 55.6781 43.4099 54.4491 43.9201C51.5677 45.1159 48.197 48.0749 42.6126 52.9776C41.4777 53.9741 40.3042 55.0045 39.0141 56.1259C38.8089 56.3044 38.6793 56.5543 38.6518 56.8249C38.6229 57.1098 37.9508 63.8961 38.5691 72.0117C38.6119 72.5728 39.0806 72.9997 39.6343 72.9997C39.6616 72.9997 39.6891 72.9987 39.7167 72.9967C40.3056 72.952 40.7466 72.4381 40.7018 71.8491C40.1837 65.0494 40.608 59.0563 40.7424 57.4571C41.9094 56.4411 42.9828 55.4988 44.0237 54.5848C54.4432 45.4371 56.8026 43.5763 60.5977 47.2695C59.1144 48.5876 55.7923 51.5011 52.0264 54.5541C51.5675 54.9259 51.4973 55.5995 51.8691 56.0582C52.2411 56.5171 52.9146 56.5873 53.3732 56.2156C58.4997 52.0596 62.8125 48.1583 62.8555 48.1195C63.0662 47.9286 63.1922 47.6616 63.2058 47.3776C63.2193 47.0936 63.1189 46.8158 62.927 46.6058C62.5736 46.2188 62.2268 45.8674 61.8849 45.5507L64.9334 42.7676C65.1554 42.565 65.2817 42.2783 65.2817 41.9779C65.2817 34.096 65.2817 28.8889 66.2033 25.8175C66.9195 23.4307 68.1695 22.4026 70.7973 22.1927C70.6191 25.6472 70.1867 36.1959 70.8367 47.4193C69.7333 48.6218 65.622 52.9986 59.9129 57.8438C59.4627 58.2259 59.4075 58.9007 59.7896 59.3509C60.001 59.6002 60.3023 59.7283 60.6054 59.7283C60.85 59.7283 61.0958 59.6449 61.2968 59.4742C68.0911 53.708 72.6841 48.5672 72.7297 48.5161C72.9188 48.3038 73.0153 48.0247 72.9982 47.741ZM63.143 41.5062L60.162 44.2277C60.1383 44.2135 60.1148 44.1995 60.0913 44.1857C60.0632 43.7011 60.033 43.2092 60.0025 42.7126C59.6557 37.0777 59.2628 30.6912 61.7473 28.049C62.2837 27.4787 62.9467 27.1014 63.7544 26.9106C63.1573 30.2112 63.1435 34.9298 63.143 41.5062Z" fill="#EC2227"/>
<path d="M33.986 56.1262C32.6962 55.005 31.5228 53.9747 30.388 52.9785C28.9757 51.7387 27.6417 50.5675 26.4527 49.5477C26.0042 49.1633 25.3294 49.2149 24.9448 49.6633C24.5603 50.1117 24.6121 50.7867 25.0603 51.1712C26.24 52.1829 27.5084 53.2965 28.9769 54.5858C30.0178 55.4996 31.0911 56.4418 32.2578 57.4576C32.3923 59.0568 32.8166 65.0499 32.2984 71.8496C32.2537 72.4386 32.6945 72.9523 33.2835 72.9972C33.3112 72.9994 33.3386 73.0002 33.3659 73.0002C33.9196 73.0002 34.3882 72.5733 34.4311 72.0122C35.0495 63.8966 34.3774 57.1103 34.3483 56.8254C34.3208 56.5547 34.1913 56.3047 33.986 56.1262Z" fill="#EC2227"/>
<path d="M22.2409 46.1324C19.3531 44.0047 17.1246 43.085 15.0615 43.3922C15.0738 43.1936 15.0862 42.9942 15.0986 42.7938C15.4747 36.7425 15.901 29.8837 12.795 26.5786C11.738 25.454 10.3522 24.8103 8.66718 24.6593C7.50945 21.4098 5.20424 20.0127 1.06934 20.0127C0.478777 20.0127 0 20.4913 0 21.082C0 21.1063 0.000855469 21.1302 0.00242383 21.154C0.837646 33.9071 0.837646 33.9071 0.00199609 47.741C-0.0151133 48.0247 0.0814121 48.3038 0.270471 48.5163C0.352453 48.6085 8.46914 57.6797 19.2328 65.3598C19.142 66.5891 18.993 69.4176 19.2865 72.049C19.3476 72.5958 19.8105 73 20.3479 73C20.3875 73 20.4276 72.9977 20.4678 72.9933C21.0548 72.9277 21.4775 72.3989 21.412 71.812C21.0568 68.6281 21.4097 64.9825 21.4134 64.946C21.4513 64.5625 21.2799 64.1881 20.9648 63.9661C11.3127 57.1707 3.72771 49.1219 2.16391 47.4199C2.9545 34.3311 2.97119 33.7856 2.21367 22.194C4.83397 22.4057 6.08153 23.4343 6.7967 25.8178C7.71832 28.8892 7.71832 34.0963 7.71832 41.9781C7.71832 42.2785 7.84479 42.5653 8.06664 42.7679L11.1143 45.5503C10.7722 45.868 10.4259 46.2198 10.073 46.6061C9.88124 46.816 9.78086 47.0938 9.79426 47.3779C9.80766 47.6619 9.93385 47.9289 10.1446 48.1198C10.1875 48.1586 14.5003 52.0598 19.6269 56.2158C19.8251 56.3764 20.063 56.4545 20.2997 56.4545C20.611 56.4545 20.9196 56.3194 21.1311 56.0586C21.5029 55.5999 21.4326 54.9265 20.9738 54.5545C17.2095 51.5028 13.8885 48.5905 12.4042 47.2716C13.6717 46.047 14.7202 45.5004 15.8016 45.4753C17.1044 45.4436 18.698 46.1789 20.9722 47.8544C21.4477 48.2045 22.117 48.1033 22.4675 47.6277C22.8179 47.1522 22.7164 46.4828 22.2409 46.1324ZM12.9641 42.6611C12.9317 43.1818 12.8996 43.6972 12.8701 44.2046C12.8586 44.2115 12.847 44.2185 12.8355 44.2255L9.85714 41.5063C9.85685 34.9306 9.84288 30.2123 9.24591 26.9119C10.0469 27.1024 10.7045 27.4772 11.2364 28.0434C13.709 30.6743 13.3132 37.0425 12.9641 42.6611Z" fill="#EC2227"/>
<path d="M24.7547 25.2847C24.5408 24.7342 23.9213 24.4613 23.3707 24.6752C22.8202 24.889 22.5473 25.5087 22.7612 26.0592C23.8298 28.8099 25.6797 31.1593 28.1111 32.8529C30.6 34.5865 33.5245 35.503 36.5687 35.503C44.733 35.503 51.3752 28.8651 51.3752 20.7061C51.3752 12.5469 44.733 5.90918 36.5687 5.90918C28.4044 5.90918 21.7623 12.547 21.7623 20.7061C21.7623 21.2968 22.241 21.7754 22.8316 21.7754C23.4222 21.7754 23.9009 21.2968 23.9009 20.7061C23.9009 13.7263 29.5837 8.04785 36.5687 8.04785C43.5538 8.04785 49.2365 13.7263 49.2365 20.7061C49.2365 27.6858 43.5538 33.3643 36.5687 33.3643C33.9638 33.3643 31.4619 32.5807 29.3335 31.0979C27.2521 29.6481 25.6688 27.6379 24.7547 25.2847Z" fill="#EC2227"/>
<path d="M57.2882 20.7061C57.2882 16.3219 55.9341 12.1321 53.3723 8.5899C53.0262 8.11141 52.3575 8.00377 51.8792 8.34995C51.4007 8.69598 51.2933 9.36453 51.6394 9.84302C53.9357 13.0184 55.1495 16.7749 55.1495 20.7061C55.1495 30.9442 46.8141 39.2734 36.5684 39.2734C26.3228 39.2734 17.9874 30.9442 17.9874 20.7061C17.9874 10.4679 26.3228 2.13867 36.5684 2.13867C40.8933 2.13867 45.1046 3.65585 48.4267 6.41074C48.8812 6.78786 49.5554 6.72498 49.9324 6.27016C50.3095 5.81562 50.2465 5.14151 49.792 4.76439C46.0869 1.69197 41.3907 0 36.5684 0C25.1435 0 15.8487 9.28868 15.8487 20.7061C15.8487 32.1234 25.1435 41.4121 36.5684 41.4121C47.9934 41.4121 57.2882 32.1234 57.2882 20.7061Z" fill="#EC2227"/>
<path d="M36.5684 26.0213C35.3965 26.0213 34.4431 25.0689 34.4431 23.8983C34.4431 23.3076 33.9643 22.829 33.3738 22.829C32.7832 22.829 32.3044 23.3076 32.3044 23.8983C32.3044 25.8792 33.6638 27.5489 35.499 28.0244V29.485C35.499 30.0757 35.9778 30.5543 36.5684 30.5543C37.1589 30.5543 37.6377 30.0757 37.6377 29.485V28.0243C39.473 27.5488 40.8323 25.8792 40.8323 23.8982C40.8323 21.5484 38.9195 19.6364 36.5684 19.6364C35.3965 19.6364 34.4431 18.684 34.4431 17.5133C34.4431 16.3425 35.3965 15.3901 36.5684 15.3901C37.7402 15.3901 38.6936 16.3425 38.6936 17.5133C38.6936 18.104 39.1724 18.5826 39.763 18.5826C40.3535 18.5826 40.8323 18.104 40.8323 17.5133C40.8323 15.5323 39.473 13.8627 37.6377 13.3872V11.9268C37.6377 11.3361 37.1589 10.8574 36.5684 10.8574C35.9778 10.8574 35.499 11.3361 35.499 11.9268V13.3875C33.6638 13.863 32.3044 15.5326 32.3044 17.5135C32.3044 19.8634 34.2173 21.7753 36.5684 21.7753C37.7402 21.7753 38.6936 22.7278 38.6936 23.8985C38.6936 25.069 37.7402 26.0213 36.5684 26.0213Z" fill="#EC2227"/>
</g>
<defs>
<clipPath id="clip0">
<rect width="73" height="73" fill="white"/>
</clipPath>
</defs>
</svg>
