<?xml version="1.0" encoding="utf-8"?>
<!-- Generator: Adobe Illustrator 23.0.2, SVG Export Plug-In . SVG Version: 6.00 Build 0)  -->
<svg version="1.1" id="Слой_1" xmlns="http://www.w3.org/2000/svg" xmlns:xlink="http://www.w3.org/1999/xlink" x="0px" y="0px"
	 width="110px" height="110px" viewBox="0 0 110 110" enable-background="new 0 0 110 110" xml:space="preserve">
<path fill="#EC2227" d="M105,55c0-27.6-22.4-50-50-50c-8.6,0-17.1,2.2-24.5,6.5h-6.1V5h-9.7v20.5C8.4,34.1,5,44.3,5,55
	c0,27.6,22.4,50,50,50c6.1,0,12.1-1.1,17.8-3.3c3.2,2.1,7.1,3.3,11.2,3.3c5,0,9.9-1.8,13.7-5.1l-2.1-2.4c-3.2,2.8-7.3,4.3-11.6,4.3
	c-9.8,0-17.7-8-17.7-17.7c0-9.8,8-17.7,17.7-17.7c9.8,0,17.7,8,17.7,17.7c0,4.1-1.4,7.9-3.9,11.1l2.5,2c3-3.7,4.6-8.4,4.6-13.1
	c0-4.1-1.2-8-3.3-11.2C103.9,67.1,105,61.1,105,55z M30.8,21.1H34v3.2v19.4h-3.2V21.1z M24.4,14.7h3.2v3.2v25.8h-3.2V14.7z
	 M17.9,8.2h3.2v3.2v32.3h-3.2V8.2z M53.4,101.7C28.9,100.9,9.1,81.1,8.3,56.6h45.1V101.7z M53.4,53.4H8.3c0.3-7.9,2.4-15.4,6.4-22
	v15.6h6.5h3.2h3.2h3.2H34h3.2h3.2h3.2h6.5V30.8h-6.5v-6.5h-6.5v-6.5h-6.5V15c6.8-4.1,14.6-6.4,22.6-6.7V53.4z M37.3,43.7V27.6h3.2
	v3.2v12.9H37.3z M43.7,43.7V34h3.2v9.7H43.7z M101.7,53.4H87.9l11.9-11.9C100.9,45.3,101.6,49.3,101.7,53.4z M93.6,28.6l-18,18
	l2.3,2.3l17.5-17.5c1.3,2.1,2.3,4.4,3.2,6.7L83.4,53.4h-10l2.1-2.1L73.2,49l-4.4,4.4h-10l30.3-30.3C90.8,24.8,92.3,26.7,93.6,28.6z
	 M56.6,8.3c4.1,0.1,8.1,0.8,11.9,1.9L56.6,22.1V8.3z M56.6,41.2l19.6-19.6l-2.3-2.3L56.6,36.6v-10l15.3-15.3c2.3,0.9,4.6,2,6.7,3.2
	L76,17.2l2.3,2.3l3.1-3.1c2,1.3,3.8,2.8,5.5,4.4L56.6,51.1V41.2z M84,63.1c-11.6,0-21,9.4-21,21c0,6.1,2.6,11.5,6.7,15.4
	c-4.3,1.4-8.7,2.2-13.2,2.4V56.6h45.1c-0.2,4.5-0.9,8.9-2.4,13.2C95.5,65.7,90.1,63.1,84,63.1z"/>
<path fill="#EC2227" d="M44.2,63.5L24.8,82.9l2.3,2.3l19.4-19.4L44.2,63.5z"/>
<path fill="#EC2227" d="M42.1,76c-2.7,0-4.8,2.2-4.8,4.8c0,2.7,2.2,4.8,4.8,4.8c2.7,0,4.8-2.2,4.8-4.8C46.9,78.1,44.8,76,42.1,76z
	 M42.1,82.4c-0.9,0-1.6-0.7-1.6-1.6c0-0.9,0.7-1.6,1.6-1.6c0.9,0,1.6,0.7,1.6,1.6C43.7,81.7,43,82.4,42.1,82.4z"/>
<path fill="#EC2227" d="M29.2,63.1c-2.7,0-4.8,2.2-4.8,4.8c0,2.7,2.2,4.8,4.8,4.8c2.7,0,4.8-2.2,4.8-4.8
	C34,65.2,31.9,63.1,29.2,63.1z M29.2,69.5c-0.9,0-1.6-0.7-1.6-1.6c0-0.9,0.7-1.6,1.6-1.6s1.6,0.7,1.6,1.6
	C30.8,68.8,30.1,69.5,29.2,69.5z"/>
<path fill="#EC2227" d="M84,82.4c-1.8,0-3.2-1.4-3.2-3.2c0-1.8,1.4-3.2,3.2-3.2c1.8,0,3.2,1.4,3.2,3.2h3.2c0-3-2.1-5.5-4.8-6.2v-3.5
	h-3.2V73c-2.8,0.7-4.8,3.2-4.8,6.2c0,3.6,2.9,6.5,6.5,6.5c1.8,0,3.2,1.4,3.2,3.2c0,1.8-1.4,3.2-3.2,3.2c-1.8,0-3.2-1.4-3.2-3.2h-3.2
	c0,3,2.1,5.5,4.8,6.2v3.5h3.2v-3.5c2.8-0.7,4.8-3.2,4.8-6.2C90.5,85.3,87.6,82.4,84,82.4z"/>
<path fill="#EC2227" d="M98.5,82.4h-3.2v3.2h3.2V82.4z"/>
<path fill="#EC2227" d="M72.7,82.4h-3.2v3.2h3.2V82.4z"/>
</svg>
