<svg width="77" height="69" viewBox="0 0 77 69" fill="none" xmlns="http://www.w3.org/2000/svg">
<path d="M73.4506 66.3044H70.152V23.3864C70.152 21.3888 68.3383 19.7637 66.1092 19.7637H58.7365C56.5073 19.7637 54.6937 21.3889 54.6937 23.3864V66.3044H46.3181V42.8316C46.3181 40.834 44.5046 39.2089 42.2753 39.2089H34.9026C32.6733 39.2089 30.8598 40.8341 30.8598 42.8316V66.3044H22.4842V54.148C22.4842 52.1504 20.6705 50.5253 18.4414 50.5253H11.0685C8.83929 50.5253 7.02573 52.1505 7.02573 54.148V66.3044H3.5493C2.7187 66.3044 2.0454 66.9078 2.0454 67.6521C2.0454 68.3964 2.7187 68.9997 3.5493 68.9997H73.4506C74.2812 68.9997 74.9545 68.3964 74.9545 67.6521C74.9545 66.9078 74.2812 66.3044 73.4506 66.3044ZM19.4761 66.3044H10.0334V54.148C10.0334 53.6366 10.4977 53.2206 11.0684 53.2206H18.4411C19.0119 53.2206 19.4761 53.6366 19.4761 54.148V66.3044ZM43.3102 66.3044H33.8675V42.8316C33.8675 42.3202 34.3317 41.9042 34.9024 41.9042H42.2752C42.8458 41.9042 43.3102 42.3202 43.3102 42.8316V66.3044ZM67.1442 66.3044H57.7015V23.3864C57.7015 22.875 58.1658 22.459 58.7365 22.459H66.1092C66.68 22.459 67.1442 22.875 67.1442 23.3864V66.3044Z" fill="#EC2227"/>
<path d="M70.1486 1.4172C70.1696 1.04942 70.0252 0.675445 69.7118 0.394594C69.3984 0.113742 68.9811 -0.0157676 68.5707 0.00323438C68.5465 0.00229102 68.5225 0 68.4979 0H59.3992C58.5686 0 57.8953 0.603346 57.8953 1.34766C57.8953 2.09197 58.5686 2.69531 59.3992 2.69531H65.0174L50.1502 16.018L44.5437 10.9939C44.2617 10.7412 43.8791 10.5992 43.4802 10.5992C43.0814 10.5992 42.6988 10.7412 42.4168 10.9939L15.3813 35.2207C14.794 35.747 14.794 36.6003 15.3813 37.1267C15.675 37.3896 16.0598 37.5212 16.4447 37.5212C16.8295 37.5212 17.2145 37.3896 17.5081 37.1264L43.4802 13.8526L49.0868 18.8766C49.6741 19.4029 50.6264 19.4029 51.2138 18.8766L67.1444 4.6013V9.15773C67.1444 9.90204 67.8177 10.5054 68.6483 10.5054C69.4789 10.5054 70.1522 9.90204 70.1522 9.15773V1.48242C70.1522 1.46046 70.1496 1.43903 70.1486 1.4172Z" fill="#EC2227"/>
<path d="M11.3756 42.2231C12.2062 42.2231 12.8795 41.6198 12.8795 40.8755C12.8795 40.1312 12.2062 39.5278 11.3756 39.5278C10.5451 39.5278 9.87173 40.1312 9.87173 40.8755C9.87173 41.6198 10.5451 42.2231 11.3756 42.2231Z" fill="#EC2227"/>
</svg>
