<svg width="66" height="66" viewBox="0 0 66 66" fill="none" xmlns="http://www.w3.org/2000/svg">
<g clip-path="url(#clip0)">
<path d="M11.6081 51.0403C10.6841 51.0403 9.79587 51.271 9.00783 51.704C4.85664 46.3826 2.57812 39.7721 2.57812 33C2.57812 16.2251 16.2251 2.57812 33 2.57812C35.0393 2.57812 37.0777 2.78105 39.0586 3.18137C39.7555 3.32236 40.4363 2.87119 40.5773 2.17328C40.7183 1.47537 40.2671 0.795593 39.5692 0.654099C37.4206 0.220047 35.2105 0 33 0C24.1855 0 15.8983 3.43263 9.66545 9.66545C3.43263 15.8983 0 24.1855 0 33C0 40.4146 2.5177 47.6505 7.10143 53.4513C6.51128 54.333 6.19405 55.3693 6.19405 56.4544C6.19405 57.9006 6.75751 59.2601 7.7802 60.2823C8.80238 61.305 10.1619 61.8685 11.6081 61.8685C13.0543 61.8685 14.4138 61.305 15.4365 60.2823C16.4592 59.2601 17.0222 57.9001 17.0222 56.4539C17.0222 55.0082 16.4592 53.6482 15.4365 52.626C14.4138 51.6033 13.0543 51.0403 11.6081 51.0403ZM13.6132 58.4595C13.0779 58.9953 12.3654 59.2903 11.6081 59.2903C10.8508 59.2903 10.1388 58.9953 9.60301 58.4595C9.06725 57.9237 8.77217 57.2117 8.77217 56.4544C8.77217 55.6966 9.06725 54.9846 9.60301 54.4488C10.1383 53.913 10.8508 53.6185 11.6081 53.6185C12.3654 53.6185 13.0774 53.9135 13.6132 54.4488C14.149 54.9846 14.444 55.6966 14.444 56.4544C14.444 57.2117 14.149 57.9237 13.6132 58.4595Z" fill="#EC2227"/>
<path d="M58.8976 12.547C60.2989 10.4447 60.0738 7.57053 58.2203 5.717C57.1976 4.69481 55.8381 4.13135 54.3919 4.13135C52.9457 4.13135 51.5862 4.69481 50.5635 5.717C49.5408 6.73969 48.9778 8.09924 48.9778 9.54541C48.9778 10.9916 49.5408 12.3511 50.5635 13.3738C51.5862 14.3965 52.9457 14.9595 54.3919 14.9595C55.3159 14.9595 56.2041 14.7289 56.9922 14.2958C61.1434 19.6177 63.4219 26.2277 63.4219 32.9998C63.4219 49.7747 49.7749 63.4217 33 63.4217C30.9808 63.4217 28.9616 63.2228 26.9993 62.83C26.3014 62.6905 25.6221 63.1432 25.4821 63.8411C25.3427 64.5395 25.7953 65.2183 26.4933 65.3583C28.6217 65.7838 30.8111 65.9998 33 65.9998C41.8145 65.9998 50.1017 62.5672 56.3346 56.3344C62.5674 50.1015 66 41.8143 66 32.9998C66 25.5847 63.4818 18.3483 58.8976 12.547ZM52.3868 11.551C51.851 11.0152 51.556 10.3032 51.556 9.54541C51.556 8.78809 51.851 8.07608 52.3868 7.54031C52.9221 7.00455 53.6346 6.70947 54.3919 6.70947C55.1492 6.70947 55.8617 7.00455 56.3975 7.54031C57.5028 8.64609 57.5028 10.4452 56.3975 11.551C55.8617 12.0863 55.1492 12.3813 54.3919 12.3813C53.6341 12.3813 52.9221 12.0863 52.3868 11.551Z" fill="#EC2227"/>
<path d="M27.6806 55.1719C27.6806 55.8839 28.2582 56.4609 28.9697 56.4609H37.0298C37.7418 56.4609 38.3189 55.8839 38.3189 55.1719V52.6728C40.0138 52.2166 41.6342 51.5449 43.1569 50.6677L44.9213 52.4321C45.163 52.6738 45.4908 52.8098 45.8332 52.8098C46.1746 52.8098 46.5029 52.6738 46.7446 52.4316L52.4417 46.7305C52.9447 46.227 52.9447 45.4108 52.4417 44.9077L50.6793 43.1453C51.5565 41.6226 52.2282 40.0022 52.6844 38.3073H55.1739C55.8859 38.3073 56.463 37.7303 56.463 37.0182V28.9581C56.463 28.2461 55.8859 27.669 55.1739 27.669H52.6839C52.2277 25.9746 51.5565 24.3542 50.6793 22.8315L52.4321 21.0787C52.6738 20.837 52.8098 20.5087 52.8098 20.1668C52.8093 19.8249 52.6733 19.4966 52.4316 19.2549L46.73 13.5578C46.227 13.0548 45.4108 13.0548 44.9072 13.5583L43.1569 15.3091C41.6342 14.432 40.0138 13.7602 38.3189 13.304V10.8281C38.3189 10.1161 37.7418 9.53906 37.0298 9.53906H28.9697C28.2582 9.53906 27.6806 10.1161 27.6806 10.8281V13.3045C25.9862 13.7602 24.3658 14.432 22.8431 15.3091L21.0923 13.5583C20.5892 13.0553 19.773 13.0548 19.2695 13.5578L13.5684 19.2554C13.3262 19.4971 13.1902 19.8249 13.1902 20.1668C13.1902 20.5087 13.3262 20.837 13.5679 21.0787L15.3207 22.8315C14.4435 24.3542 13.7718 25.9741 13.3156 27.669H10.8306C10.1186 27.669 9.54158 28.2461 9.54158 28.9576L9.53705 37.0177C9.53655 37.3596 9.6725 37.688 9.9142 37.9297C10.1559 38.1714 10.4837 38.3073 10.8261 38.3073H13.3156C13.7718 40.0022 14.4435 41.6226 15.3207 43.1453L13.5583 44.9077C13.0553 45.4108 13.0548 46.227 13.5583 46.7305L19.2554 52.4316C19.4971 52.6733 19.8249 52.8098 20.1668 52.8098H20.1673C20.5092 52.8098 20.837 52.6738 21.0787 52.4321L22.8426 50.6677C24.3658 51.5449 25.9862 52.2166 27.6806 52.6728V55.1719ZM23.3481 47.9566C22.8381 47.6268 22.1668 47.6983 21.7368 48.1279L20.1673 49.6974L16.2925 45.8196L17.8606 44.2511C18.2901 43.8216 18.3616 43.1504 18.0318 42.6403C16.8631 40.8316 16.0413 38.8491 15.5901 36.7473C15.4622 36.1537 14.9375 35.7292 14.3297 35.7292H12.1157L12.1187 30.2471H14.3297C14.9375 30.2471 15.4622 29.8232 15.5901 29.229C16.0413 27.1277 16.8631 25.1453 18.0318 23.3366C18.3616 22.8265 18.2901 22.1553 17.8606 21.7257L16.3026 20.1673L20.1804 16.2925L21.7368 17.8495C22.1668 18.279 22.8376 18.35 23.3481 18.0207C25.1564 16.852 27.1388 16.0302 29.2406 15.579C29.8342 15.4511 30.2587 14.9259 30.2587 14.3187V12.1172H35.7408V14.3182C35.7408 14.9259 36.1648 15.4511 36.7589 15.5785C38.8602 16.0302 40.8431 16.8515 42.6514 18.0202C43.1614 18.35 43.8327 18.279 44.2622 17.849L45.8191 16.2925L49.6969 20.1673L48.1389 21.7252C47.7089 22.1553 47.6379 22.8265 47.9677 23.3366C49.1364 25.1453 49.9577 27.1277 50.4094 29.229C50.5368 29.8232 51.062 30.2471 51.6698 30.2471H53.8848V35.7292H51.6698C51.062 35.7292 50.5373 36.1537 50.4094 36.7473C49.9582 38.8486 49.1364 40.8316 47.9677 42.6398C47.6379 43.1504 47.7094 43.8216 48.1389 44.2511L49.707 45.8191L45.8322 49.6969L44.2627 48.1279C43.8327 47.6978 43.1614 47.6268 42.6514 47.9566C40.8426 49.1254 38.8602 49.9466 36.7589 50.3983C36.1648 50.5262 35.7408 51.0509 35.7408 51.6587V53.8828H30.2587V51.6587C30.2587 51.0514 29.8342 50.5262 29.2406 50.3983C27.1393 49.9471 25.1569 49.1254 23.3481 47.9566Z" fill="#EC2227"/>
<path d="M43.6514 33C43.6514 27.1267 38.8733 22.3486 33 22.3486C27.1267 22.3486 22.3486 27.1267 22.3486 33C22.3486 38.8733 27.1267 43.6514 33 43.6514C38.8733 43.6514 43.6514 38.8733 43.6514 33ZM24.9268 33C24.9268 28.5482 28.5482 24.9268 33 24.9268C37.4518 24.9268 41.0733 28.5487 41.0733 33C41.0733 37.4513 37.4518 41.0733 33 41.0733C28.5482 41.0733 24.9268 37.4518 24.9268 33Z" fill="#EC2227"/>
<path d="M44.8695 4.87505C45.2089 4.87505 45.5412 4.73708 45.7809 4.49739C46.0206 4.2562 46.1585 3.92386 46.1585 3.58447C46.1585 3.2471 46.0211 2.91426 45.7809 2.67307C45.5412 2.43338 45.2089 2.29541 44.8695 2.29541C44.5291 2.29541 44.1983 2.43338 43.9586 2.67307C43.7184 2.91426 43.5804 3.24559 43.5804 3.58447C43.5804 3.92487 43.7184 4.2562 43.9586 4.49739C44.1983 4.73708 44.5291 4.87505 44.8695 4.87505Z" fill="#EC2227"/>
<path d="M21.187 61.1479C20.8481 61.1479 20.5152 61.2859 20.2755 61.5256C20.0359 61.7653 19.8979 62.0981 19.8979 62.437C19.8979 62.7774 20.0359 63.1087 20.2755 63.3484C20.5152 63.5881 20.8481 63.7261 21.187 63.7261C21.5258 63.7261 21.8587 63.5881 22.0984 63.3484C22.338 63.1087 22.476 62.7759 22.476 62.437C22.476 62.0981 22.338 61.7653 22.0984 61.5256C21.8587 61.2859 21.5258 61.1479 21.187 61.1479Z" fill="#EC2227"/>
</g>
<defs>
<clipPath id="clip0">
<rect width="66" height="66" fill="white"/>
</clipPath>
</defs>
</svg>
