<svg width="60" height="60" viewBox="0 0 60 60" fill="none" xmlns="http://www.w3.org/2000/svg">
<rect width="60" height="60" rx="10" fill="#EC2227"/>
<path d="M43.9105 29.9998C42.8824 29.9998 41.9949 30.5635 41.5134 31.3905H30V34.1736H41.5134C41.9949 35.0006 42.8824 35.563 43.9105 35.563C45.4448 35.563 46.6903 34.32 46.6903 32.7816C46.6903 31.2461 45.4448 29.9998 43.9105 29.9998Z" fill="white"/>
<path d="M43.9105 18.8724C42.8824 18.8724 41.9949 19.4362 41.5134 20.2636H30V23.0446H41.5134C41.9949 23.8733 42.8824 24.4357 43.9105 24.4357C45.4448 24.4357 46.6903 23.1915 46.6903 21.6547C46.6903 20.1192 45.4448 18.8724 43.9105 18.8724Z" fill="white"/>
<path d="M27.2175 31.3905H18.8728V34.1736H27.2175V31.3905Z" fill="white"/>
<path d="M27.2175 36.954H18.8728V39.7363H27.2175V36.954Z" fill="white"/>
<path d="M27.2175 25.8275H18.8728V28.6098H27.2175V25.8275Z" fill="white"/>
<path d="M27.2175 20.2638H18.8728V23.0448H27.2175V20.2638Z" fill="white"/>
<path d="M35.5645 35.5629C34.5364 35.5629 33.6502 36.1278 33.1674 36.954H30V39.7363H33.1674C33.6502 40.5649 34.5364 41.1274 35.5645 41.1274C37.1001 41.1274 38.346 39.8831 38.346 38.3451C38.346 36.8096 37.1001 35.5629 35.5645 35.5629Z" fill="white"/>
<path d="M38.3468 24.436C37.3187 24.436 36.4312 24.9997 35.9497 25.8272H30V28.6094H35.9497C36.4312 29.4369 37.3187 29.9993 38.3468 29.9993C39.8815 29.9993 41.127 28.7563 41.127 27.2183C41.127 25.6832 39.8815 24.436 38.3468 24.436Z" fill="white"/>
<path d="M32.7822 17.4815C32.7822 15.9448 31.5367 14.7001 29.9999 14.7001H16.0907C14.5551 14.7001 13.3096 15.9456 13.3096 17.4815V42.5178C13.3096 44.0558 14.5551 45.3 16.0907 45.3H29.9999C31.5367 45.3 32.7822 44.0558 32.7822 42.5178H16.0907V17.4815H32.7822Z" fill="white"/>
</svg>
