<svg width="26" height="26" viewBox="0 0 26 26" fill="none" xmlns="http://www.w3.org/2000/svg">
<path fill-rule="evenodd" clip-rule="evenodd" d="M12.998 9.30821L11.5519 7.79447C10.6219 6.82108 9.34392 5.88892 8.132 5.88892C6.80325 5.88892 5.79549 6.34384 5.12478 7.01331C4.45431 7.68254 4 8.68647 4 10.0089C4 11.4114 4.536 12.6173 5.5043 13.8246C6.51099 15.0797 7.87763 16.2099 9.42762 17.4799L9.42842 17.4806C9.45735 17.5043 9.48638 17.5281 9.5155 17.552C10.6348 18.47 11.8955 19.504 12.9989 20.6528C14.1135 19.4928 15.3873 18.4496 16.5178 17.5238L16.5714 17.4799C16.5715 17.4798 16.5713 17.48 16.5714 17.4799C18.121 16.2103 19.488 15.0802 20.495 13.8251C21.4637 12.6177 22 11.4117 22 10.0089C22 8.68646 21.5457 7.68248 20.8753 7.01323C20.2046 6.34374 19.1971 5.88892 17.869 5.88892C16.6549 5.88892 15.3725 6.82272 14.4441 7.79447L12.998 9.30821ZM12.205 22.7559C11.0755 21.4184 9.60429 20.2116 8.18073 19.0439L8.16 19.0269C5.131 16.5449 2 13.9789 2 10.0089C2 6.40592 4.521 3.88892 8.132 3.88892C9.76894 3.88892 11.2178 4.80102 12.2426 5.69122C12.5293 5.94032 12.7829 6.18771 12.998 6.41292C13.2118 6.18915 13.4636 5.94348 13.7484 5.69599C14.7746 4.80429 16.2284 3.88892 17.869 3.88892C21.479 3.88892 24 6.40592 24 10.0089C24 13.9789 20.8686 16.5446 17.8414 19.025L17.839 19.0269C16.408 20.1989 14.929 21.4119 13.792 22.7559C13.602 22.9799 13.323 23.1109 13.028 23.1109H12.97C12.676 23.1109 12.396 22.9809 12.205 22.7559Z" fill="#EC2227"/>
</svg>
