<svg width="80" height="80" viewBox="0 0 80 80" fill="none" xmlns="http://www.w3.org/2000/svg">
<rect width="80" height="80" rx="10" fill="#EC2227"/>
<path d="M39.6427 18.8499H22.434C20.5425 18.8499 18.9927 20.3996 18.9927 22.2912V32.6162C18.9927 34.5087 20.5425 36.0585 22.434 36.0585H29.3177V39.4999H25.8764V42.9417H36.2014V39.4999H32.759V36.0585H39.6427C41.5347 36.0585 43.0845 34.5087 43.0845 32.6162V22.2912C43.0845 20.3996 41.5347 18.8499 39.6427 18.8499ZM39.6427 32.6162H22.434V22.2912H39.6427V32.6162Z" fill="white"/>
<path d="M32.759 55.848L25.8764 51.5456V54.1268H22.434V46.3831H18.9927V57.5686H25.8764V60.1499L32.759 55.848Z" fill="white"/>
<path d="M53.4096 21.4311V18.8499L46.5259 23.1523L53.4096 27.4537V24.8724H56.8509V30.896H60.2927V21.4311H53.4096Z" fill="white"/>
<path d="M60.2924 56.7081H42.2236C40.7983 56.7081 39.6424 55.5537 39.6424 54.1268C39.6424 52.702 40.7983 51.5456 42.2236 51.5456H44.8049V48.2756C44.8049 46.2824 46.349 44.6624 48.2467 44.6624C48.717 44.6624 49.1842 44.7631 49.638 44.9686L52.6596 46.316L54.1253 43.348C55.2977 40.9754 57.6621 39.5015 60.2924 39.4999V36.0586C56.2305 36.0596 52.7267 38.4111 51.0396 41.8225C50.1857 41.4426 49.2415 41.2206 48.2467 41.2206C44.4734 41.2206 41.4183 44.3346 41.3718 48.19C38.4529 48.6086 36.201 51.0939 36.201 54.1268C36.201 57.4561 38.8979 60.1499 42.2236 60.1499H60.2924V56.7081Z" fill="white"/>
</svg>
