<svg width="70" height="70" viewBox="0 0 70 70" fill="none" xmlns="http://www.w3.org/2000/svg">
<path d="M40.1202 64.3801C39.8696 64.3811 39.6277 64.2879 39.4425 64.119C39.2573 63.9501 39.1423 63.7178 39.1202 63.4681C39.0267 62.439 38.5517 61.482 37.7887 60.7852C37.0256 60.0883 36.0296 59.702 34.9962 59.702C33.9628 59.702 32.9668 60.0883 32.2037 60.7852C31.4407 61.482 30.9657 62.439 30.8722 63.4681C30.8605 63.6067 30.8199 63.7413 30.7532 63.8633C30.6865 63.9853 30.5951 64.0921 30.4848 64.1768C30.3745 64.2615 30.2478 64.3223 30.1127 64.3552C29.9776 64.3881 29.8371 64.3926 29.7002 64.3681C23.7152 63.2832 18.2042 60.3969 13.9039 56.0952C9.60363 51.7935 6.71916 46.2815 5.63621 40.2961C5.61179 40.1592 5.6162 40.0187 5.64915 39.8836C5.68209 39.7485 5.74285 39.6218 5.82755 39.5115C5.91224 39.4012 6.01901 39.3098 6.14103 39.2431C6.26305 39.1764 6.39765 39.1359 6.53621 39.1241C7.56754 39.0368 8.52798 38.5636 9.22573 37.7992C9.92347 37.0347 10.3072 36.0351 10.3002 35.0001C10.2957 33.9679 9.90764 32.9743 9.21149 32.2122C8.51534 31.45 7.56078 30.9739 6.53321 30.8761C6.39465 30.8644 6.26005 30.8239 6.13803 30.7572C6.01601 30.6905 5.90924 30.5991 5.82455 30.4888C5.73985 30.3785 5.67909 30.2517 5.64615 30.1166C5.6132 29.9815 5.60879 29.841 5.63321 29.7041C6.71683 23.719 9.60197 18.2074 13.9028 13.9064C18.2036 9.60538 23.7151 6.72001 29.7002 5.63614C29.8371 5.61172 29.9776 5.61613 30.1127 5.64908C30.2478 5.68202 30.3745 5.74278 30.4848 5.82748C30.5951 5.91217 30.6865 6.01894 30.7532 6.14096C30.8199 6.26298 30.8605 6.39757 30.8722 6.53614C30.9657 7.56527 31.4407 8.52224 32.2037 9.21908C32.9668 9.91593 33.9628 10.3023 34.9962 10.3023C36.0296 10.3023 37.0256 9.91593 37.7887 9.21908C38.5517 8.52224 39.0267 7.56527 39.1202 6.53614C39.132 6.39757 39.1725 6.26298 39.2392 6.14096C39.3059 6.01894 39.3973 5.91217 39.5076 5.82748C39.6179 5.74278 39.7446 5.68202 39.8797 5.64908C40.0148 5.61613 40.1553 5.61172 40.2922 5.63614C46.2782 6.71908 51.7908 9.60405 56.0926 13.9051C60.3944 18.2062 63.2803 23.7183 64.3642 29.7041C64.3886 29.841 64.3842 29.9815 64.3513 30.1166C64.3183 30.2517 64.2576 30.3785 64.1729 30.4888C64.0882 30.5991 63.9814 30.6905 63.8594 30.7572C63.7374 30.8239 63.6028 30.8644 63.4642 30.8761C62.4372 30.9746 61.4833 31.451 60.7878 32.2131C60.0923 32.9751 59.7047 33.9684 59.7002 35.0001C59.6933 36.0356 60.0774 37.0356 60.7758 37.8001C61.4742 38.5647 62.4353 39.0375 63.4672 39.1241C63.6057 39.1359 63.7402 39.1764 63.8621 39.243C63.984 39.3097 64.0908 39.401 64.1754 39.5112C64.2601 39.6213 64.3209 39.748 64.3539 39.8829C64.3869 40.0179 64.3915 40.1583 64.3672 40.2951C63.8754 43.0393 63.0002 45.7007 61.7672 48.2011C61.6502 48.4398 61.4433 48.6223 61.1918 48.7084C60.9403 48.7944 60.6649 48.7771 60.4262 48.6601C60.1875 48.5432 60.0051 48.3362 59.919 48.0847C59.8329 47.8332 59.8502 47.5578 59.9672 47.3191C60.969 45.2849 61.7176 43.1356 62.1962 40.9191C60.9015 40.5597 59.7602 39.7859 58.947 38.7162C58.1338 37.6465 57.6935 36.3398 57.6935 34.9961C57.6935 33.6524 58.1338 32.3457 58.947 31.276C59.7602 30.2063 60.9015 29.4326 62.1962 29.0731C61.0568 23.8635 58.447 19.09 54.6764 15.3189C50.9058 11.5478 46.1327 8.93731 40.9232 7.79714C40.5638 9.09188 39.79 10.2332 38.7203 11.0464C37.6506 11.8596 36.3439 12.2999 35.0002 12.2999C33.6565 12.2999 32.3498 11.8596 31.2801 11.0464C30.2104 10.2332 29.4366 9.09188 29.0772 7.79714C23.8665 8.93693 19.0921 11.5477 15.3207 15.3196C11.5494 19.0915 8.93926 23.8663 7.80021 29.0771C9.09495 29.4366 10.2362 30.2103 11.0494 31.28C11.8626 32.3497 12.3029 33.6564 12.3029 35.0001C12.3029 36.3438 11.8626 37.6505 11.0494 38.7202C10.2362 39.7899 9.09495 40.5637 7.80021 40.9231C8.93941 46.1343 11.5498 50.9092 15.3216 54.6811C19.0933 58.4531 23.8681 61.0637 29.0792 62.2031C29.4383 60.908 30.212 59.7662 31.2819 58.9527C32.3517 58.1391 33.6587 57.6986 35.0027 57.6986C36.3467 57.6986 37.6537 58.1391 38.7235 58.9527C39.7934 59.7662 40.5671 60.908 40.9262 62.2031C43.6787 61.6136 46.3233 60.6017 48.7662 59.2031C48.8804 59.1343 49.0071 59.0889 49.1391 59.0698C49.271 59.0506 49.4054 59.058 49.5344 59.0916C49.6635 59.1251 49.7845 59.1842 49.8904 59.2652C49.9962 59.3462 50.0849 59.4475 50.151 59.5633C50.2171 59.679 50.2595 59.8068 50.2755 59.9392C50.2915 60.0715 50.2809 60.2057 50.2443 60.3339C50.2077 60.4621 50.1459 60.5817 50.0624 60.6856C49.9789 60.7896 49.8755 60.8758 49.7582 60.9391C46.8257 62.6191 43.6244 63.7785 40.2962 64.3661C40.2381 64.3759 40.1792 64.3806 40.1202 64.3801Z" fill="white"/>
<path d="M64.3777 29.8819C64.3787 30.1325 64.2855 30.3744 64.1166 30.5596C63.9477 30.7448 63.7154 30.8598 63.4657 30.8819C62.4366 30.9754 61.4796 31.4503 60.7828 32.2134C60.0859 32.9765 59.6995 33.9725 59.6995 35.0059C59.6995 36.0392 60.0859 37.0353 60.7828 37.7983C61.4796 38.5614 62.4366 39.0363 63.4657 39.1299C63.6043 39.1416 63.7389 39.1821 63.8609 39.2488C63.9829 39.3155 64.0897 39.4069 64.1744 39.5172C64.2591 39.6275 64.3198 39.7543 64.3528 39.8894C64.3857 40.0245 64.3901 40.165 64.3657 40.3019C63.2808 46.2868 60.3945 51.7979 56.0928 56.0982C51.7911 60.3984 46.279 63.2829 40.2937 64.3659C40.1568 64.3903 40.0163 64.3859 39.8812 64.3529C39.7461 64.32 39.6194 64.2592 39.5091 64.1745C39.3988 64.0898 39.3074 63.9831 39.2407 63.861C39.174 63.739 39.1334 63.6044 39.1217 63.4659C39.0344 62.4345 38.5612 61.4741 37.7967 60.7763C37.0322 60.0786 36.0327 59.6949 34.9977 59.7019C33.9655 59.7064 32.9718 60.0944 32.2097 60.7906C31.4476 61.4867 30.9714 62.4413 30.8737 63.4689C30.862 63.6074 30.8214 63.742 30.7547 63.864C30.688 63.9861 30.5966 64.0928 30.4863 64.1775C30.376 64.2622 30.2493 64.323 30.1142 64.3559C29.9791 64.3889 29.8386 64.3933 29.7017 64.3689C23.7166 63.2852 18.205 60.4001 13.904 56.0993C9.60294 51.7984 6.71757 46.2869 5.6337 40.3019C5.60928 40.165 5.61369 40.0245 5.64663 39.8894C5.67958 39.7543 5.74034 39.6275 5.82504 39.5172C5.90973 39.4069 6.0165 39.3155 6.13852 39.2488C6.26054 39.1821 6.39513 39.1416 6.5337 39.1299C7.56283 39.0363 8.5198 38.5614 9.21664 37.7983C9.91349 37.0353 10.2999 36.0392 10.2999 35.0059C10.2999 33.9725 9.91349 32.9765 9.21664 32.2134C8.5198 31.4503 7.56283 30.9754 6.5337 30.8819C6.39513 30.8701 6.26054 30.8296 6.13852 30.7629C6.0165 30.6962 5.90973 30.6048 5.82504 30.4945C5.74034 30.3842 5.67958 30.2575 5.64663 30.1224C5.61369 29.9873 5.60928 29.8468 5.6337 29.7099C6.71664 23.7239 9.60161 18.2113 13.9027 13.9095C18.2038 9.60769 23.7159 6.72181 29.7017 5.63787C29.8386 5.61345 29.9791 5.61785 30.1142 5.6508C30.2493 5.68374 30.376 5.74451 30.4863 5.82921C30.5966 5.9139 30.688 6.02066 30.7547 6.14269C30.8214 6.26471 30.862 6.3993 30.8737 6.53787C30.9721 7.5649 31.4486 8.51873 32.2107 9.21426C32.9727 9.90978 33.966 10.2974 34.9977 10.3019C36.0332 10.3088 37.0331 9.92465 37.7977 9.22628C38.5622 8.52791 39.0351 7.56674 39.1217 6.53486C39.1335 6.3964 39.174 6.26191 39.2406 6.13996C39.3072 6.01802 39.3985 5.91131 39.5087 5.82663C39.6189 5.74195 39.7455 5.68116 39.8805 5.64814C40.0155 5.61512 40.1559 5.6106 40.2927 5.63487C43.0369 6.12667 45.6983 7.0019 48.1987 8.23486C48.4374 8.35182 48.6199 8.55882 48.7059 8.8103C48.792 9.06179 48.7747 9.33717 48.6577 9.57587C48.5407 9.81456 48.3337 9.99701 48.0823 10.0831C47.8308 10.1692 47.5554 10.1518 47.3167 10.0349C45.2825 9.03305 43.1331 8.28446 40.9167 7.80587C40.5573 9.1006 39.7835 10.2419 38.7138 11.0551C37.6441 11.8683 36.3374 12.3086 34.9937 12.3086C33.65 12.3086 32.3433 11.8683 31.2736 11.0551C30.2039 10.2419 29.4301 9.1006 29.0707 7.80587C23.8611 8.94531 19.0876 11.5551 15.3165 15.3257C11.5453 19.0963 8.93487 23.8694 7.7947 29.0789C9.08944 29.4383 10.2307 30.2121 11.0439 31.2818C11.8571 32.3515 12.2974 33.6582 12.2974 35.0019C12.2974 36.3456 11.8571 37.6523 11.0439 38.722C10.2307 39.7917 9.08944 40.5654 7.7947 40.9249C8.93449 46.1356 11.5453 50.9099 15.3172 54.6813C19.0891 58.4527 23.8638 61.0628 29.0747 62.2019C29.4341 60.9071 30.2079 59.7658 31.2776 58.9526C32.3473 58.1394 33.654 57.6992 34.9977 57.6992C36.3414 57.6992 37.6481 58.1394 38.7178 58.9526C39.7875 59.7658 40.5613 60.9071 40.9207 62.2019C46.1318 61.0627 50.9067 58.4523 54.6787 54.6805C58.4506 50.9087 61.0613 46.134 62.2007 40.9229C60.9055 40.5637 59.7638 39.79 58.9502 38.7202C58.1367 37.6504 57.6962 36.3434 57.6962 34.9994C57.6962 33.6553 58.1367 32.3484 58.9502 31.2785C59.7638 30.2087 60.9055 29.435 62.2007 29.0759C61.6112 26.3234 60.5992 23.6788 59.2007 21.2359C59.1318 21.1217 59.0865 20.9949 59.0673 20.863C59.0482 20.7311 59.0556 20.5967 59.0892 20.4676C59.1227 20.3386 59.1817 20.2176 59.2627 20.1117C59.3437 20.0058 59.4451 19.9172 59.5608 19.8511C59.6766 19.7849 59.8044 19.7426 59.9367 19.7266C60.0691 19.7105 60.2033 19.7211 60.3315 19.7577C60.4597 19.7943 60.5792 19.8562 60.6832 19.9397C60.7871 20.0232 60.8733 20.1266 60.9367 20.2439C62.6166 23.1764 63.7761 26.3777 64.3637 29.7059C64.3734 29.764 64.3781 29.8229 64.3777 29.8819Z" fill="white"/>
<path d="M35.0001 12.301C33.4637 12.3103 31.9803 11.7395 30.8464 10.7026C29.7126 9.66575 29.0118 8.23916 28.8841 6.708C28.8608 6.52292 28.8495 6.33654 28.8501 6.15C28.8501 4.51892 29.4981 2.95464 30.6514 1.80129C31.8048 0.647945 33.369 0 35.0001 0C36.6312 0 38.1955 0.647945 39.3488 1.80129C40.5022 2.95464 41.1501 4.51892 41.1501 6.15C41.1504 6.34762 41.1377 6.54505 41.1121 6.741C40.9787 8.26634 40.2757 9.68546 39.143 10.7158C38.0104 11.7461 36.5312 12.3121 35.0001 12.301ZM35.0001 2.001C33.8999 2.00232 32.8451 2.43998 32.0671 3.21797C31.2891 3.99596 30.8514 5.05076 30.8501 6.151C30.8504 6.26767 30.8578 6.38421 30.8721 6.5C30.956 7.53398 31.4249 8.49882 32.186 9.20365C32.9472 9.90849 33.9451 10.302 34.9825 10.3062C36.0199 10.3105 37.0211 9.92527 37.788 9.22674C38.5549 8.5282 39.0318 7.56725 39.1241 6.534C39.1407 6.40699 39.1493 6.27908 39.1501 6.151C39.1491 5.05058 38.7115 3.99553 37.9335 3.21732C37.1555 2.43912 36.1005 2.00132 35.0001 2V2.001Z" fill="white"/>
<path d="M35.0001 69.9999C33.3695 69.9983 31.8062 69.3498 30.6532 68.1968C29.5001 67.0438 28.8517 65.4805 28.8501 63.8499C28.8498 63.6523 28.8625 63.4548 28.8881 63.2589C29.033 61.735 29.7419 60.3202 30.8758 59.2919C32.0097 58.2635 33.4869 57.6958 35.0176 57.7001C36.5484 57.7044 38.0223 58.2802 39.1505 59.3149C40.2787 60.3495 40.9797 61.7682 41.1161 63.2929C41.1394 63.4776 41.1508 63.6637 41.1501 63.8499C41.1485 65.4805 40.5001 67.0438 39.3471 68.1968C38.194 69.3498 36.6307 69.9983 35.0001 69.9999ZM35.0001 59.6999C33.9645 59.6932 32.9646 60.0776 32.2001 60.7761C31.4355 61.4746 30.9627 62.4359 30.8761 63.4679C30.8596 63.5946 30.8509 63.7221 30.8501 63.8499C30.8501 64.9505 31.2873 66.0061 32.0656 66.7844C32.8439 67.5627 33.8995 67.9999 35.0001 67.9999C36.1007 67.9999 37.1563 67.5627 37.9346 66.7844C38.7129 66.0061 39.1501 64.9505 39.1501 63.8499C39.1498 63.7335 39.1424 63.6173 39.1281 63.5019C39.0473 62.464 38.5768 61.4951 37.8111 60.7899C37.0453 60.0846 36.0411 59.6952 35.0001 59.6999Z" fill="white"/>
<path d="M63.8499 41.1499C63.6493 41.15 63.4489 41.1373 63.2499 41.1119C61.7323 40.9586 60.3261 40.2459 59.3052 39.1126C58.2843 37.9794 57.7217 36.5067 57.7271 34.9814C57.7325 33.4561 58.3054 31.9874 59.3342 30.8613C60.3631 29.7353 61.7743 29.0325 63.2929 28.8899C63.4776 28.8659 63.6637 28.8542 63.8499 28.8549C65.481 28.8549 67.0452 29.5028 68.1986 30.6562C69.3519 31.8095 69.9999 33.3738 69.9999 35.0049C69.9999 36.636 69.3519 38.2002 68.1986 39.3536C67.0452 40.5069 65.481 41.1549 63.8499 41.1549V41.1499ZM63.8499 30.8499C63.7369 30.85 63.624 30.8574 63.5119 30.8719C62.4766 30.9618 61.512 31.4347 60.807 32.1982C60.102 32.9616 59.7072 33.9607 59.6999 34.9999C59.693 36.0354 60.0771 37.0353 60.7755 37.7999C61.4738 38.5644 62.435 39.0373 63.4669 39.1239C63.5939 39.1408 63.7218 39.1494 63.8499 39.1499C64.9505 39.1499 66.0061 38.7127 66.7844 37.9344C67.5627 37.1561 67.9999 36.1005 67.9999 34.9999C67.9999 33.8992 67.5627 32.8437 66.7844 32.0654C66.0061 31.2871 64.9505 30.8499 63.8499 30.8499Z" fill="white"/>
<path d="M6.15 41.15C4.51892 41.15 2.95464 40.502 1.80129 39.3487C0.647945 38.1953 0 36.6311 0 35C0 33.3689 0.647945 31.8046 1.80129 30.6513C2.95464 29.4979 4.51892 28.85 6.15 28.85C6.35063 28.8502 6.55103 28.8632 6.75 28.889C8.27273 29.0365 9.68556 29.7471 10.7118 30.8817C11.738 32.0163 12.3037 33.4931 12.2981 35.023C12.2924 36.5528 11.7159 38.0255 10.6813 39.1525C9.6468 40.2795 8.22878 40.9797 6.705 41.116C6.52095 41.1395 6.33555 41.1508 6.15 41.15ZM6.15 30.85C5.60501 30.85 5.06537 30.9573 4.56186 31.1659C4.05836 31.3744 3.60087 31.6801 3.21551 32.0655C2.83014 32.4508 2.52446 32.9083 2.3159 33.4118C2.10734 33.9153 2 34.455 2 35C2 35.545 2.10734 36.0846 2.3159 36.5881C2.52446 37.0916 2.83014 37.5491 3.21551 37.9345C3.60087 38.3198 4.05836 38.6255 4.56186 38.8341C5.06537 39.0426 5.60501 39.15 6.15 39.15C6.263 39.1502 6.37589 39.1432 6.488 39.129C7.52215 39.0466 8.4877 38.579 9.19361 37.8188C9.89952 37.0585 10.2944 36.0611 10.3 35.0236C10.3057 33.9862 9.92173 32.9845 9.22416 32.2166C8.52658 31.4487 7.56619 30.9707 6.533 30.877C6.40604 30.8598 6.27811 30.8508 6.15 30.85Z" fill="white"/>
<path d="M35 55.0001C31.0444 55.0001 27.1776 53.8271 23.8886 51.6295C20.5996 49.4319 18.0362 46.3083 16.5224 42.6538C15.0087 38.9993 14.6126 34.9779 15.3843 31.0983C16.156 27.2187 18.0608 23.655 20.8579 20.858C23.6549 18.0609 27.2186 16.1561 31.0982 15.3844C34.9778 14.6127 38.9992 15.0088 42.6537 16.5225C46.3082 18.0363 49.4318 20.5997 51.6294 23.8887C53.827 27.1777 55 31.0445 55 35.0001C54.9939 40.3026 52.8848 45.3861 49.1354 49.1355C45.386 52.8849 40.3025 54.994 35 55.0001ZM35 17.0001C31.4399 17.0001 27.9598 18.0558 24.9997 20.0337C22.0397 22.0115 19.7326 24.8228 18.3702 28.1118C17.0078 31.4009 16.6513 35.0201 17.3459 38.5118C18.0404 42.0034 19.7547 45.2107 22.2721 47.728C24.7894 50.2454 27.9967 51.9597 31.4884 52.6543C34.98 53.3488 38.5992 52.9923 41.8883 51.63C45.1774 50.2676 47.9886 47.9605 49.9665 45.0004C51.9443 42.0403 53 38.5602 53 35.0001C52.9944 30.2279 51.0962 25.6528 47.7218 22.2783C44.3473 18.9039 39.7722 17.0057 35 17.0001Z" fill="white"/>
<path d="M35.0002 55.0001C29.4822 55.0001 25.1602 46.2151 25.1602 35.0001C25.1602 23.7851 29.4822 15.0001 35.0002 15.0001C40.5182 15.0001 44.8402 23.7851 44.8402 35.0001C44.8402 46.2151 40.5182 55.0001 35.0002 55.0001ZM35.0002 17.0001C30.7502 17.0001 27.1602 25.2431 27.1602 35.0001C27.1602 44.7571 30.7502 53.0001 35.0002 53.0001C39.2502 53.0001 42.8402 44.7571 42.8402 35.0001C42.8402 25.2431 39.2502 17.0001 35.0002 17.0001Z" fill="white"/>
<path d="M35 55.0001C34.7348 55.0001 34.4804 54.8948 34.2929 54.7072C34.1054 54.5197 34 54.2653 34 54.0001V16.0001C34 15.7349 34.1054 15.4806 34.2929 15.293C34.4804 15.1055 34.7348 15.0001 35 15.0001C35.2652 15.0001 35.5196 15.1055 35.7071 15.293C35.8946 15.4806 36 15.7349 36 16.0001V54.0001C36 54.2653 35.8946 54.5197 35.7071 54.7072C35.5196 54.8948 35.2652 55.0001 35 55.0001Z" fill="white"/>
<path d="M54 36H16C15.7348 36 15.4804 35.8946 15.2929 35.7071C15.1054 35.5196 15 35.2652 15 35C15 34.7348 15.1054 34.4804 15.2929 34.2929C15.4804 34.1054 15.7348 34 16 34H54C54.2652 34 54.5196 34.1054 54.7071 34.2929C54.8946 34.4804 55 34.7348 55 35C55 35.2652 54.8946 35.5196 54.7071 35.7071C54.5196 35.8946 54.2652 36 54 36Z" fill="white"/>
<path d="M51.7518 27.017H18.2588C17.9936 27.017 17.7392 26.9116 17.5517 26.7241C17.3641 26.5365 17.2588 26.2822 17.2588 26.017C17.2588 25.7518 17.3641 25.4974 17.5517 25.3099C17.7392 25.1223 17.9936 25.017 18.2588 25.017H51.7518C52.017 25.017 52.2714 25.1223 52.4589 25.3099C52.6464 25.4974 52.7518 25.7518 52.7518 26.017C52.7518 26.2822 52.6464 26.5365 52.4589 26.7241C52.2714 26.9116 52.017 27.017 51.7518 27.017Z" fill="white"/>
<path d="M51.7518 44.9829H18.2588C17.9936 44.9829 17.7392 44.8776 17.5517 44.69C17.3641 44.5025 17.2588 44.2481 17.2588 43.9829C17.2588 43.7177 17.3641 43.4633 17.5517 43.2758C17.7392 43.0883 17.9936 42.9829 18.2588 42.9829H51.7518C52.017 42.9829 52.2714 43.0883 52.4589 43.2758C52.6464 43.4633 52.7518 43.7177 52.7518 43.9829C52.7518 44.2481 52.6464 44.5025 52.4589 44.69C52.2714 44.8776 52.017 44.9829 51.7518 44.9829Z" fill="white"/>
</svg>
