<svg width="64" height="53" viewBox="0 0 64 53" fill="none" xmlns="http://www.w3.org/2000/svg">
<path d="M58.4943 0H4.73311C2.12346 0 0.000370478 2.12358 0.000370478 4.73397V11.1972C0.000370478 11.2 0 11.2029 0 11.2057C0 11.2086 0.000370478 11.2114 0.000370478 11.2143V48.266C0.000370478 50.8764 2.12346 53 4.73311 53H58.4943C61.1047 53 63.2283 50.8764 63.2283 48.266V4.73397C63.2283 2.12358 61.1047 0 58.4943 0ZM61.3502 48.2662C61.3502 49.8408 60.0691 51.122 58.4943 51.122H4.73311C3.15907 51.122 1.87845 49.8409 1.87845 48.2662V12.1448H61.3502V48.2662ZM61.3502 10.2668H1.87845V4.73397C1.87845 3.15919 3.15907 1.87808 4.73311 1.87808H58.4943C60.0691 1.87808 61.3502 3.15919 61.3502 4.73397V10.2668Z" fill="white"/>
<path d="M7.44972 2.75439C5.62029 2.75439 4.13184 4.24285 4.13184 6.07227C4.13184 7.9017 5.62029 9.39015 7.44972 9.39015C9.27914 9.39015 10.7676 7.9017 10.7676 6.07227C10.7676 4.24285 9.27926 2.75439 7.44972 2.75439ZM7.44972 7.5122C6.65578 7.5122 6.00991 6.86633 6.00991 6.0724C6.00991 5.27846 6.6559 4.6326 7.44972 4.6326C8.24353 4.6326 8.88952 5.27846 8.88952 6.0724C8.88964 6.86621 8.24365 7.5122 7.44972 7.5122Z" fill="white"/>
<path d="M22.3496 2.75439C20.5202 2.75439 19.0317 4.24285 19.0317 6.07227C19.0317 7.9017 20.5202 9.39015 22.3496 9.39015C24.179 9.39015 25.6675 7.9017 25.6675 6.07227C25.6675 4.24285 24.1792 2.75439 22.3496 2.75439ZM22.3496 7.5122C21.5557 7.5122 20.9098 6.86633 20.9098 6.0724C20.9098 5.27846 21.5557 4.6326 22.3496 4.6326C23.1436 4.6326 23.7894 5.27846 23.7894 6.0724C23.7895 6.86621 23.1436 7.5122 22.3496 7.5122Z" fill="white"/>
<path d="M14.8999 2.75439C13.0705 2.75439 11.582 4.24285 11.582 6.07227C11.582 7.9017 13.0705 9.39015 14.8999 9.39015C16.7293 9.39015 18.2178 7.9017 18.2178 6.07227C18.2178 4.24285 16.7293 2.75439 14.8999 2.75439ZM14.8999 7.5122C14.106 7.5122 13.4601 6.86633 13.4601 6.0724C13.4601 5.27846 14.106 4.6326 14.8999 4.6326C15.6938 4.6326 16.3397 5.27846 16.3397 6.0724C16.3397 6.86621 15.6938 7.5122 14.8999 7.5122Z" fill="white"/>
<path d="M19.8304 14.4055H5.08845C4.56991 14.4055 4.14941 14.826 4.14941 15.3446V30.0865C4.14941 30.605 4.56991 31.0255 5.08845 31.0255H19.8304C20.3489 31.0255 20.7694 30.6052 20.7694 30.0865V15.3444C20.7694 14.8259 20.3491 14.4055 19.8304 14.4055ZM18.8915 29.1475H6.02749V16.2835H18.8915V29.1475Z" fill="white"/>
<path d="M38.9852 14.4055H24.2432C23.7247 14.4055 23.3042 14.826 23.3042 15.3446V30.0865C23.3042 30.605 23.7247 31.0255 24.2432 31.0255H38.9852C39.5037 31.0255 39.9242 30.6052 39.9242 30.0865V15.3444C39.9242 14.8259 39.504 14.4055 38.9852 14.4055ZM38.0461 29.1475H25.1823V16.2835H38.0463V29.1475H38.0461Z" fill="white"/>
<path d="M58.1406 14.4055H43.3986C42.8801 14.4055 42.4596 14.826 42.4596 15.3446L42.4595 21.9801C42.4569 20.7451 42.88 28.7846 43.3985 28.7846C43.9171 28.7846 44.3376 22.4986 44.3376 21.9801L44.3377 16.2836H57.2017V29.1476H44.3376V21.9801C44.3376 21.4615 44.2349 14.7682 43.7164 14.7682C43.1978 14.7682 42.4595 21.4615 42.4595 21.9801L42.4595 30.0866C42.4595 30.6052 42.88 31.0257 43.3985 31.0257H58.1405C58.659 31.0257 59.0795 30.6053 59.0795 30.0866V15.3444C59.0796 14.8259 58.6591 14.4055 58.1406 14.4055Z" fill="white"/>
<path d="M19.8304 32.6172H5.08845C4.56991 32.6172 4.14941 33.0376 4.14941 33.5562V48.2982C4.14941 48.8167 4.56991 49.2372 5.08845 49.2372L13.1665 49.2373C13.685 49.2373 13.2758 48.8168 13.2758 48.2983C13.2758 47.7798 10.5547 47.3591 10.0362 47.3591H6.02749V34.4953H18.8915V47.3593L10.0362 47.3591C9.51764 47.3591 9.38575 47.7798 9.38575 48.2983C9.38575 48.8168 12.6479 49.2373 13.1665 49.2373H19.8304C20.3489 49.2373 20.7694 48.8168 20.7694 48.2983V33.5562C20.7694 33.0376 20.3491 32.6172 19.8304 32.6172Z" fill="white"/>
<path d="M38.9852 32.6172H24.2432C23.7247 32.6172 23.3042 33.0376 23.3042 33.5562V48.2982C23.3042 48.8167 23.7247 49.2372 24.2432 49.2372H38.9852C39.5037 49.2372 39.9242 48.8167 39.9242 48.2982V33.5562C39.9242 33.0376 39.504 32.6172 38.9852 32.6172ZM38.0461 47.3593H25.1823V34.4953H38.0463V47.3593H38.0461Z" fill="white"/>
<path d="M58.1409 32.6172H43.399C42.8805 32.6172 42.46 33.0376 42.46 33.5562V48.2982C42.46 48.8167 42.8805 49.2372 43.399 49.2372H58.1409C58.6595 49.2372 59.08 48.8167 59.08 48.2982V33.5562C59.08 33.0376 58.6595 32.6172 58.1409 32.6172ZM57.2019 47.3593H44.3379V34.4953H57.2019V47.3593Z" fill="white"/>
</svg>
