<svg width="17" height="22" viewBox="0 0 17 22" fill="none" xmlns="http://www.w3.org/2000/svg">
<path d="M12.4945 7.83014H16.9042C16.8086 6.56448 16.4334 5.37587 15.841 4.3252C15.1069 4.60262 13.8524 5.0207 12.2822 5.32318C12.3942 6.12616 12.4659 6.96786 12.4945 7.83014Z" fill="#EC2227"/>
<path d="M12.0632 4.04771C13.3414 3.79821 14.3995 3.46874 15.0985 3.22041C13.9987 1.83214 12.4743 0.795267 10.7231 0.307617C10.9815 0.72823 11.2336 1.25284 11.4704 1.90485C11.7064 2.5552 11.9049 3.27614 12.0632 4.04771Z" fill="#EC2227"/>
<path d="M8.45224 4.41123C9.26664 4.41123 10.0527 4.35124 10.7907 4.25516C10.2278 1.57343 9.22144 0 8.45224 0C7.68304 0 6.67662 1.57343 6.11377 4.25516C6.85169 4.35129 7.63784 4.41123 8.45224 4.41123Z" fill="#EC2227"/>
<path d="M4.62206 5.32318C3.05177 5.0207 1.79736 4.60262 1.06322 4.3252C0.47085 5.37587 0.09562 6.56448 0 7.83014H4.40973C4.43839 6.96786 4.51012 6.12616 4.62206 5.32318Z" fill="#EC2227"/>
<path d="M8.45144 5.70063C7.55534 5.70063 6.69539 5.63479 5.89267 5.5293C5.79439 6.24001 5.72688 7.00909 5.69873 7.83007H11.2041C11.176 7.00909 11.1084 6.23997 11.0102 5.5293C10.2074 5.63484 9.34754 5.70063 8.45144 5.70063Z" fill="#EC2227"/>
<path d="M5.4328 1.90485C5.66949 1.25284 5.92165 0.728273 6.18 0.307617C4.42884 0.795267 2.90435 1.83214 1.80469 3.22041C2.50359 3.46874 3.56161 3.79821 4.83991 4.04771C4.99822 3.27619 5.19671 2.55524 5.4328 1.90485Z" fill="#EC2227"/>
<path d="M3.2962 15.1969V13.2627C2.7031 13.4245 2.19796 13.5892 1.80615 13.7285C2.24059 14.2769 2.74139 14.7703 3.2962 15.1969Z" fill="#EC2227"/>
<path d="M13.6079 15.1969C14.1627 14.7703 14.6635 14.2769 15.098 13.7285C14.7062 13.5892 14.201 13.4245 13.6079 13.2627V15.1969Z" fill="#EC2227"/>
<path d="M5.74439 10.3976H11.1599C11.1891 9.98696 11.2084 9.56089 11.2159 9.11914H5.68848C5.69596 9.56089 5.71529 9.98696 5.74439 10.3976Z" fill="#EC2227"/>
<path d="M12.4395 10.5553C13.0023 10.7984 13.4272 11.3013 13.5628 11.912C14.5358 12.1591 15.3197 12.4271 15.8412 12.6241C16.4335 11.5735 16.8088 10.3848 16.9044 9.11914H12.5054C12.4973 9.60554 12.4748 10.0851 12.4395 10.5553Z" fill="#EC2227"/>
<path d="M0 9.11914C0.09562 10.3848 0.47085 11.5735 1.06323 12.6241C1.58465 12.4271 2.3686 12.1591 3.34162 11.912C3.4772 11.3013 3.90211 10.7984 4.46487 10.5553C4.42959 10.0851 4.40712 9.60554 4.399 9.11914H0Z" fill="#EC2227"/>
<path d="M11.6744 11.6865H5.22856C4.87258 11.6865 4.58398 11.9751 4.58398 12.3311V21.3553C4.58398 21.7113 4.87258 21.9999 5.22856 21.9999H11.6744C12.0304 21.9999 12.319 21.7113 12.319 21.3553V12.3311C12.319 11.9751 12.0304 11.6865 11.6744 11.6865ZM8.45153 20.0661C8.09553 20.0661 7.80693 19.7775 7.80693 19.4216C7.80693 19.0656 8.09553 18.777 8.45153 18.777C8.80743 18.777 9.09603 19.0656 9.09603 19.4216C9.09603 19.7775 8.80743 20.0661 8.45153 20.0661Z" fill="#EC2227"/>
</svg>
