<svg width="60" height="60" viewBox="0 0 60 60" fill="none" xmlns="http://www.w3.org/2000/svg">
<g clip-path="url(#clip0)">
<path d="M53.75 55H6.25C2.75 55 0 52.25 0 48.75V18.75C0 15.25 2.75 12.5 6.25 12.5H53.75C57.25 12.5 60 15.25 60 18.75V48.75C60 52.25 57.25 55 53.75 55ZM6.25 15C4.25 15 2.5 16.75 2.5 18.75V48.75C2.5 50.75 4.25 52.5 6.25 52.5H53.75C55.75 52.5 57.5 50.75 57.5 48.75V18.75C57.5 16.75 55.75 15 53.75 15H6.25Z" fill="#EC2227"/>
<path d="M38.75 15C38 15 37.5 14.5 37.5 13.75V8.75C37.5 8 37 7.5 36.25 7.5H23.75C23 7.5 22.5 8 22.5 8.75V13.75C22.5 14.5 22 15 21.25 15C20.5 15 20 14.5 20 13.75V8.75C20 6.75 21.75 5 23.75 5H36.25C38.25 5 40 6.75 40 8.75V13.75C40 14.5 39.5 15 38.75 15Z" fill="#EC2227"/>
<path d="M30.0001 35C29.7501 35 29.7501 35 29.5001 35L0.75009 25C0.25009 24.75 -0.24991 24 9.03308e-05 23.25C0.25009 22.75 1.00009 22.25 1.75009 22.5L30.0001 32.5L58.2501 22.5C59.0001 22.25 59.5001 22.5 59.7501 23.25C60.0001 24 59.7501 24.5 59.0001 24.75L30.2501 34.75C30.2501 35 30.2501 35 30.0001 35Z" fill="#EC2227"/>
</g>
<defs>
<clipPath id="clip0">
<rect width="60" height="60" fill="white"/>
</clipPath>
</defs>
</svg>
