<svg width="67" height="42" viewBox="0 0 67 42" fill="none" xmlns="http://www.w3.org/2000/svg">
<path d="M57.2085 18.4805C59.1455 17.1194 60.4282 14.8551 60.4282 12.3029C60.4282 8.12777 57.0514 4.75101 52.8763 4.75101C48.7012 4.75101 45.3244 8.12777 45.3244 12.3029C45.3244 14.8551 46.594 17.1194 48.5441 18.4805C46.8819 19.0564 45.3637 19.9464 44.081 21.0982C42.3141 19.593 40.2331 18.4413 37.9558 17.7607C40.7174 16.0854 42.5759 13.0358 42.5759 9.56747C42.5759 4.27984 38.2961 0 33.0084 0C27.7208 0 23.441 4.29293 23.441 9.56747C23.441 13.0358 25.2864 16.0854 28.0611 17.7607C25.8099 18.4413 23.7551 19.5799 22.0013 21.0589C20.7186 19.9333 19.2266 19.0564 17.5905 18.4936C19.5276 17.1324 20.8102 14.8682 20.8102 12.316C20.8102 8.14085 17.4335 4.7641 13.2583 4.7641C9.08321 4.7641 5.70645 8.14085 5.70645 12.316C5.70645 14.8682 6.97601 17.1324 8.92615 18.4936C3.73013 20.2867 0 25.2209 0 31.019V31.8828C0 31.909 0.0261764 31.9352 0.0523528 31.9352H16.0592C15.9676 32.655 15.9152 33.4011 15.9152 34.1471V35.0371C15.9152 38.885 19.0302 42 22.8782 42H43.1649C47.0128 42 50.1278 38.885 50.1278 35.0371V34.1471C50.1278 33.4011 50.0754 32.655 49.9838 31.9352H66.0954C66.1215 31.9352 66.1477 31.909 66.1477 31.8828V31.019C66.1215 25.2079 62.4045 20.2736 57.2085 18.4805ZM47.4185 12.2898C47.4185 9.27952 49.866 6.83203 52.8763 6.83203C55.8866 6.83203 58.3341 9.27952 58.3341 12.2898C58.3341 15.2608 55.9389 17.6821 52.981 17.7476C52.9417 17.7476 52.9156 17.7476 52.8763 17.7476C52.837 17.7476 52.8109 17.7476 52.7716 17.7476C49.8006 17.6952 47.4185 15.2739 47.4185 12.2898ZM25.5089 9.56747C25.5089 5.44469 28.8595 2.09411 32.9822 2.09411C37.105 2.09411 40.4556 5.44469 40.4556 9.56747C40.4556 13.5463 37.3275 16.8052 33.4142 17.0277C33.2702 17.0277 33.1262 17.0277 32.9822 17.0277C32.8383 17.0277 32.6943 17.0277 32.5503 17.0277C28.637 16.8052 25.5089 13.5463 25.5089 9.56747ZM7.7613 12.2898C7.7613 9.27952 10.2088 6.83203 13.2191 6.83203C16.2294 6.83203 18.6768 9.27952 18.6768 12.2898C18.6768 15.2608 16.2817 17.6821 13.3238 17.7476C13.2845 17.7476 13.2583 17.7476 13.2191 17.7476C13.1798 17.7476 13.1536 17.7476 13.1144 17.7476C10.1564 17.6952 7.7613 15.2739 7.7613 12.2898ZM16.4257 29.828H2.12029C2.70926 24.2524 7.421 19.881 13.1405 19.8417C13.1667 19.8417 13.1929 19.8417 13.2191 19.8417C13.2453 19.8417 13.2714 19.8417 13.2976 19.8417C16.0199 19.8548 18.5067 20.8626 20.4307 22.4986C18.546 24.5404 17.1455 27.0533 16.4257 29.828ZM48.0075 35.0371C48.0075 37.7202 45.8218 39.9059 43.1387 39.9059H22.852C20.1689 39.9059 17.9832 37.7202 17.9832 35.0371V34.1471C17.9832 26.0193 24.4749 19.3705 32.5503 19.1349C32.6943 19.148 32.8514 19.148 32.9953 19.148C33.1393 19.148 33.2964 19.148 33.4403 19.1349C41.5157 19.3705 48.0075 26.0193 48.0075 34.1471V35.0371ZM49.565 29.828C48.8451 27.0664 47.4709 24.5927 45.5993 22.5509C47.5363 20.8757 50.0492 19.8679 52.7978 19.8417C52.8239 19.8417 52.8501 19.8417 52.8763 19.8417C52.9025 19.8417 52.9286 19.8417 52.9548 19.8417C58.6744 19.881 63.3861 24.2524 63.9751 29.828H49.565Z" fill="#EC2227"/>
</svg>
