<svg width="80" height="80" viewBox="0 0 80 80" fill="none" xmlns="http://www.w3.org/2000/svg">
<path d="M73.333 19.388C77.207 18.011 80 14.349 80 10C80 4.479 75.524 0 70 0C65.651 0 61.989 2.793 60.612 6.667H40V13.334H60.612C61.618 16.159 63.838 18.379 66.663 19.389V38.497C64.788 40.189 63.21 42.208 62.077 44.5C60.423 43.764 58.594 43.334 56.667 43.334C49.358 43.334 43.44 49.366 43.35 56.834C38.243 57.566 34.225 61.573 33.49 66.668H19.388C18.382 63.842 16.165 61.619 13.336 60.613V46.667H35C41.442 46.667 46.667 41.448 46.667 35C46.667 29.125 42.305 24.31 36.65 23.5C36.559 16.032 30.641 10 23.333 10C21.406 10 19.576 10.43 17.923 11.166C14.655 4.557 7.868 0.003 0 0V6.667C5.094 6.67 9.674 9.525 11.947 14.122L14.785 19.871L20.638 17.261C21.517 16.864 22.422 16.668 23.333 16.668C27.008 16.668 30 19.806 30 23.667V30H35C37.76 30 40 32.24 40 35C40 37.764 37.76 40 35 40H0V46.667H6.67L6.667 60.612C2.793 61.989 0 65.654 0 70C0 75.521 4.476 80 10 80C14.349 80 18.008 77.207 19.388 73.333H34.498C36.374 77.266 40.354 80 45 80H80V73.333H45C42.239 73.333 40 71.097 40 68.333C40 65.573 42.239 63.333 45 63.333H50V56.999C50 53.138 52.991 50 56.667 50C57.578 50 58.483 50.195 59.362 50.593L65.215 53.203L68.054 47.454C70.325 42.858 74.905 40.003 80 40V33.333C77.653 33.333 75.42 33.782 73.33 34.527L73.333 19.388ZM10 73.333C8.158 73.333 6.667 71.843 6.667 70C6.667 68.157 8.158 66.667 10 66.667C11.842 66.667 13.333 68.157 13.333 70C13.333 71.843 11.842 73.333 10 73.333ZM70 13.333C68.157 13.333 66.667 11.842 66.667 10C66.667 8.158 68.157 6.667 70 6.667C71.843 6.667 73.333 8.158 73.333 10C73.333 11.842 71.843 13.333 70 13.333Z" fill="#EC2227"/>
</svg>
