<svg width="59" height="47" viewBox="0 0 59 47" fill="none" xmlns="http://www.w3.org/2000/svg">
<path d="M9.84187 11.841H22.1973L22.8963 7.31841C22.988 6.72503 23.25 6.17178 23.6521 5.76963C24.0741 5.34764 24.6307 5.08606 25.2953 5.08606H49.0321C49.6983 5.08606 50.3032 5.35776 50.7408 5.7954C51.1785 6.23305 51.4502 6.83793 51.4502 7.5041V21.847C51.0011 22.0017 50.5215 22.2678 50.0075 22.4563C49.6607 21.7162 49.3632 20.9463 49.0126 20.2125V7.52362H25.3513C25.3253 7.56411 25.3062 7.62195 25.2957 7.68979L24.4534 13.139C24.4125 13.7752 23.8837 14.2785 23.2373 14.2785H9.84188C9.70202 14.2785 9.57395 14.3366 9.48039 14.4302C9.38682 14.5238 9.3287 14.6518 9.3287 14.7917V35.7139C9.3287 35.8538 9.38682 35.9819 9.48039 36.0754C9.57395 36.169 9.70202 36.2271 9.84188 36.2271H31.5089C32.1179 36.9815 33.7262 37.4681 34.5906 37.8732C34.4925 38.1406 34.3706 38.4306 34.2728 38.6647H9.84185C9.02918 38.6647 8.29113 38.333 7.75696 37.7988C7.22273 37.2646 6.89111 36.5266 6.89111 35.7139V14.7917C6.89111 13.979 7.22273 13.241 7.75696 12.7068C8.29113 12.1726 9.02918 11.841 9.84185 11.841L9.84187 11.841Z" fill="#EC2227"/>
<path d="M8.91544 38.5861C9.57274 38.7281 10.2207 38.3103 10.3627 37.653C10.5047 36.9957 10.0869 36.3477 9.4296 36.2057C8.9754 36.1062 8.45324 35.895 8.0563 35.6117C7.84614 35.4618 7.69585 35.3248 7.67813 35.2378L2.45041 9.62161H2.4519C2.44992 9.61662 2.44722 9.60573 2.4492 9.61567L2.45041 9.62161H2.4519C2.45284 9.624 2.45365 9.62503 2.45365 9.62161C2.45365 9.60852 2.47673 9.57937 2.51276 9.54339C2.60601 9.45018 2.73534 9.38194 2.8738 9.35369C2.90061 9.34825 2.93965 9.34533 2.99098 9.34533H16.3863C17.0328 9.34533 17.5616 8.842 17.6025 8.2059L18.4448 2.75656C18.4553 2.68873 18.4744 2.63088 18.5003 2.59039H39.8783C39.9468 2.70344 40.024 2.87824 40.1015 3.05646L41.7252 6.79198C41.9933 7.40721 42.7096 7.68854 43.3248 7.4204C43.94 7.15225 44.2214 6.43602 43.9532 5.82079L42.3295 2.08527C42.1643 1.70516 41.9916 1.32452 41.7025 0.973195C41.2966 0.479819 40.7715 0.152832 40.0162 0.152832H18.4444C17.7798 0.152832 17.2232 0.414411 16.8012 0.836398C16.399 1.23855 16.1371 1.79176 16.0454 2.38518L15.3464 6.90777H2.99101C2.80136 6.90777 2.59866 6.93044 2.38818 6.97335C1.78783 7.09593 1.21893 7.40029 0.798917 7.81998C0.321643 8.29699 0.0161133 8.92158 0.0161133 9.62162C0.0161133 9.76651 0.0332072 9.92629 0.0688789 10.1013L5.29781 35.7234C5.45233 36.4811 5.97315 37.1113 6.64718 37.5922C7.32009 38.0723 8.18031 38.425 8.91547 38.5861L8.91544 38.5861Z" fill="#EC2227"/>
<path d="M45.4411 19.9814C45.6778 19.9814 45.9408 19.9902 46.2284 20.0073C46.5044 20.0236 46.766 20.0466 47.0139 20.0759L47.0182 20.0748C47.4374 20.1243 47.7754 20.3983 47.9263 20.7624C48.1033 21.1196 48.2864 21.5412 48.4684 21.9605C48.8561 22.8535 49.2381 23.7334 49.4453 23.821C49.6558 23.91 50.5764 23.5398 51.4943 23.1706C51.9144 23.0017 52.334 22.8329 52.6876 22.711L52.6873 22.7103C53.1054 22.5662 53.5502 22.6829 53.845 22.9738C54.2204 23.2786 54.5595 23.5824 54.861 23.8839C55.1871 24.21 55.5161 24.5803 55.8461 24.9929L55.8505 24.9894C56.1105 25.3145 56.161 25.7396 56.02 26.1015C55.8995 26.4458 55.7375 26.8485 55.5754 27.2515C55.2062 28.1695 54.8359 29.0901 54.925 29.3007C55.0125 29.5079 55.8925 29.8899 56.7855 30.2776C57.2348 30.4726 57.6867 30.6689 58.0592 30.8575L57.5538 31.8596L58.0622 30.8559C58.428 31.0412 58.6489 31.3991 58.6762 31.7802C58.7023 32.0099 58.7232 32.2555 58.7387 32.5173C58.7557 32.805 58.7645 33.0681 58.7645 33.3048C58.7645 33.5415 58.7557 33.8046 58.7387 34.0922C58.7224 34.3681 58.6993 34.6298 58.6701 34.8776L58.6711 34.882C58.6217 35.3012 58.3477 35.6392 57.9836 35.79C57.6264 35.967 57.2048 36.1501 56.7855 36.3322C55.8925 36.7198 55.0126 37.1019 54.925 37.309C54.8359 37.5196 55.2062 38.4401 55.5754 39.358C55.7443 39.7781 55.9132 40.1981 56.035 40.5514L56.0357 40.5512C56.1796 40.9691 56.063 41.4137 55.7724 41.7084C55.4675 42.084 55.1635 42.4232 54.862 42.7248C54.5359 43.0509 54.1656 43.3798 53.7531 43.7099L53.7566 43.7142C53.4311 43.9746 53.0053 44.0249 52.6431 43.8833C52.2993 43.763 51.8969 43.601 51.4943 43.4392C50.5764 43.0699 49.6559 42.6997 49.4453 42.7888C49.2381 42.8764 48.8561 43.7563 48.4684 44.6492C48.2733 45.0985 48.0771 45.5505 47.8884 45.923L47.89 45.926C47.7048 46.2917 47.3469 46.5127 46.9658 46.54C46.736 46.566 46.4904 46.587 46.2287 46.6025C45.941 46.6195 45.6778 46.6283 45.4411 46.6283C45.2045 46.6283 44.9414 46.6195 44.6538 46.6025C44.3779 46.5862 44.1162 46.5631 43.8684 46.5339L43.864 46.5349C43.4448 46.4854 43.1068 46.2114 42.9559 45.8473C42.7789 45.4901 42.5958 45.0686 42.4138 44.6492C42.0261 43.7563 41.6441 42.8764 41.4369 42.7888C41.2264 42.6997 40.3059 43.0699 39.3879 43.4392C38.9679 43.6081 38.5479 43.777 38.1946 43.8988L38.1948 43.8995C37.7769 44.0434 37.3322 43.9268 37.0376 43.6361C36.662 43.3313 36.3228 43.0273 36.0212 42.7258C35.6951 42.3997 35.3662 42.0294 35.0361 41.6169L35.0317 41.6204C34.7713 41.2949 34.721 40.8691 34.8627 40.5069C34.9831 40.163 35.145 39.7605 35.3069 39.3579C35.6761 38.4401 36.0463 37.5197 35.9572 37.3091C35.8697 37.1019 34.9897 36.7199 34.0967 36.3322C33.6475 36.1371 33.1955 35.9409 32.823 35.7522L32.82 35.7538C32.4542 35.5685 32.2333 35.2107 32.206 34.8295C32.1799 34.5998 32.159 34.3542 32.1435 34.0925C32.1264 33.8047 32.1177 33.5415 32.1177 33.3048C32.1177 33.0682 32.1264 32.8052 32.1435 32.5176C32.1598 32.2416 32.1829 31.9799 32.2121 31.7321L32.2111 31.7278C32.2605 31.3086 32.5346 30.9706 32.8987 30.8197C33.2558 30.6427 33.6774 30.4596 34.0968 30.2776C34.9897 29.8899 35.8696 29.5079 35.9572 29.3007C36.0463 29.0902 35.676 28.1697 35.3068 27.2517C35.1379 26.8316 34.969 26.4117 34.8472 26.0584L34.8465 26.0586C34.7026 25.6407 34.8192 25.196 35.1099 24.9013C35.4147 24.5257 35.7186 24.1865 36.0202 23.885C36.3463 23.5589 36.7166 23.23 37.1291 22.8999L37.1256 22.8955C37.4511 22.6351 37.8769 22.5849 38.2391 22.7265C38.583 22.8469 38.9854 23.0088 39.3881 23.1707C40.3059 23.5399 41.2263 23.9101 41.4369 23.821C41.6441 23.7334 42.0261 22.8535 42.4138 21.9605C42.6088 21.5112 42.8051 21.0593 42.9938 20.6868L42.9922 20.6838C43.1775 20.318 43.5353 20.0971 43.9165 20.0698C44.1462 20.0437 44.3918 20.0228 44.6535 20.0073C44.9413 19.9902 45.2044 19.9815 45.4411 19.9815L45.4411 19.9814ZM46.0965 22.2487C45.907 22.2375 45.6889 22.2317 45.4411 22.2317C45.1933 22.2317 44.9751 22.2375 44.7854 22.2487L44.7334 22.2519C44.6432 22.4508 44.5568 22.6498 44.4706 22.8482C43.9018 24.1583 43.3414 25.4492 42.3072 25.8866C41.2441 26.3362 39.8967 25.7943 38.5531 25.2539C38.387 25.1871 38.2209 25.1203 38.0523 25.0547C37.9073 25.1864 37.7602 25.3269 37.6112 25.4759C37.4625 25.6245 37.3224 25.7714 37.1909 25.9161C37.2565 26.0846 37.3233 26.2506 37.39 26.4167C37.9305 27.7604 38.4725 29.1078 38.0228 30.1709C37.5854 31.2052 36.2946 31.7656 34.9845 32.3344C34.7861 32.4205 34.5871 32.5069 34.3882 32.5971L34.3849 32.6495C34.3737 32.839 34.3679 33.0571 34.3679 33.3048C34.3679 33.5527 34.3737 33.7709 34.3849 33.9606L34.3882 34.0126C34.5871 34.1028 34.786 34.1892 34.9845 34.2754C36.2946 34.8442 37.5854 35.4046 38.0228 36.4388C38.4725 37.5019 37.9306 38.8493 37.3901 40.1929C37.3233 40.359 37.2565 40.525 37.191 40.6937C37.3226 40.8387 37.4631 40.9858 37.6121 41.1348C37.7608 41.2835 37.9075 41.4237 38.0523 41.5551C38.2209 41.4895 38.3868 41.4227 38.553 41.356C39.8967 40.8155 41.2441 40.2735 42.3072 40.7232C43.3414 41.1606 43.9018 42.4514 44.4706 43.7615C44.5567 43.9599 44.6431 44.1589 44.7333 44.3578L44.7857 44.361C44.9753 44.3723 45.1934 44.3781 45.4411 44.3781C45.689 44.3781 45.9072 44.3723 46.0968 44.361L46.1489 44.3578C46.2391 44.1589 46.3255 43.9599 46.4116 43.7615C46.9804 42.4514 47.5408 41.1606 48.5751 40.7232C49.6381 40.2735 50.9856 40.8155 52.3294 41.356C52.4954 41.4227 52.6614 41.4896 52.8299 41.5551C52.9749 41.4234 53.122 41.2829 53.2711 41.1339C53.4197 40.9852 53.5599 40.8384 53.6913 40.6938C53.6258 40.5252 53.559 40.3591 53.4922 40.193C52.9518 38.8493 52.4097 37.5019 52.8594 36.4388C53.2967 35.4047 54.5876 34.8442 55.8977 34.2754C56.0961 34.1892 56.2952 34.1028 56.4941 34.0126L56.4973 33.9603C56.5085 33.7707 56.5143 33.5526 56.5143 33.3048C56.5143 33.057 56.5085 32.8388 56.4973 32.6491L56.4941 32.5971C56.2952 32.5069 56.0962 32.4205 55.8977 32.3344C54.5876 31.7656 53.2968 31.2052 52.8594 30.1709C52.4097 29.1079 52.9517 27.7603 53.4922 26.4166C53.559 26.2506 53.6258 26.0846 53.6913 25.9161C53.5596 25.771 53.4191 25.6239 53.2701 25.4749C53.1214 25.3262 52.9747 25.1861 52.83 25.0546C52.6613 25.1202 52.4953 25.187 52.3293 25.2538C50.9855 25.7942 49.638 26.3362 48.5751 25.8866C47.5408 25.4492 46.9804 24.1583 46.4116 22.8482C46.3255 22.6499 46.2391 22.4508 46.1489 22.2519L46.0965 22.2486V22.2487Z" fill="#EC2227"/>
<path d="M45.4404 27.626C47.0084 27.626 48.4281 28.2617 49.4558 29.2893C50.4834 30.317 51.1191 31.7367 51.1191 33.3047C51.1191 34.8726 50.4834 36.2924 49.4558 37.32C48.4281 38.3477 47.0083 38.9834 45.4404 38.9834C43.8725 38.9834 42.4527 38.3477 41.4251 37.32C40.3974 36.2924 39.7617 34.8727 39.7617 33.3047C39.7617 31.7368 40.3974 30.317 41.4251 29.2893C42.4527 28.2617 43.8724 27.626 45.4404 27.626ZM47.7323 31.0127C47.1459 30.4263 46.3356 30.0635 45.4404 30.0635C44.5453 30.0635 43.7349 30.4263 43.1485 31.0127C42.5621 31.5991 42.1993 32.4096 42.1993 33.3047C42.1993 34.1998 42.5621 35.0102 43.1485 35.5966C43.7349 36.183 44.5453 36.5458 45.4404 36.5458C46.3355 36.5458 47.1459 36.183 47.7323 35.5966C48.3187 35.0102 48.6815 34.1998 48.6815 33.3047C48.6815 32.4096 48.3187 31.5991 47.7323 31.0127Z" fill="#EC2227"/>
</svg>
