<svg width="46" height="36" viewBox="0 0 46 36" fill="none" xmlns="http://www.w3.org/2000/svg">
<path d="M32.1969 14.5499C31.8919 14.5499 31.5994 14.671 31.3837 14.8867C31.168 15.1023 31.0469 15.3949 31.0469 15.6999C31.0469 16.0049 31.168 16.2974 31.3837 16.513C31.5994 16.7287 31.8919 16.8499 32.1969 16.8499H34.4969C34.8019 16.8499 35.0944 16.7287 35.3101 16.513C35.5257 16.2974 35.6469 16.0049 35.6469 15.6999V6.49985C35.6469 6.19485 35.5257 5.90235 35.3101 5.68668C35.0944 5.47101 34.8019 5.34985 34.4969 5.34985H32.1969C31.8919 5.34985 31.5994 5.47101 31.3837 5.68668C31.168 5.90235 31.0469 6.19485 31.0469 6.49985C31.0469 6.80485 31.168 7.09736 31.3837 7.31303C31.5994 7.52869 31.8919 7.64985 32.1969 7.64985H33.3469V14.5499H32.1969Z" fill="#EC2227"/>
<path d="M11.5006 16.8498H13.8006C14.1056 16.8498 14.3981 16.7286 14.6138 16.513C14.8294 16.2973 14.9506 16.0048 14.9506 15.6998C14.9506 15.3948 14.8294 15.1023 14.6138 14.8866C14.3981 14.671 14.1056 14.5498 13.8006 14.5498H12.6506V7.64979H13.8006C14.1056 7.64979 14.3981 7.52863 14.6138 7.31296C14.8294 7.0973 14.9506 6.80479 14.9506 6.49979C14.9506 6.19479 14.8294 5.90229 14.6138 5.68662C14.3981 5.47095 14.1056 5.34979 13.8006 5.34979H11.5006C11.1956 5.34979 10.9031 5.47095 10.6874 5.68662C10.4717 5.90229 10.3506 6.19479 10.3506 6.49979V15.6998C10.3506 16.0048 10.4717 16.2973 10.6874 16.513C10.9031 16.7286 11.1956 16.8498 11.5006 16.8498Z" fill="#EC2227"/>
<path d="M23 16.8498C24.1372 16.8498 25.2489 16.5126 26.1945 15.8807C27.1401 15.2489 27.8771 14.3509 28.3123 13.3002C28.7475 12.2496 28.8614 11.0934 28.6395 9.97803C28.4177 8.86264 27.87 7.83808 27.0659 7.03393C26.2617 6.22978 25.2372 5.68214 24.1218 5.46028C23.0064 5.23841 21.8502 5.35228 20.7996 5.78749C19.7489 6.22269 18.8509 6.95968 18.219 7.90527C17.5872 8.85085 17.25 9.96255 17.25 11.0998C17.25 11.8549 17.3987 12.6026 17.6877 13.3002C17.9767 13.9979 18.4002 14.6317 18.9341 15.1657C20.0125 16.244 21.475 16.8498 23 16.8498ZM23 7.6498C23.6823 7.6498 24.3494 7.85214 24.9167 8.23123C25.4841 8.61032 25.9263 9.14913 26.1874 9.77954C26.4485 10.4099 26.5168 11.1036 26.3837 11.7729C26.2506 12.4421 25.922 13.0568 25.4395 13.5393C24.957 14.0218 24.3423 14.3504 23.6731 14.4835C23.0038 14.6166 22.3101 14.5483 21.6797 14.2872C21.0493 14.0261 20.5105 13.5839 20.1314 13.0165C19.7523 12.4492 19.55 11.7821 19.55 11.0998C19.55 10.1848 19.9135 9.30728 20.5605 8.66028C21.2075 8.01328 22.085 7.6498 23 7.6498Z" fill="#EC2227"/>
<path d="M44.85 9.95H40.25V1.9C40.25 1.595 40.1288 1.30249 39.9132 1.08683C39.6975 0.871161 39.405 0.75 39.1 0.75H6.9C6.595 0.75 6.3025 0.871161 6.08683 1.08683C5.87116 1.30249 5.75 1.595 5.75 1.9V5.35H1.15C0.845001 5.35 0.552494 5.47116 0.336827 5.68683C0.121161 5.90249 0 6.195 0 6.5V24.9C0 25.205 0.121161 25.4975 0.336827 25.7132C0.552494 25.9288 0.845001 26.05 1.15 26.05H3.45V34.1C3.45 34.405 3.57116 34.6975 3.78683 34.9132C4.00249 35.1288 4.295 35.25 4.6 35.25H36.8C37.105 35.25 37.3975 35.1288 37.6132 34.9132C37.8288 34.6975 37.95 34.405 37.95 34.1V30.65H44.85C45.155 30.65 45.4475 30.5288 45.6632 30.3132C45.8788 30.0975 46 29.805 46 29.5V11.1C46 10.795 45.8788 10.5025 45.6632 10.2868C45.4475 10.0712 45.155 9.95 44.85 9.95ZM8.05 3.05H37.95V19.15H8.05V3.05ZM2.3 7.65H5.75V20.3C5.75 20.605 5.87116 20.8975 6.08683 21.1132C6.3025 21.3288 6.595 21.45 6.9 21.45H32.2V23.75H2.3V7.65ZM35.65 32.95H5.75V26.05H11.5V29.5C11.5 29.805 11.6212 30.0975 11.8368 30.3132C12.0525 30.5288 12.345 30.65 12.65 30.65H35.65V32.95ZM43.7 28.35H13.8V26.05H33.35C33.655 26.05 33.9475 25.9288 34.1632 25.7132C34.3788 25.4975 34.5 25.205 34.5 24.9V21.45H39.1C39.405 21.45 39.6975 21.3288 39.9132 21.1132C40.1288 20.8975 40.25 20.605 40.25 20.3V12.25H43.7V28.35Z" fill="#EC2227"/>
</svg>
