<svg width="46" height="46" viewBox="0 0 46 46" fill="none" xmlns="http://www.w3.org/2000/svg">
<path d="M12.7808 7.66667V5.11111C12.7808 3.75556 12.2423 2.45553 11.2838 1.49701C10.3253 0.53849 9.02526 0 7.6697 0C6.31415 0 5.01412 0.53849 4.0556 1.49701C3.09708 2.45553 2.55859 3.75556 2.55859 5.11111V7.66667C2.55859 9.02222 3.09708 10.3223 4.0556 11.2808C5.01412 12.2393 6.31415 12.7778 7.6697 12.7778C9.02526 12.7778 10.3253 12.2393 11.2838 11.2808C12.2423 10.3223 12.7808 9.02222 12.7808 7.66667ZM10.2253 7.66667C10.2253 8.34444 9.95601 8.99446 9.47676 9.47372C8.9975 9.95298 8.34748 10.2222 7.6697 10.2222C6.99193 10.2222 6.34191 9.95298 5.86265 9.47372C5.3834 8.99446 5.11415 8.34444 5.11415 7.66667V5.11111C5.11415 4.43334 5.3834 3.78332 5.86265 3.30406C6.34191 2.8248 6.99193 2.55556 7.6697 2.55556C8.34748 2.55556 8.9975 2.8248 9.47676 3.30406C9.95601 3.78332 10.2253 4.43334 10.2253 5.11111V7.66667Z" fill="#EC2227"/>
<path d="M15.3333 28.111V19.1665C15.3333 17.4721 14.6602 15.8471 13.4621 14.6489C12.2639 13.4508 10.6389 12.7776 8.94444 12.7776H6.38889C4.69445 12.7776 3.06941 13.4508 1.87126 14.6489C0.673113 15.8471 0 17.4721 0 19.1665V28.111C0 28.4499 0.134623 28.7749 0.374253 29.0145C0.613882 29.2541 0.93889 29.3888 1.27778 29.3888H14.0556C14.3944 29.3888 14.7195 29.2541 14.9591 29.0145C15.1987 28.7749 15.3333 28.4499 15.3333 28.111ZM12.7778 26.8332H2.55556V19.1665C2.55556 18.1499 2.95942 17.1749 3.67831 16.456C4.3972 15.7371 5.37223 15.3332 6.38889 15.3332C6.05 15.3332 5.72499 15.4678 5.48536 15.7075C5.24573 15.9471 5.11111 16.2721 5.11111 16.611C5.11111 16.9499 5.24573 17.2749 5.48536 17.5145C5.72499 17.7541 6.05 17.8888 6.38889 17.8888V22.9999C6.38889 23.3388 6.52351 23.6638 6.76314 23.9034C7.00277 24.143 7.32778 24.2776 7.66667 24.2776C8.00555 24.2776 8.33056 24.143 8.57019 23.9034C8.80982 23.6638 8.94444 23.3388 8.94444 22.9999V17.8888C9.28333 17.8888 9.60834 17.7541 9.84797 17.5145C10.0876 17.2749 10.2222 16.9499 10.2222 16.611C10.2222 16.2721 10.0876 15.9471 9.84797 15.7075C9.60834 15.4678 9.28333 15.3332 8.94444 15.3332C9.96111 15.3332 10.9361 15.7371 11.655 16.456C12.3739 17.1749 12.7778 18.1499 12.7778 19.1665V26.8332Z" fill="#EC2227"/>
<path d="M43.4449 24.2778V21.7222C43.4449 20.3666 42.9064 19.0666 41.9479 18.1081C40.9893 17.1496 39.6893 16.6111 38.3338 16.6111C36.9782 16.6111 35.6782 17.1496 34.7197 18.1081C33.7611 19.0666 33.2227 20.3666 33.2227 21.7222V24.2778C33.2227 25.6333 33.7611 26.9333 34.7197 27.8919C35.6782 28.8504 36.9782 29.3889 38.3338 29.3889C39.6893 29.3889 40.9893 28.8504 41.9479 27.8919C42.9064 26.9333 43.4449 25.6333 43.4449 24.2778ZM40.8893 24.2778C40.8893 24.9555 40.6201 25.6055 40.1408 26.0848C39.6616 26.5641 39.0115 26.8333 38.3338 26.8333C37.656 26.8333 37.006 26.5641 36.5267 26.0848C36.0475 25.6055 35.7782 24.9555 35.7782 24.2778V21.7222C35.7782 21.0444 36.0475 20.3944 36.5267 19.9151C37.006 19.4359 37.656 19.1666 38.3338 19.1666C39.0115 19.1666 39.6616 19.4359 40.1408 19.9151C40.6201 20.3944 40.8893 21.0444 40.8893 21.7222V24.2778Z" fill="#EC2227"/>
<path d="M39.6124 29.3889H37.0569C35.3624 29.3889 33.7374 30.062 32.5392 31.2602C31.3411 32.4583 30.668 34.0834 30.668 35.7778V44.7222C30.668 45.0611 30.8026 45.3861 31.0422 45.6258C31.2819 45.8654 31.6069 46 31.9457 46H44.7235C45.0624 46 45.3874 45.8654 45.6271 45.6258C45.8667 45.3861 46.0013 45.0611 46.0013 44.7222V35.7778C46.0013 34.0834 45.3282 32.4583 44.13 31.2602C42.9319 30.062 41.3069 29.3889 39.6124 29.3889ZM43.4457 43.4445H33.2235V35.7778C33.2235 34.7611 33.6274 33.7861 34.3463 33.0672C35.0652 32.3483 36.0402 31.9445 37.0569 31.9445C36.718 31.9445 36.393 32.0791 36.1533 32.3187C35.9137 32.5584 35.7791 32.8834 35.7791 33.2222C35.7791 33.5611 35.9137 33.8861 36.1533 34.1258C36.393 34.3654 36.718 34.5 37.0569 34.5V39.6111C37.0569 39.95 37.1915 40.275 37.4311 40.5147C37.6707 40.7543 37.9957 40.8889 38.3346 40.8889C38.6735 40.8889 38.9985 40.7543 39.2382 40.5147C39.4778 40.275 39.6124 39.95 39.6124 39.6111V34.5C39.9513 34.5 40.2763 34.3654 40.5159 34.1258C40.7556 33.8861 40.8902 33.5611 40.8902 33.2222C40.8902 32.8834 40.7556 32.5584 40.5159 32.3187C40.2763 32.0791 39.9513 31.9445 39.6124 31.9445C40.6291 31.9445 41.6041 32.3483 42.323 33.0672C43.0419 33.7861 43.4457 34.7611 43.4457 35.7778V43.4445Z" fill="#EC2227"/>
<path d="M26.8334 42.1667H14.0556C12.7 42.1667 11.4 41.6282 10.4415 40.6697C9.48295 39.7112 8.94446 38.4112 8.94446 37.0556V36.3017L9.31502 36.685C9.43381 36.8048 9.57513 36.8999 9.73084 36.9647C9.88655 37.0296 10.0536 37.063 10.2222 37.063C10.3909 37.063 10.5579 37.0296 10.7136 36.9647C10.8694 36.8999 11.0107 36.8048 11.1295 36.685C11.2492 36.5663 11.3443 36.4249 11.4092 36.2692C11.474 36.1135 11.5074 35.9465 11.5074 35.7778C11.5074 35.6091 11.474 35.4421 11.4092 35.2864C11.3443 35.1307 11.2492 34.9894 11.1295 34.8706L8.57391 32.3151C8.45239 32.1987 8.30909 32.1075 8.15224 32.0467C7.84115 31.9189 7.49222 31.9189 7.18113 32.0467C7.02428 32.1075 6.88099 32.1987 6.75946 32.3151L4.20391 34.8706C3.9633 35.1112 3.82812 35.4376 3.82812 35.7778C3.82813 36.1181 3.9633 36.4444 4.20391 36.685C4.44452 36.9257 4.77086 37.0608 5.11113 37.0608C5.4514 37.0608 5.77774 36.9257 6.01835 36.685L6.38891 36.3017V37.0556C6.38891 39.0889 7.19664 41.039 8.63442 42.4768C10.0722 43.9145 12.0222 44.7223 14.0556 44.7223H26.8334C27.1722 44.7223 27.4972 44.5876 27.7369 44.348C27.9765 44.1084 28.1111 43.7834 28.1111 43.4445C28.1111 43.1056 27.9765 42.7806 27.7369 42.541C27.4972 42.3013 27.1722 42.1667 26.8334 42.1667Z" fill="#EC2227"/>
<path d="M16.6098 3.83314H31.9431C33.2987 3.83314 34.5987 4.37163 35.5572 5.33015C36.5158 6.28867 37.0543 7.5887 37.0543 8.94425V9.69814L36.6837 9.31481C36.4431 9.0742 36.1168 8.93903 35.7765 8.93903C35.4362 8.93903 35.1099 9.0742 34.8693 9.31481C34.6286 9.55542 34.4935 9.88176 34.4935 10.222C34.4935 10.5623 34.6286 10.8886 34.8693 11.1293L37.4248 13.6848C37.5463 13.8011 37.6896 13.8923 37.8465 13.9531C37.9994 14.0207 38.1648 14.0557 38.332 14.0557C38.4993 14.0557 38.6646 14.0207 38.8176 13.9531C38.9744 13.8923 39.1177 13.8011 39.2393 13.6848L41.7948 11.1293C42.0354 10.8886 42.1706 10.5623 42.1706 10.222C42.1706 9.88176 42.0354 9.55542 41.7948 9.31481C41.5542 9.0742 41.2279 8.93903 40.8876 8.93903C40.5473 8.93903 40.221 9.0742 39.9804 9.31481L39.6098 9.69814V8.94425C39.6098 6.91093 38.8021 4.96088 37.3643 3.5231C35.9265 2.08532 33.9765 1.27759 31.9431 1.27759H16.6098C16.2709 1.27759 15.9459 1.41221 15.7063 1.65184C15.4667 1.89147 15.332 2.21648 15.332 2.55537C15.332 2.89425 15.4667 3.21926 15.7063 3.45889C15.9459 3.69852 16.2709 3.83314 16.6098 3.83314Z" fill="#EC2227"/>
</svg>
