<svg width="79" height="63" viewBox="0 0 79 63" fill="none" xmlns="http://www.w3.org/2000/svg">
<path d="M5.32415 62.2882H73.676C76.6116 62.2882 79 59.8817 79 56.9235V53.8047C79 52.6666 78.0781 51.7409 76.9449 51.7409H72.9882C73.9341 50.5983 74.5016 49.1416 74.5016 47.5878V32.9488C74.5016 32.3097 73.9837 31.7916 73.3444 31.7916C72.7052 31.7916 72.1872 32.3097 72.1872 32.9488V47.5877C72.1872 49.6099 70.7012 51.38 68.7165 51.7407C66.0632 51.7407 11.9999 51.7407 10.2838 51.7407C8.29913 51.38 6.81311 49.6099 6.81311 47.5877V7.24753C6.81311 4.92013 8.70648 3.0266 11.0339 3.0266H67.9663C70.2937 3.0266 72.187 4.92013 72.187 7.24753V27.5484C72.187 28.1875 72.705 28.7057 73.3443 28.7057C73.9835 28.7057 74.5015 28.1875 74.5015 27.5484V7.24753C74.5015 3.64394 71.5697 0.712158 67.9663 0.712158H11.0339C7.43045 0.712158 4.49866 3.64394 4.49866 7.24753V47.5877C4.49866 49.1414 5.06601 50.5981 6.01215 51.7407H2.05523C0.92192 51.7407 0 52.6665 0 53.8046V56.9234C0 59.8815 2.38835 62.2882 5.32415 62.2882ZM29.472 54.0551H49.5282V54.9903C49.5282 55.3765 49.21 55.703 48.8337 55.703H30.1665C29.7901 55.703 29.472 55.3767 29.472 54.9903V54.0551ZM2.31444 54.0551H27.1575V54.9903C27.1575 56.6595 28.5073 58.0175 30.1665 58.0175H48.8337C50.4928 58.0175 51.8426 56.6595 51.8426 54.9903V54.0551H76.6856V56.9235C76.6856 58.6053 75.3355 59.9738 73.676 59.9738H5.32415C3.66454 59.9738 2.31444 58.6053 2.31444 56.9235V54.0551Z" fill="#EC2227"/>
<path d="M36.7998 7.82192C37.4391 7.82192 37.9571 7.3038 37.9571 6.6647C37.9571 6.02561 37.4391 5.50748 36.7998 5.50748C35.7065 5.50748 12.417 5.50748 11.4522 5.50748C10.282 5.50748 9.33002 6.45949 9.33002 7.62967V47.1452C9.33002 48.3154 10.282 49.2674 11.4522 49.2674H67.5483C68.7183 49.2674 69.6704 48.3154 69.6704 47.1452C69.6704 43.9069 69.6704 9.09764 69.6704 7.62951C69.6704 6.45933 68.7183 5.50732 67.5483 5.50732H42.2002C41.561 5.50732 41.043 6.02545 41.043 6.66455C41.043 7.30364 41.561 7.82177 42.2002 7.82177H67.3558V11.2299C66.6784 11.2299 18.6756 11.2299 17.9168 11.2299V7.82177H36.7998V7.82192ZM59.6582 46.953H48.3549V45.562C48.3549 43.9626 49.6563 42.6614 51.2556 42.6614H56.7578C58.357 42.6614 59.6584 43.9626 59.6584 45.562V46.953H59.6582ZM51.7092 38.0496C51.7092 36.7799 52.7366 35.7522 54.0067 35.7522C56.0454 35.7522 57.0747 38.2305 55.6312 39.6741C54.7332 40.5719 53.2799 40.5719 52.3819 39.6741C51.9482 39.2402 51.7092 38.6633 51.7092 38.0496ZM40.6574 13.5445H67.3558V29.0915H61.9727V27.7005C61.9727 25.2264 60.2401 23.1505 57.9247 22.6189C59.0279 20.8405 58.8097 18.4693 57.2677 16.9271H57.2676C56.3964 16.0559 55.2384 15.5764 54.0065 15.5764C51.4574 15.5764 49.3946 17.6389 49.3946 20.1883C49.3946 21.0612 49.6365 21.8965 50.0868 22.6194C47.7723 23.1516 46.0403 25.227 46.0403 27.7007V29.0917H40.6573V13.5445H40.6574ZM56.7578 24.8001C58.357 24.8001 59.6584 26.1012 59.6584 27.7005V29.0915H48.3549V27.7005C48.3549 26.1012 49.6563 24.8001 51.2556 24.8001H56.7578ZM51.7092 20.1882C51.7092 18.9184 52.7366 17.8907 54.0067 17.8907C56.0455 17.8907 57.0745 20.3691 55.6311 21.8126C54.7331 22.7106 53.2799 22.7106 52.3819 21.8126C51.9482 21.3787 51.7092 20.8018 51.7092 20.1882ZM40.6574 31.406H67.3558V46.953H61.9727V45.562C61.9727 43.0877 60.2401 41.012 57.9249 40.4803C59.0281 38.7018 58.8099 36.3308 57.2677 34.7884H57.2676C54.3565 31.8773 49.3947 33.9707 49.3947 38.0495C49.3947 38.9223 49.6367 39.7577 50.0869 40.4806C47.7725 41.0127 46.0405 43.0882 46.0405 45.562V46.953H40.6574V31.406ZM11.6445 7.82192H15.6023V11.23H11.6445V7.82192ZM30.6454 46.953H19.342V45.562C19.342 43.9626 20.6432 42.6614 22.2425 42.6614H27.7448C29.3441 42.6614 30.6454 43.9626 30.6454 45.562V46.953ZM24.9937 35.7522C27.0324 35.7522 28.0617 38.2305 26.6183 39.6741C25.7203 40.5719 24.267 40.5719 23.369 39.6741C21.9172 38.2218 22.9638 35.7522 24.9937 35.7522ZM38.343 46.953H32.9599V45.562C32.9599 43.0877 31.2273 41.012 28.9121 40.4803C30.0153 38.7018 29.7971 36.3308 28.2549 34.7884H28.2548C25.3437 31.8773 20.3819 33.9707 20.3819 38.0495C20.3819 38.9223 20.6239 39.7575 21.0741 40.4806C18.7597 41.0127 17.0277 43.0882 17.0277 45.562V46.953H11.6445V31.406H38.343V46.953ZM27.7448 24.8001C29.3441 24.8001 30.6454 26.1012 30.6454 27.7005V29.0915H19.342V27.7005C19.342 26.1012 20.6432 24.8001 22.2425 24.8001H27.7448ZM24.9937 17.8907C27.0326 17.8907 28.0616 20.3691 26.6181 21.8126C25.7201 22.7106 24.267 22.7106 23.369 21.8126C21.9326 20.3756 22.9427 17.8907 24.9937 17.8907ZM38.343 13.5445V29.0915H32.9599V27.7005C32.9599 25.2264 31.2273 23.1505 28.9119 22.6189C30.0151 20.8405 29.797 18.4693 28.2549 16.9271H28.2548C27.3836 16.0559 26.2256 15.5764 24.9937 15.5764C22.4446 15.5764 20.3818 17.6389 20.3818 20.1883C20.3818 21.0612 20.6237 21.8965 21.074 22.6194C18.7595 23.1516 17.0276 25.227 17.0276 27.7007V29.0917H11.6445V13.5445H38.343Z" fill="#EC2227"/>
</svg>
