<svg width="79" height="79" viewBox="0 0 79 79" fill="none" xmlns="http://www.w3.org/2000/svg">
<g clip-path="url(#clip0)">
<path d="M60.8969 0H4.93851C2.21162 0 0.00100708 2.21061 0.00100708 4.9375V44.4375C0.00100708 47.1644 2.21162 49.375 4.93851 49.375H26.3344V46.0834H4.93851C4.02954 46.0834 3.29262 45.3465 3.29262 44.4375V4.9375C3.29262 4.02854 4.02954 3.29162 4.93851 3.29162H60.8969C61.8058 3.29162 62.5428 4.02854 62.5428 4.9375V34.5625H65.8344V4.9375C65.8344 2.21061 63.6238 0 60.8969 0Z" fill="#EC2227"/>
<path d="M23.0418 47.729H19.7502V57.604H23.0418V47.729Z" fill="#EC2227"/>
<path d="M11.521 39.5C10.6121 39.5 9.87514 38.7631 9.87514 37.8541V34.5625H6.58353V37.8541C6.58353 40.581 8.79414 42.7916 11.521 42.7916H14.8126V39.5H11.521Z" fill="#EC2227"/>
<path d="M9.87514 27.979H6.58353V31.2706H9.87514V27.979Z" fill="#EC2227"/>
<path d="M60.1505 34.862C56.7967 31.5076 52.2475 29.6231 47.5041 29.6233C37.6282 29.6238 29.6225 37.6301 29.6228 47.506C29.6233 57.3819 37.6296 65.3876 47.5055 65.3873C52.2474 65.3872 56.7948 63.5037 60.1481 60.1509C67.1321 53.1682 67.1332 41.8461 60.1505 34.862ZM47.4957 62.0972C39.4377 62.0945 32.9075 55.56 32.9103 47.502C32.9131 39.444 39.4475 32.9138 47.5055 32.9166C51.3785 32.9061 55.0945 34.4472 57.8232 37.1957C60.557 39.9326 62.0921 43.6433 62.0909 47.5119C62.0881 55.5699 55.5536 62.1 47.4957 62.0972Z" fill="#EC2227"/>
<path d="M78.518 71.5939L68.187 61.2664C67.8784 60.9578 67.4598 60.7842 67.0235 60.7842C66.587 60.7843 66.1685 60.9578 65.8599 61.2664L61.2681 65.8582C60.6256 66.5009 60.6256 67.5427 61.2681 68.1855L71.599 78.518C71.9076 78.8267 72.3262 79.0002 72.7626 79.0002C73.1997 78.9988 73.6184 78.8235 73.9261 78.513L78.518 73.9212C79.1605 73.2784 79.1605 72.2366 78.518 71.5939ZM72.7624 75.0272L64.7587 67.0218L67.0233 64.7572L75.027 72.7626L72.7624 75.0272Z" fill="#EC2227"/>
<path d="M60.1503 57.8217L57.8228 60.1492L63.5625 65.8889L65.89 63.5614L60.1503 57.8217Z" fill="#EC2227"/>
<path d="M47.7293 36.2085V39.5001C52.2719 39.5055 55.953 43.1867 55.9584 47.7292H59.25C59.2429 41.3696 54.0891 36.2157 47.7293 36.2085Z" fill="#EC2227"/>
<path d="M29.6251 55.9585H16.4585V59.2501H29.6251V55.9585Z" fill="#EC2227"/>
<path d="M24.6877 6.5835C21.9608 6.5835 19.7502 8.79411 19.7502 11.521C19.7502 14.2479 21.9608 16.4585 24.6877 16.4585C27.4145 16.4585 29.6252 14.2479 29.6252 11.521C29.6252 8.79411 27.4145 6.5835 24.6877 6.5835ZM24.6877 13.1667C23.7787 13.1667 23.0418 12.4298 23.0418 11.5208C23.0418 10.6119 23.7787 9.87496 24.6877 9.87496C25.5966 9.87496 26.3335 10.6119 26.3335 11.5208C26.3335 12.43 25.5966 13.1667 24.6877 13.1667Z" fill="#EC2227"/>
<path d="M36.2085 18.104C33.4816 18.104 31.271 20.3146 31.271 23.0415C31.271 25.7684 33.4816 27.979 36.2085 27.979C38.9354 27.979 41.146 25.7684 41.146 23.0415C41.146 20.3146 38.9354 18.104 36.2085 18.104ZM36.2085 24.6874C35.2996 24.6874 34.5626 23.9505 34.5626 23.0415C34.5626 22.1325 35.2996 21.3956 36.2085 21.3956C37.1175 21.3956 37.8544 22.1325 37.8544 23.0415C37.8543 23.9505 37.1175 24.6874 36.2085 24.6874Z" fill="#EC2227"/>
<path d="M21.8778 12.0034L13.6488 20.2324L15.9763 22.5599L24.2053 14.3309L21.8778 12.0034Z" fill="#EC2227"/>
<path d="M27.49 12.0077L25.1625 14.3352L33.3915 22.5642L35.719 20.2367L27.49 12.0077Z" fill="#EC2227"/>
<path d="M47.7293 6.5835C45.0024 6.5835 42.7918 8.79411 42.7918 11.521C42.7918 14.2479 45.0024 16.4585 47.7293 16.4585C50.4562 16.4585 52.6668 14.2479 52.6668 11.521C52.6669 8.79411 50.4563 6.5835 47.7293 6.5835ZM47.7293 13.1667C46.8203 13.1667 46.0834 12.4298 46.0834 11.5208C46.0834 10.6119 46.8203 9.87496 47.7293 9.87496C48.6382 9.87496 49.3752 10.6119 49.3752 11.5208C49.3752 12.43 48.6382 13.1667 47.7293 13.1667Z" fill="#EC2227"/>
<path d="M44.9186 12.009L36.6896 20.238L39.0171 22.5655L47.2461 14.3365L44.9186 12.009Z" fill="#EC2227"/>
</g>
<defs>
<clipPath id="clip0">
<rect width="79" height="79" fill="white"/>
</clipPath>
</defs>
</svg>
