<svg width="18" height="40" viewBox="0 0 18 40" fill="none" xmlns="http://www.w3.org/2000/svg">
<path d="M16.3475 29.9997H12.6742V10.0003H16.3475C16.8422 10.0003 17.2904 9.69532 17.4789 9.22784C17.6675 8.76035 17.5622 8.22287 17.2144 7.86538L9.86774 0.365614C9.3902 -0.121871 8.6139 -0.121871 8.13637 0.365614L0.789668 7.86538C0.437026 8.22537 0.331723 8.76035 0.522737 9.22784C0.711303 9.69532 1.15945 10.0003 1.65413 10.0003H5.32748V29.9997H1.65413C1.15945 29.9997 0.711303 30.3047 0.522737 30.7722C0.331723 31.2397 0.437025 31.7771 0.787218 32.1346L8.13392 39.6344C8.61145 40.1219 9.38776 40.1219 9.86529 39.6344L17.212 32.1346C17.5622 31.7771 17.6675 31.2397 17.4765 30.7722C17.2855 30.3047 16.8422 29.9997 16.3475 29.9997Z" fill="#EC2227"/>
</svg>
