<svg width="46" height="46" viewBox="0 0 46 46" fill="none" xmlns="http://www.w3.org/2000/svg">
<path d="M10.8601 0H1.91648C0.863079 0 0 0.862504 0 1.91648V24.9166C0 25.9706 0.863079 26.8337 1.91648 26.8337H10.8601C11.9158 26.8337 12.7766 25.9706 12.7766 24.9166V1.91648C12.7766 0.862504 11.9158 0 10.8601 0ZM8.94359 23.0001H3.83354V3.83354H8.94359V23.0001Z" fill="#EC2227"/>
<path d="M10.8601 30.6665H1.91648C0.863079 30.6665 0 31.5296 0 32.5836V44.0836C0 45.137 0.863079 46.0001 1.91648 46.0001H10.8601C11.9158 46.0001 12.7766 45.137 12.7766 44.0836V32.5836C12.7766 31.5296 11.9158 30.6665 10.8601 30.6665ZM8.94359 42.1666H3.83354V34.5H8.94359V42.1666Z" fill="#EC2227"/>
<path d="M44.0837 -0.00012207H35.1401C34.0861 -0.00012207 33.2236 0.862382 33.2236 1.91636V24.9165C33.2236 25.9704 34.0861 26.8335 35.1401 26.8335H44.0837C45.1371 26.8335 46.0002 25.9704 46.0002 24.9165V1.91636C46.0002 0.862382 45.1371 -0.00012207 44.0837 -0.00012207ZM42.1667 23H37.0566V3.83342H42.1667V23Z" fill="#EC2227"/>
<path d="M44.0837 30.6665H35.1401C34.0861 30.6665 33.2236 31.5296 33.2236 32.5836V44.0836C33.2236 45.137 34.0861 46.0001 35.1401 46.0001H44.0837C45.1371 46.0001 46.0002 45.137 46.0002 44.0836V32.5836C46.0002 31.5296 45.1371 30.6665 44.0837 30.6665ZM42.1667 42.1666H37.0566V34.5H42.1667V42.1666Z" fill="#EC2227"/>
<path d="M27.4718 19.1664H18.5294C17.4754 19.1664 16.6123 20.0295 16.6123 21.0834V44.0835C16.6123 45.137 17.4754 46 18.5294 46H27.4724C28.5264 46 29.3894 45.137 29.3894 44.0835V21.0834C29.3889 20.0295 28.5258 19.1664 27.4718 19.1664ZM25.5553 42.1665H20.4453V22.9999H25.5553V42.1665Z" fill="#EC2227"/>
<path d="M27.4718 -0.00012207H18.5294C17.4754 -0.00012207 16.6123 0.862382 16.6123 1.91636V13.4164C16.6123 14.4704 17.4754 15.3335 18.5294 15.3335H27.4724C28.5264 15.3335 29.3894 14.4704 29.3894 13.4164V1.91636C29.3889 0.862382 28.5258 -0.00012207 27.4718 -0.00012207ZM25.5553 11.4999H20.4453V3.83342H25.5553V11.4999Z" fill="#EC2227"/>
</svg>
