<svg width="46" height="46" viewBox="0 0 46 46" fill="none" xmlns="http://www.w3.org/2000/svg">
<path d="M39.1 0H6.9L0 18.4L23 46L46 18.4L39.1 0ZM35.9105 4.6L39.3605 13.8H32.3012L28.8535 4.6H35.9105ZM22.061 4.6H23.939L27.389 13.8H18.6133L22.061 4.6ZM10.0872 4.6H17.1511L13.7011 13.8H6.63722L10.0872 4.6ZM5.98805 18.4H11.9761L16.8768 31.4657L5.98805 18.4ZM23 34.6978L16.8883 18.4H29.1117L23 34.6978ZM34.0262 18.4H40.0119L29.1272 31.4611L34.0262 18.4Z" fill="#EC2227"/>
</svg>
