<svg width="16" height="15" viewBox="0 0 16 15" fill="none" xmlns="http://www.w3.org/2000/svg">
<path d="M11.5766 4.3329C11.7278 4.3134 11.8803 4.30361 12.0334 4.30361C14.22 4.30361 15.999 6.29574 15.999 8.74443C15.999 11.1014 14.3507 13.0352 12.2773 13.1767C12.4198 12.5492 12.7672 11.4176 12.4696 10.3532C11.9784 8.59662 10.7179 7.70248 8.9402 7.29435C7.18066 6.89038 5.72261 7.17114 4.46961 8.47082C3.16884 9.82006 3.21471 12.1571 3.52844 13.1767C1.45536 13.0347 -0.000976562 11.1012 -0.000976562 8.74443C-0.000976562 6.32954 1.72907 4.35865 3.87426 4.30478C4.30667 2.35152 5.87847 0.941406 7.72252 0.941406C8.72479 0.941406 9.68152 1.36121 10.4165 2.12352C10.9941 2.72262 11.3943 3.49018 11.5766 4.3329Z" fill="#EC2227"/>
<path d="M4.98291 11.1156H4.7631C4.48837 11.1156 4.26855 10.889 4.26855 10.6058C4.26855 10.3791 4.4151 10.1714 4.63491 10.1148C4.74479 10.077 4.85467 10.0392 4.9463 9.98256C5.12945 9.88816 5.25768 9.77485 5.36757 9.66153C5.40423 9.62379 5.44084 9.586 5.4775 9.52934C5.60568 9.35941 5.80719 9.24609 6.027 9.24609H6.15524C6.5399 9.24609 6.85128 9.56713 6.85128 9.96369V14.0237C6.85128 14.4392 6.52159 14.7602 6.13693 14.7602C5.73392 14.7602 5.42253 14.4203 5.42253 14.0237V11.55C5.42253 11.3044 5.22103 11.1156 4.98291 11.1156Z" fill="#EC2227"/>
<path d="M9.98457 13.306C9.47167 13.2494 8.97708 12.7583 8.90381 12.2863C8.75727 11.4365 9.32513 10.7189 10.1494 10.6811C10.3509 10.6811 10.5158 10.7189 10.9004 10.87C11.743 11.0399 12.0178 9.94465 11.34 9.52917C10.9554 9.34032 10.5158 9.22705 10.0578 9.22705C8.64739 9.26479 7.45676 10.4545 7.40179 11.9086C7.32852 13.5137 8.46419 14.76 10.0212 14.76C10.3509 14.76 10.8272 14.6845 11.1202 14.5712C11.8896 14.2691 11.7064 13.0605 10.8821 13.1549C10.6623 13.1927 10.3509 13.3438 9.98457 13.306Z" fill="#EC2227"/>
</svg>
