<svg width="16" height="16" viewBox="0 0 16 16" fill="none" xmlns="http://www.w3.org/2000/svg">
<g clip-path="url(#clip0)">
<path d="M6.03783 16H9.9648L10.895 13.6562H5.10352L6.03783 16Z" fill="#EC2227"/>
<path d="M15.5298 13.6562H11.8809L10.9437 15.999C10.9436 15.9994 10.9435 15.9997 10.9434 16H15.5298C15.7887 16 15.9985 15.7901 15.9985 15.5312V14.125C15.9985 13.8661 15.7887 13.6562 15.5298 13.6562Z" fill="#EC2227"/>
<path d="M4.11665 13.6562H0.467773C0.208898 13.6562 -0.000976562 13.8661 -0.000976562 14.125V15.5312C-0.000976562 15.7901 0.208898 16 0.467773 16H5.05421C5.05412 15.9997 5.05396 15.9993 5.05384 15.999L4.11665 13.6562Z" fill="#EC2227"/>
<path d="M15.0615 3.3125C15.0615 3.05362 14.8516 2.84375 14.5928 2.84375H13.6553V9.875C13.6553 10.6504 13.0244 11.2812 12.249 11.2812H3.74902C2.97362 11.2812 2.34277 10.6504 2.34277 9.875V2.84375H1.40527C1.1464 2.84375 0.936523 3.05362 0.936523 3.3125V12.7188H15.0615V3.3125Z" fill="#EC2227"/>
<path d="M12.7178 0.46875C12.7178 0.209875 12.5079 0 12.249 0H3.74902C3.49015 0 3.28027 0.209875 3.28027 0.46875V1.875H12.7178V0.46875Z" fill="#EC2227"/>
<path d="M8.46777 4.6875H9.90527V6.625H8.46777V4.6875Z" fill="#EC2227"/>
<path d="M6.09277 4.6875H7.53027V6.625H6.09277V4.6875Z" fill="#EC2227"/>
<path d="M3.74902 10.3438H12.249C12.5079 10.3438 12.7178 10.1339 12.7178 9.875V2.8125H3.28027V9.875C3.28027 10.1339 3.49015 10.3438 3.74902 10.3438ZM5.15527 4.21875C5.15527 3.95987 5.36515 3.75 5.62402 3.75H10.374C10.6329 3.75 10.8428 3.95987 10.8428 4.21875V7.09375C10.8428 7.35262 10.6329 7.5625 10.374 7.5625H5.62402C5.36515 7.5625 5.15527 7.35262 5.15527 7.09375V4.21875ZM5.62402 8.5H10.374C10.6329 8.5 10.8428 8.70988 10.8428 8.96875C10.8428 9.22762 10.6329 9.4375 10.374 9.4375H5.62402C5.36515 9.4375 5.15527 9.22762 5.15527 8.96875C5.15527 8.70988 5.36515 8.5 5.62402 8.5Z" fill="#EC2227"/>
</g>
<defs>
<clipPath id="clip0">
<rect width="16" height="16" fill="white" transform="translate(-0.000976562)"/>
</clipPath>
</defs>
</svg>
