<svg width="59" height="59" viewBox="0 0 59 59" fill="none" xmlns="http://www.w3.org/2000/svg">
<path d="M57.3073 28.6513C58.4065 26.4383 58.9715 23.9842 58.948 21.4935C58.9092 17.3537 57.2634 13.4517 54.314 10.5064C51.3645 7.56105 47.4601 5.921 43.3201 5.88787C43.2769 5.88753 43.2341 5.88741 43.191 5.88741C40.0533 5.88741 37.0595 6.7963 34.5051 8.49282C33.9423 6.56335 32.886 4.80356 31.3998 3.36333C29.114 1.14858 26.1032 -0.0290242 22.9139 0.055526C19.8809 0.133404 17.0261 1.37382 14.8753 3.54831C12.725 5.72245 11.5155 8.5906 11.4698 11.6244C11.4496 12.9624 11.6532 14.2752 12.0673 15.5193C7.66243 16.0743 4.2443 19.844 4.2443 24.397C4.2443 25.2841 4.37843 26.1699 4.63749 27.0169C1.74438 29.1339 0 32.5138 0 36.1595C0 43.4927 5.96602 49.4586 13.2992 49.4586H16.8477C17.5997 54.8143 22.2113 58.949 27.771 58.949H31.2288C36.7886 58.949 41.4001 54.8143 42.1521 49.4586H46.0544C53.1926 49.4586 58.9999 43.6513 58.9999 36.5131V35.3554C59 33.0004 58.4175 30.7032 57.3073 28.6513ZM38.8093 47.9176C38.8093 52.0975 35.4087 55.498 31.2289 55.498H27.7711C23.5912 55.498 20.1906 52.0975 20.1906 47.9176V36.8793H38.8093V47.9176ZM33.9776 33.4283H25.0222V31.3778C25.0222 28.9089 27.031 26.9001 29.4999 26.9001C31.9689 26.9001 33.9776 28.9089 33.9776 31.3778V33.4283ZM55.549 36.5132C55.549 41.7485 51.2898 46.0077 46.0545 46.0077H42.2604V35.1539C42.2604 34.201 41.4879 33.4284 40.5349 33.4284H37.4287V31.378C37.4287 27.0061 33.8718 23.4492 29.4999 23.4492C25.1281 23.4492 21.5712 27.0061 21.5712 31.378V33.4284H18.4651C17.5121 33.4284 16.7395 34.201 16.7395 35.1539V46.0077H13.2992C7.86891 46.0077 3.45103 41.5898 3.45103 36.1593C3.45103 33.2601 5.03792 30.6023 7.59237 29.2231C8.41993 28.7762 8.73719 27.749 8.3057 26.9132C7.90066 26.1287 7.69533 25.2821 7.69533 24.397C7.69533 21.366 10.1613 18.9001 13.1922 18.9001C13.6249 18.9001 14.058 18.9514 14.4797 19.0525C15.1706 19.218 15.8923 18.9437 16.2983 18.3606C16.7042 17.7776 16.7114 17.0054 16.3162 16.4149C15.3775 15.0122 14.8949 13.3736 14.9203 11.6763C14.9525 9.53756 15.8079 7.51296 17.3289 5.97507C18.85 4.43729 20.8647 3.56016 23.0023 3.50529C25.2536 3.4465 27.3835 4.27728 28.998 5.84174C30.6136 7.40724 31.5104 9.50765 31.5233 11.756C31.5273 12.4529 31.9501 13.0789 32.5948 13.3429C33.2396 13.6071 33.9799 13.4572 34.4716 12.9634C36.8008 10.6234 39.894 9.33844 43.1914 9.33844C43.225 9.33844 43.2588 9.33855 43.2924 9.3389C49.9596 9.39193 55.4345 14.8589 55.497 21.5257C55.5178 23.7414 54.9435 25.9185 53.8363 27.8216C53.511 28.3807 53.5259 29.075 53.8748 29.6198C54.97 31.3301 55.5489 33.3133 55.5489 35.3551V36.5132H55.549Z" fill="#EC2227"/>
</svg>
