<svg width="16" height="16" viewBox="0 0 16 16" fill="none" xmlns="http://www.w3.org/2000/svg">
<path d="M12.5626 12.25H13.5001V13.1875H12.5626V12.25Z" fill="#EC2227"/>
<path d="M9.48645 5.84961L10.1493 5.1868L10.8121 5.84961L10.1493 6.51242L9.48645 5.84961Z" fill="#EC2227"/>
<path d="M2.81262 6.25H3.75012V7.1875H2.81262V6.25Z" fill="#EC2227"/>
<path d="M2.81262 2.5H3.75012V3.4375H2.81262V2.5Z" fill="#EC2227"/>
<path d="M9.75062 12.2178L8.77893 13.1878H9.75062V12.2178Z" fill="#EC2227"/>
<path d="M15.5319 9.4375H12.5305L10.6881 11.2768V13.6562C10.6881 13.9151 10.4782 14.125 10.2194 14.125H7.83802L5.96643 16H15.5319C15.7907 16 16.0006 15.7901 16.0006 15.5312V9.90625C16.0006 9.64737 15.7907 9.4375 15.5319 9.4375ZM14.4381 13.6562C14.4381 13.9151 14.2282 14.125 13.9694 14.125H12.0944C11.8355 14.125 11.6256 13.9151 11.6256 13.6562V11.7812C11.6256 11.5224 11.8355 11.3125 12.0944 11.3125H13.9694C14.2282 11.3125 14.4381 11.5224 14.4381 11.7812V13.6562Z" fill="#EC2227"/>
<path d="M7.50012 7.83789V9.16304L8.16272 8.50048L7.50012 7.83789Z" fill="#EC2227"/>
<path d="M14.4023 6.04654C14.4023 5.9222 14.353 5.80298 14.265 5.7151L10.2859 1.73598C10.198 1.64804 10.0787 1.59863 9.95441 1.59863C9.83009 1.59863 9.71087 1.64804 9.623 1.73598L7.50072 3.85863L7.49609 6.50754L9.15769 8.16916C9.24559 8.2571 9.29497 8.37632 9.29497 8.5006C9.29497 8.62494 9.24559 8.74416 9.15769 8.83204L7.50094 10.4888L7.50072 13.141L14.265 6.37801C14.3529 6.2901 14.4023 6.17088 14.4023 6.04654ZM11.8093 6.18038L10.4835 7.50626C10.3956 7.59416 10.2764 7.6436 10.1521 7.6436C10.0277 7.6436 9.9085 7.5942 9.82059 7.50626L8.49475 6.18038C8.40681 6.09245 8.35744 5.97323 8.35744 5.84891C8.35744 5.72457 8.40681 5.60535 8.49475 5.51748L9.82059 4.19166C10.0037 4.0086 10.3005 4.0086 10.4835 4.19166L11.8093 5.51748C11.9924 5.70051 11.9924 5.99729 11.8093 6.18038Z" fill="#EC2227"/>
<path d="M6.56262 0.46875C6.56262 0.209875 6.35272 0 6.09387 0H0.468872C0.209997 0 0.00012207 0.209875 0.00012207 0.46875V12.7188C0.00012207 14.528 1.47209 16 3.28137 16C5.09065 16 6.56262 14.528 6.56262 12.7188V0.46875ZM3.28137 13.1875C3.0225 13.1875 2.81262 12.9776 2.81262 12.7188C2.81262 12.4599 3.0225 12.25 3.28137 12.25C3.54022 12.25 3.75012 12.4599 3.75012 12.7188C3.75012 12.9776 3.54022 13.1875 3.28137 13.1875ZM4.68762 7.65625C4.68762 7.91512 4.47772 8.125 4.21887 8.125H2.34387C2.085 8.125 1.87512 7.91512 1.87512 7.65625V5.78125C1.87512 5.52238 2.085 5.3125 2.34387 5.3125H4.21887C4.47772 5.3125 4.68762 5.52238 4.68762 5.78125V7.65625ZM4.68762 3.90625C4.68762 4.16512 4.47772 4.375 4.21887 4.375H2.34387C2.085 4.375 1.87512 4.16512 1.87512 3.90625V2.03125C1.87512 1.77237 2.085 1.5625 2.34387 1.5625H4.21887C4.47772 1.5625 4.68762 1.77237 4.68762 2.03125V3.90625Z" fill="#EC2227"/>
</svg>
