<svg width="50" height="50" viewBox="0 0 50 50" fill="none" xmlns="http://www.w3.org/2000/svg">
<path d="M27.6002 15.8613C27.5136 15.5407 27.3019 15.2673 27.0118 15.1014L25.1741 14.0501C25.1967 13.8079 25.2078 13.5745 25.2078 13.3469C25.2078 13.1193 25.1967 12.8858 25.1741 12.6436L27.0116 11.5924C27.3017 11.4265 27.5133 11.1532 27.6001 10.8325C27.6868 10.5119 27.6414 10.1703 27.4739 9.88291L24.9479 5.54757C24.5991 4.94902 23.8268 4.74394 23.2226 5.08952L21.3591 6.15562C20.976 5.89314 20.574 5.66229 20.1558 5.4643V3.25149C20.1558 2.56034 19.5903 2 18.8928 2H13.8408C13.1433 2 12.5779 2.56034 12.5779 3.25149V5.46413C12.1558 5.66395 11.7504 5.89723 11.364 6.16263L9.41188 5.08093C8.80902 4.74686 8.0471 4.95478 7.70171 5.54748L5.17574 9.88282C5.00827 10.1702 4.96289 10.5119 5.04953 10.8325C5.13617 11.153 5.34784 11.4264 5.63799 11.5924L7.47547 12.6436C7.45291 12.8858 7.44179 13.1193 7.44179 13.3469C7.44179 13.5745 7.45291 13.8079 7.47547 14.0501L5.63799 15.1014C5.34784 15.2673 5.13625 15.5407 5.04953 15.8613C4.9628 16.1819 5.00819 16.5235 5.17574 16.8109L7.70171 21.1463C8.04702 21.739 8.80902 21.9468 9.41188 21.6128L11.3642 20.5311C11.7506 20.7966 12.1559 21.0298 12.578 21.2296V23.3588C12.578 24.05 13.1435 24.6103 13.841 24.6103H18.893C19.5905 24.6103 20.1559 24.05 20.1559 23.3588V21.2296C20.5742 21.0316 20.976 20.8008 21.3593 20.5383L23.2228 21.6043C23.8268 21.9499 24.5993 21.7447 24.9481 21.1463L27.474 16.8109C27.6415 16.5235 27.6869 16.1818 27.6002 15.8613ZM22.564 12.2082C22.6444 12.6408 22.6819 13.0026 22.6819 13.3469C22.6819 13.6911 22.6444 14.053 22.564 14.4856C22.467 15.0065 22.7116 15.5315 23.1745 15.7963L24.655 16.6432L23.392 18.8109L21.892 17.9528C21.4288 17.6878 20.8476 17.7406 20.4407 18.0845C19.8514 18.5827 19.1883 18.9637 18.4699 19.2168C17.9663 19.3942 17.63 19.8664 17.63 20.3959V22.1073H15.104V20.396C15.104 19.8665 14.7676 19.3943 14.2641 19.2169C13.5456 18.9638 12.8826 18.5829 12.2933 18.0846C11.8912 17.7448 11.3182 17.6889 10.8571 17.9444L9.26639 18.8257L7.99473 16.6433L9.4752 15.7964C9.93821 15.5315 10.1826 15.0064 10.0857 14.4856C10.0052 14.053 9.96777 13.6911 9.96777 13.3469C9.96777 13.0026 10.0052 12.6408 10.0857 12.2082C10.1826 11.6872 9.93813 11.1623 9.4752 10.8974L7.99473 10.0504L9.26639 7.868L10.8571 8.74939C11.3183 9.00494 11.8914 8.94896 12.2933 8.60914C12.8827 8.11087 13.5457 7.72992 14.264 7.47687C14.7675 7.29949 15.104 6.82726 15.104 6.29763V4.50299H17.63V6.29771C17.63 6.82726 17.9663 7.29949 18.4699 7.47695C19.1883 7.73 19.8514 8.11096 20.4407 8.60922C20.8476 8.95313 21.4288 9.00586 21.892 8.74096L23.392 7.88285L24.655 10.0505L23.1745 10.8974C22.7115 11.1623 22.467 11.6873 22.564 12.2082Z" fill="#EC2227"/>
<path d="M16.3668 9.59229C14.2776 9.59229 12.5779 11.2765 12.5779 13.3468C12.5779 15.417 14.2776 17.1012 16.3668 17.1012C18.4561 17.1012 20.1558 15.417 20.1558 13.3468C20.1558 11.2765 18.4561 9.59229 16.3668 9.59229ZM16.3668 14.5983C15.6704 14.5983 15.1039 14.0368 15.1039 13.3468C15.1039 12.6567 15.6704 12.0953 16.3668 12.0953C17.0632 12.0953 17.6298 12.6567 17.6298 13.3468C17.6298 14.0368 17.0632 14.5983 16.3668 14.5983Z" fill="#EC2227"/>
<path d="M45.8734 38.288C45.7868 37.9675 45.5751 37.6941 45.285 37.5281L43.4473 36.4769C43.4699 36.2347 43.481 36.0012 43.481 35.7736C43.481 35.546 43.4699 35.3126 43.4473 35.0704L45.2848 34.0192C45.5749 33.8533 45.7865 33.5799 45.8733 33.2593C45.96 32.9387 45.9146 32.5971 45.747 32.3097L43.2211 27.9743C42.8723 27.3758 42.1 27.1707 41.4958 27.5163L39.6323 28.5824C39.2491 28.3199 38.8472 28.089 38.429 27.8911V25.6783C38.429 24.9871 37.8635 24.4268 37.166 24.4268H32.114C31.4165 24.4268 30.851 24.9871 30.851 25.6783V27.8909C30.429 28.0907 30.0236 28.324 29.6372 28.5894L27.6851 27.5077C27.0822 27.1736 26.3203 27.3815 25.9749 27.9742L23.4489 32.3096C23.2815 32.597 23.2361 32.9387 23.3227 33.2592C23.4094 33.5798 23.621 33.8532 23.9112 34.0191L25.7487 35.0704C25.7261 35.3126 25.715 35.546 25.715 35.7736C25.715 36.0012 25.7261 36.2347 25.7487 36.4769L23.9112 37.5281C23.621 37.6941 23.4094 37.9674 23.3227 38.288C23.236 38.6087 23.2814 38.9503 23.4489 39.2377L25.9749 43.573C26.3202 44.1658 27.0822 44.3736 27.6851 44.0396L29.6374 42.9579C30.0238 43.2234 30.4291 43.4565 30.8512 43.6564V45.7856C30.8512 46.4767 31.4167 47.0371 32.1142 47.0371H37.1661C37.8637 47.0371 38.4291 46.4767 38.4291 45.7856V43.6564C38.8474 43.4584 39.2492 43.2275 39.6325 42.965L41.496 44.0311C42.1 44.3766 42.8725 44.1715 43.2212 43.573L45.7472 39.2377C45.9147 38.9503 45.9601 38.6086 45.8734 38.288ZM40.8371 34.6349C40.9176 35.0675 40.9551 35.4294 40.9551 35.7736C40.9551 36.1179 40.9176 36.4797 40.8371 36.9123C40.7402 37.4333 40.9847 37.9582 41.4477 38.2231L42.9281 39.07L41.6652 41.2376L40.1651 40.3795C39.702 40.1146 39.1207 40.1674 38.7139 40.5113C38.1246 41.0095 37.4615 41.3904 36.743 41.6435C36.2395 41.8209 35.9032 42.2932 35.9032 42.8227V44.5341H33.3772V42.8228C33.3772 42.2932 33.0408 41.821 32.5373 41.6436C31.8188 41.3906 31.1558 41.0096 30.5665 40.5114C30.1644 40.1715 29.5914 40.1156 29.1303 40.3711L27.5396 41.2524L26.2679 39.0701L27.7484 38.2231C28.2114 37.9582 28.4558 37.4332 28.3589 36.9123C28.2784 36.4797 28.241 36.1179 28.241 35.7736C28.241 35.4294 28.2784 35.0675 28.3589 34.6349C28.4558 34.114 28.2113 33.589 27.7484 33.3242L26.2679 32.4772L27.5396 30.2948L29.1303 31.1761C29.5915 31.4317 30.1646 31.3757 30.5665 31.0359C31.1558 30.5376 31.8189 30.1567 32.5372 29.9036C33.0407 29.7262 33.3772 29.254 33.3772 28.7244V26.9297H35.9032V28.7245C35.9032 29.254 36.2395 29.7262 36.7431 29.9037C37.4615 30.1568 38.1246 30.5377 38.7139 31.036C39.1207 31.3799 39.702 31.4326 40.1651 31.1677L41.6652 30.3096L42.9281 32.4773L41.4477 33.3242C40.9847 33.5891 40.7402 34.1141 40.8371 34.6349Z" fill="#EC2227"/>
<path d="M34.64 32.019C32.5508 32.019 30.8511 33.7033 30.8511 35.7735C30.8511 37.8437 32.5508 39.528 34.64 39.528C36.7293 39.528 38.429 37.8437 38.429 35.7735C38.429 33.7033 36.7293 32.019 34.64 32.019ZM34.64 37.025C33.9436 37.025 33.377 36.4636 33.377 35.7735C33.377 35.0834 33.9436 34.522 34.64 34.522C35.3364 34.522 35.903 35.0834 35.903 35.7735C35.903 36.4636 35.3364 37.025 34.64 37.025Z" fill="#EC2227"/>
<path d="M45.3753 15.3077C45.1649 14.8741 44.7225 14.5984 44.2369 14.5984H42.9037C42.2686 8.97458 37.4068 4.58643 31.5227 4.58643H28.9968C28.2992 4.58643 27.7338 5.14676 27.7338 5.83792C27.7338 6.52908 28.2992 7.08941 28.9968 7.08941C33.7417 7.08941 35.1233 10.9237 35.3573 14.5984H34.1329C33.6474 14.5984 33.2049 14.8741 32.9946 15.3077C32.7843 15.7413 32.8435 16.256 33.1468 16.6316L38.1987 22.8891C38.4384 23.186 38.8012 23.3588 39.1849 23.3588C39.5686 23.3588 39.9314 23.186 40.1712 22.8891L45.2231 16.6316C45.5264 16.256 45.5856 15.7413 45.3753 15.3077ZM39.1848 20.1039L36.7576 17.0976C37.409 17.0476 37.9219 16.5082 37.9219 15.8499C37.9219 12.7761 37.3288 10.2608 36.1581 8.36602C38.7286 9.90552 40.4478 12.6843 40.4478 15.8499C40.4478 16.5081 40.9607 17.0476 41.6121 17.0976L39.1848 20.1039Z" fill="#EC2227"/>
<path d="M21.4188 42.2147C19.2305 42.2147 17.6534 41.4288 16.5976 39.812C15.7749 38.5525 15.2788 36.7746 15.1424 34.6223H16.3669C16.8524 34.6223 17.2949 34.3465 17.5052 33.9129C17.7156 33.4793 17.6564 32.9646 17.3531 32.5889L12.3011 26.3315C12.0614 26.0346 11.6986 25.8618 11.3149 25.8618C10.9312 25.8618 10.5684 26.0346 10.3287 26.3315L5.27675 32.589C4.97346 32.9646 4.91436 33.4793 5.12469 33.9129C5.33493 34.3465 5.77748 34.6223 6.26297 34.6223H7.59458C8.22043 40.2925 13.0486 44.7177 18.8928 44.7177H21.4188C22.1163 44.7177 22.6818 44.1573 22.6818 43.4662C22.6818 42.775 22.1163 42.2147 21.4188 42.2147ZM10.0519 33.3708C10.0519 32.7126 9.53908 32.173 8.88771 32.123L11.3149 29.1167L13.7421 32.1231C13.0908 32.173 12.5779 32.7126 12.5779 33.3708C12.5779 36.5084 13.1878 39.0636 14.3399 40.9494C11.7725 39.4001 10.0519 36.5826 10.0519 33.3708Z" fill="#EC2227"/>
</svg>
