<svg width="50" height="50" viewBox="0 0 50 50" fill="none" xmlns="http://www.w3.org/2000/svg">
<path d="M41.4066 7.13966H44.7777V41.8354H41.4066V7.13966ZM32.7027 8.39543L32.0975 8.58344C31.3399 8.8229 30.4494 8.48943 30.143 7.85477C29.9962 7.54749 29.9891 7.20794 30.1238 6.89739C30.2801 6.5382 30.6121 6.25711 31.0335 6.12569L36.7294 4.35144C37.3198 4.16754 37.9339 4.55817 38.0176 5.17085L38.6883 10.0805C38.7351 10.3902 38.6481 10.7063 38.4428 10.9682C38.1916 11.29 37.788 11.4986 37.3353 11.5416C37.281 11.5472 37.2202 11.5501 37.1618 11.5501C36.3896 11.5501 35.7339 11.058 35.6366 10.407L35.5314 9.48703C27.6446 20.4073 9.48339 32.1115 8.69531 32.6156C8.42779 32.7868 8.10788 32.878 7.76927 32.878C7.3128 32.878 6.88345 32.7097 6.59208 32.4145C6.32408 32.1447 6.19874 31.8004 6.23756 31.4469C6.27825 31.0797 6.49854 30.742 6.84276 30.5232C7.0275 30.4044 25.0156 18.776 32.7027 8.39543ZM36.8736 14.8459V41.8344H33.5034V14.8459H36.8736ZM29.2309 22.8655V41.8354H25.8594V22.8655H29.2309ZM21.3371 31.1966V41.834H17.9557V31.1966H21.3371ZM13 35.3638V41.834L9.59984 41.8344V35.3643L13 35.3638ZM47.1373 45.9998H2.86218V42.7567H47.1378L47.1373 45.9998Z" fill="#EC2227"/>
</svg>
