<svg width="50" height="50" viewBox="0 0 50 50" fill="none" xmlns="http://www.w3.org/2000/svg">
<path d="M30.3906 13.5449C31.1349 13.5449 31.7383 12.9415 31.7383 12.1973C31.7383 11.4542 32.3428 10.8496 33.0859 10.8496C33.829 10.8496 34.4336 11.4542 34.4336 12.1973C34.4336 12.677 34.175 13.1247 33.7588 13.3654C32.5125 14.0864 31.7383 15.428 31.7383 16.8667C31.7383 17.611 32.3417 18.2144 33.0859 18.2144C33.8302 18.2144 34.4336 17.611 34.4336 16.8667C34.4336 16.3869 34.6922 15.9393 35.1084 15.6986C36.3547 14.9776 37.1289 13.636 37.1289 12.1973C37.1289 9.96797 35.3152 8.1543 33.0859 8.1543C30.8566 8.1543 29.043 9.96797 29.043 12.1973C29.043 12.9415 29.6464 13.5449 30.3906 13.5449Z" fill="#EC2227"/>
<path d="M33.0859 22.9785C33.8302 22.9785 34.4336 22.3751 34.4336 21.6309C34.4336 20.8866 33.8302 20.2832 33.0859 20.2832C32.3416 20.2832 31.7383 20.8866 31.7383 21.6309C31.7383 22.3751 32.3416 22.9785 33.0859 22.9785Z" fill="#EC2227"/>
<path d="M46.6523 2.76367H19.6094C18.8651 2.76367 18.2617 3.36706 18.2617 4.11133V20.2832H3.34766C2.60339 20.2832 2 20.8866 2 21.6309V45.8887C2 46.6329 2.60339 47.2363 3.34766 47.2363C4.09192 47.2363 4.69531 46.6329 4.69531 45.8887C4.69531 45.1456 5.29987 44.541 6.04297 44.541H30.3906C31.1349 44.541 31.7383 43.9376 31.7383 43.1934V28.3691H43.957C44.7001 28.3691 45.3047 28.9737 45.3047 29.7168C45.3047 30.4611 45.9081 31.0645 46.6523 31.0645C47.3966 31.0645 48 30.4611 48 29.7168V4.11133C48 3.36706 47.3966 2.76367 46.6523 2.76367ZM29.043 41.8457H6.04297C5.57066 41.8457 5.11695 41.9271 4.69531 42.0766V22.9785H18.2617V25.6738H8.73828C7.99402 25.6738 7.39062 26.2772 7.39062 27.0215C7.39062 27.7658 7.99402 28.3691 8.73828 28.3691H29.043V41.8457ZM45.3047 25.9047C44.883 25.7552 44.4293 25.6738 43.957 25.6738H20.957V5.45898H45.3047V25.9047Z" fill="#EC2227"/>
<path d="M25 36.4551H8.73828C7.99402 36.4551 7.39062 37.0585 7.39062 37.8027C7.39062 38.547 7.99402 39.1504 8.73828 39.1504H25C25.7443 39.1504 26.3477 38.547 26.3477 37.8027C26.3477 37.0585 25.7443 36.4551 25 36.4551Z" fill="#EC2227"/>
<path d="M7.39062 32.4121C7.39062 33.1564 7.99402 33.7598 8.73828 33.7598H25C25.7443 33.7598 26.3477 33.1564 26.3477 32.4121C26.3477 31.6678 25.7443 31.0645 25 31.0645H8.73828C7.99402 31.0645 7.39062 31.6678 7.39062 32.4121Z" fill="#EC2227"/>
</svg>
