<svg width="46" height="46" viewBox="0 0 46 46" fill="none" xmlns="http://www.w3.org/2000/svg">
<path d="M42.1665 11.5V9.58352C42.1665 4.29065 37.8764 0 32.5835 0C27.2901 0 23 4.29065 23 9.58352V11.5C22.4106 11.5 21.8586 11.646 21.3589 11.8853C19.6351 9.33972 16.7227 7.66647 13.4165 7.66647C8.1236 7.66647 3.83352 11.9571 3.83352 17.25V19.1665C1.72557 19.1665 0 20.8915 0 23V42.167C0 44.2738 1.72557 46 3.83352 46H23C25.1074 46 26.8335 44.2738 26.8335 42.167V38.333H42.1665C44.2744 38.333 46 36.6079 46 34.5V15.3335C46 13.225 44.2744 11.5 42.1665 11.5ZM26.8335 9.58352C26.8335 6.40837 29.4072 3.83352 32.5835 3.83352C35.7593 3.83352 38.3335 6.40837 38.3335 9.58352V11.5H26.8335V9.58352ZM7.66647 17.25C7.66647 14.0749 10.2408 11.5 13.4165 11.5C16.5928 11.5 19.1665 14.0749 19.1665 17.25V19.1665H7.66647V17.25ZM23 42.167H3.83352V23H23V42.167ZM42.1665 34.5H26.8335V23C26.8335 20.8915 25.1074 19.1665 23 19.1665V15.3329H42.1665V34.5Z" fill="#EC2227"/>
<path d="M16.4841 25.2998H14.1841V36.0334H16.4841V25.2998Z" fill="#EC2227"/>
<path d="M34.2553 25.0559C34.8795 24.4317 35.2659 23.5692 35.2659 22.617C35.2659 20.7121 33.7208 19.167 31.8159 19.167H28.3659V21.467H31.8159C32.4507 21.467 32.9659 21.9822 32.9659 22.617C32.9659 22.9344 32.8371 23.2219 32.6292 23.4298L28.3659 27.6002V29.9002H35.2659V27.6002H31.6452L34.2553 25.0559Z" fill="#EC2227"/>
</svg>
