<svg width="46" height="46" viewBox="0 0 46 46" fill="none" xmlns="http://www.w3.org/2000/svg">
<path d="M31 27H19V31H31V27Z" fill="#EC2227"/>
<path d="M42.1665 7.66647H38.3335V3.83295C38.3335 1.725 36.6074 0 34.5 0H3.83352C1.72557 0 0 1.725 0 3.83352V34.5C0 36.6079 1.72557 38.333 3.83352 38.333H7.66647V42.167C7.66647 44.2738 9.39262 46 11.5 46H42.1665C44.2744 46 46 44.2738 46 42.167V11.5C46 9.39147 44.2744 7.66647 42.1665 7.66647ZM34.5 3.83352V7.66705H3.83352V3.83352H34.5ZM3.83352 34.5V11.5H34.5V34.5H3.83352ZM42.1665 42.167H11.5V38.333H34.5C36.6074 38.333 38.3335 36.6079 38.3335 34.5V19.1665H42.1665V42.167ZM42.1665 15.3335H38.3335V11.5H42.1665V15.3335Z" fill="#EC2227"/>
<path d="M17.4679 21.5854L10.5714 14L8 16.8281L13.6114 22.9997L8 29.1719L10.5714 32L17.4679 24.414C18.1765 23.6334 18.1782 22.3678 17.4679 21.5854Z" fill="#EC2227"/>
</svg>
