<svg width="46" height="46" viewBox="0 0 46 46" fill="none" xmlns="http://www.w3.org/2000/svg">
<path d="M14.4248 22.1134C16.4263 21.9966 18.3151 21.1489 19.7328 19.7312C21.1505 18.3136 21.9982 16.4247 22.115 14.4232" stroke="#EC2227" stroke-width="2.5" stroke-linecap="round" stroke-linejoin="round"/>
<path d="M22.115 31.5768C21.9982 29.5753 21.1505 27.6864 19.7328 26.2688C18.3151 24.8511 16.4263 24.0034 14.4248 23.8866" stroke="#EC2227" stroke-width="2.5" stroke-linecap="round" stroke-linejoin="round"/>
<path d="M28.6156 16.4666C27.4771 17.1665 26.5277 18.1349 25.8503 19.287C25.173 20.439 24.7884 21.7396 24.7304 23.0748C24.6723 24.4099 24.9425 25.739 25.5172 26.9455C26.092 28.152 26.9538 29.1992 28.0272 29.9953" stroke="#EC2227" stroke-width="2.5" stroke-linecap="round" stroke-linejoin="round"/>
<path d="M23 31.625C27.7635 31.625 31.625 27.7635 31.625 23C31.625 18.2365 27.7635 14.375 23 14.375C18.2365 14.375 14.375 18.2365 14.375 23C14.375 27.7635 18.2365 31.625 23 31.625Z" stroke="#EC2227" stroke-width="2.5" stroke-linecap="round" stroke-linejoin="round"/>
<path d="M23 7.1875C24.5878 7.1875 25.875 5.90032 25.875 4.3125C25.875 2.72468 24.5878 1.4375 23 1.4375C21.4122 1.4375 20.125 2.72468 20.125 4.3125C20.125 5.90032 21.4122 7.1875 23 7.1875Z" stroke="#EC2227" stroke-width="2.5" stroke-miterlimit="10" stroke-linecap="round"/>
<path d="M6.81641 16.5312C8.40422 16.5312 9.69141 15.2441 9.69141 13.6562C9.69141 12.0684 8.40422 10.7812 6.81641 10.7812C5.22859 10.7812 3.94141 12.0684 3.94141 13.6562C3.94141 15.2441 5.22859 16.5312 6.81641 16.5312Z" stroke="#EC2227" stroke-width="2.5" stroke-miterlimit="10" stroke-linecap="round"/>
<path d="M6.81641 35.2188C8.40422 35.2188 9.69141 33.9316 9.69141 32.3438C9.69141 30.7559 8.40422 29.4688 6.81641 29.4688C5.22859 29.4688 3.94141 30.7559 3.94141 32.3438C3.94141 33.9316 5.22859 35.2188 6.81641 35.2188Z" stroke="#EC2227" stroke-width="2.5" stroke-miterlimit="10" stroke-linecap="round"/>
<path d="M23 44.5625C24.5878 44.5625 25.875 43.2753 25.875 41.6875C25.875 40.0997 24.5878 38.8125 23 38.8125C21.4122 38.8125 20.125 40.0997 20.125 41.6875C20.125 43.2753 21.4122 44.5625 23 44.5625Z" stroke="#EC2227" stroke-width="2.5" stroke-miterlimit="10" stroke-linecap="round"/>
<path d="M39.1836 35.2188C40.7714 35.2188 42.0586 33.9316 42.0586 32.3438C42.0586 30.7559 40.7714 29.4688 39.1836 29.4688C37.5958 29.4688 36.3086 30.7559 36.3086 32.3438C36.3086 33.9316 37.5958 35.2188 39.1836 35.2188Z" stroke="#EC2227" stroke-width="2.5" stroke-miterlimit="10" stroke-linecap="round"/>
<path d="M39.1836 16.5312C40.7714 16.5312 42.0586 15.2441 42.0586 13.6562C42.0586 12.0684 40.7714 10.7812 39.1836 10.7812C37.5958 10.7812 36.3086 12.0684 36.3086 13.6562C36.3086 15.2441 37.5958 16.5312 39.1836 16.5312Z" stroke="#EC2227" stroke-width="2.5" stroke-miterlimit="10" stroke-linecap="round"/>
<path d="M36.7013 12.2188L25.4888 5.75" stroke="#EC2227" stroke-width="2.5" stroke-miterlimit="10" stroke-linecap="round"/>
<path d="M6.81641 29.4688V16.5312" stroke="#EC2227" stroke-width="2.5" stroke-miterlimit="10" stroke-linecap="round"/>
<path d="M36.7013 33.7812L25.4888 40.25" stroke="#EC2227" stroke-width="2.5" stroke-miterlimit="10" stroke-linecap="round"/>
<path d="M39.1875 29.4688V16.5312" stroke="#EC2227" stroke-width="2.5" stroke-miterlimit="10" stroke-linecap="round"/>
<path d="M20.5133 40.25L9.30078 33.7812" stroke="#EC2227" stroke-width="2.5" stroke-miterlimit="10" stroke-linecap="round"/>
<path d="M20.5133 5.75L9.30078 12.2188" stroke="#EC2227" stroke-width="2.5" stroke-miterlimit="10" stroke-linecap="round"/>
</svg>
