<svg width="46" height="46" viewBox="0 0 46 46" fill="none" xmlns="http://www.w3.org/2000/svg">
<path d="M44.0835 0H28.75C27.696 0 26.8335 0.863075 26.8335 1.91648V13.4165C26.8335 14.4704 27.696 15.3335 28.75 15.3335H34.5V28.75H19.1665V24.9165C19.1665 23.8631 18.304 23 17.25 23H11.5V15.3335H17.25C18.304 15.3335 19.1665 14.4704 19.1665 13.4165V1.91648C19.1665 0.863075 18.304 0 17.25 0H1.91648C0.863075 0 0 0.863075 0 1.91648V13.4165C0 14.4704 0.863075 15.3335 1.91648 15.3335H7.66647V23H1.91648C0.863075 23 0 23.8631 0 24.9165V36.4165C0 37.4704 0.863075 38.3335 1.91648 38.3335H17.25C18.304 38.3335 19.1665 37.4704 19.1665 36.4165V32.5835H34.5V46H38.3335V15.3335H44.0835C45.1369 15.3335 46 14.4704 46 13.4165V1.91648C46 0.863075 45.1369 0 44.0835 0ZM3.83352 11.5V3.83352H15.3335V11.5H3.83352ZM15.3335 34.5H3.83352V26.8335H15.3335V34.5ZM42.1665 11.5H30.6665V3.83352H42.1665V11.5Z" fill="#EC2227"/>
</svg>
