<svg width="33" height="23" viewBox="0 0 33 23" fill="none" xmlns="http://www.w3.org/2000/svg">
<path d="M16.3796 22.852L21.655 13.6879L23.8418 19.8943H22.072V22.6241H32.6034V19.8943H30.5912L23.032 0L16.3796 12.2479L9.73201 0L2.16801 19.8943H0.160645V22.6241H10.6872V19.8943H8.92228L11.109 13.6879L16.3796 22.852Z" fill="#FF0000"/>
</svg>
