<svg width="99" height="99" viewBox="0 0 99 99" fill="none" xmlns="http://www.w3.org/2000/svg">
<g clip-path="url(#clip0)">
<path d="M7.51616 28.8511H22.8105C23.6114 28.8511 24.2607 28.202 24.2607 27.4009C24.2607 26.5998 23.6114 25.9507 22.8105 25.9507H7.51616C6.71526 25.9507 6.06596 26.5998 6.06596 27.4009C6.06596 28.202 6.71507 28.8511 7.51616 28.8511Z" fill="#EC2227"/>
<path d="M22.2864 35.8328H16.2447C15.4438 35.8328 14.7945 36.4819 14.7945 37.283C14.7945 38.084 15.4438 38.7332 16.2447 38.7332H22.2864C23.0873 38.7332 23.7366 38.084 23.7366 37.283C23.7366 36.4819 23.0873 35.8328 22.2864 35.8328Z" fill="#EC2227"/>
<path d="M1.4502 45.8894H16.2445C17.0454 45.8894 17.6947 45.2403 17.6947 44.4392C17.6947 43.6381 17.0454 42.989 16.2445 42.989H1.4502C0.649301 42.989 0 43.6381 0 44.4392C0 45.2403 0.649301 45.8894 1.4502 45.8894Z" fill="#EC2227"/>
<path d="M24.2607 71.5988C24.2607 70.7977 23.6114 70.1486 22.8105 70.1486H7.51616C6.71526 70.1486 6.06596 70.7977 6.06596 71.5988C6.06596 72.3998 6.71526 73.049 7.51616 73.049H22.8105C23.6114 73.049 24.2607 72.3998 24.2607 71.5988Z" fill="#EC2227"/>
<path d="M22.2864 60.2668H16.2447C15.4438 60.2668 14.7945 60.9159 14.7945 61.717C14.7945 62.5181 15.4438 63.1672 16.2447 63.1672H22.2864C23.0873 63.1672 23.7366 62.5181 23.7366 61.717C23.7366 60.9159 23.0873 60.2668 22.2864 60.2668Z" fill="#EC2227"/>
<path d="M17.6947 54.5607C17.6947 53.7596 17.0454 53.1105 16.2445 53.1105H1.4502C0.649301 53.1105 0 53.7596 0 54.5607C0 55.3618 0.649301 56.0109 1.4502 56.0109H16.2445C17.0454 56.0109 17.6947 55.3618 17.6947 54.5607Z" fill="#EC2227"/>
<path d="M61.7838 32.0647C62.5849 32.0647 63.234 31.4156 63.234 30.6145V28.4009C63.234 27.5999 62.5849 26.9507 61.7838 26.9507C60.9827 26.9507 60.3336 27.5999 60.3336 28.4009V30.6145C60.3336 31.4156 60.9827 32.0647 61.7838 32.0647Z" fill="#EC2227"/>
<path d="M77.7287 33.5552C77.1622 32.989 76.2441 32.989 75.6777 33.5552L74.1125 35.1204C73.5461 35.687 73.5461 36.605 74.1125 37.1714C74.6792 37.7377 75.5971 37.7375 76.1635 37.1714L77.7287 35.6061C78.2949 35.0398 78.2949 34.1217 77.7287 33.5552Z" fill="#EC2227"/>
<path d="M80.6692 48.0497C79.8682 48.0497 79.219 48.6989 79.219 49.4999C79.219 50.301 79.8682 50.9501 80.6692 50.9501H82.8826C83.6837 50.9501 84.3328 50.301 84.3328 49.4999C84.3328 48.6989 83.6837 48.0497 82.8826 48.0497H80.6692Z" fill="#EC2227"/>
<path d="M76.1635 61.8284C75.5969 61.2622 74.6788 61.2622 74.1125 61.8284C73.5461 62.3949 73.5461 63.313 74.1125 63.8793L75.6777 65.4446C76.2445 66.0109 77.1624 66.0107 77.7287 65.4446C78.2951 64.878 78.2951 63.96 77.7287 63.3936L76.1635 61.8284Z" fill="#EC2227"/>
<path d="M60.3336 68.3854V70.5988C60.3336 71.3998 60.9827 72.049 61.7838 72.049C62.5849 72.049 63.234 71.3998 63.234 70.5988V68.3854C63.234 67.5843 62.5849 66.9352 61.7838 66.9352C60.9827 66.9352 60.3336 67.5845 60.3336 68.3854Z" fill="#EC2227"/>
<path d="M47.4044 61.8284L45.8391 63.3936C45.2728 63.9602 45.2728 64.8782 45.8391 65.4446C46.4057 66.0109 47.3237 66.0107 47.8899 65.4446L49.4552 63.8793C50.0215 63.3128 50.0215 62.3947 49.4552 61.8284C48.889 61.2622 47.9707 61.2622 47.4044 61.8284Z" fill="#EC2227"/>
<path d="M40.6848 48.0497C39.8839 48.0497 39.2346 48.6989 39.2346 49.4999C39.2346 50.301 39.8839 50.9501 40.6848 50.9501H42.8984C43.6992 50.9501 44.3485 50.301 44.3485 49.4999C44.3485 48.6989 43.6992 48.0497 42.8984 48.0497H40.6848Z" fill="#EC2227"/>
<path d="M49.4554 35.1204L47.8902 33.5552C47.3238 32.989 46.4056 32.989 45.8394 33.5552C45.2731 34.1217 45.2731 35.0398 45.8394 35.6061L47.4046 37.1714C47.9712 37.7377 48.8893 37.7375 49.4554 37.1714C50.0218 36.605 50.0218 35.687 49.4554 35.1204Z" fill="#EC2227"/>
<path d="M69.582 49.4999C69.582 48.6988 68.9329 48.0497 68.1318 48.0497H63.234V37.2827C63.234 36.4816 62.5849 35.8325 61.7838 35.8325C60.9827 35.8325 60.3336 36.4816 60.3336 37.2827V49.4999C60.3336 50.301 60.9827 50.9501 61.7838 50.9501H68.1318C68.9327 50.9501 69.582 50.301 69.582 49.4999Z" fill="#EC2227"/>
<path d="M89.2818 49.2606C90.0814 49.2121 90.6901 48.5247 90.6416 47.7254C89.719 32.5074 77.0432 20.5866 61.7836 20.5866C45.8408 20.5866 32.8702 33.5572 32.8702 49.5002C32.8702 65.4431 45.8408 78.4136 61.7836 78.4136C76.0669 78.4136 88.2545 67.9486 90.3747 53.8266C90.4936 53.0346 89.948 52.2962 89.1558 52.1773C88.3657 52.0587 87.6253 52.6038 87.5064 53.3962C85.6018 66.0833 74.6469 75.5134 61.7836 75.5134C47.44 75.5134 35.7706 63.844 35.7706 49.5004C35.7706 35.1568 47.44 23.4872 61.7836 23.4872C75.5123 23.4872 86.9165 34.2111 87.7464 47.9013C87.7947 48.7003 88.4815 49.307 89.2818 49.2606Z" fill="#EC2227"/>
<path d="M61.7839 12.2839C56.6829 12.2839 51.6851 13.3421 47.0851 15.3212H21.4981C20.6972 15.3212 20.0479 15.9703 20.0479 16.7714C20.0479 17.5724 20.6972 18.2216 21.4981 18.2216H41.6293C38.9074 19.9734 36.4016 22.0864 34.1923 24.5258C33.6548 25.1193 33.7 26.0364 34.2936 26.5741C34.8874 27.1118 35.8042 27.0664 36.3421 26.4728C42.8393 19.2988 52.1127 15.1843 61.7839 15.1843C80.7057 15.1843 96.0998 30.5782 96.0998 49.5C96.0998 68.4215 80.7059 83.8156 61.7839 83.8156C42.8622 83.8156 27.4682 68.4217 27.4682 49.5C27.4682 42.8739 29.361 36.4428 32.9417 30.9015C33.3763 30.2288 33.1834 29.3312 32.5107 28.8965C31.838 28.4621 30.9404 28.6546 30.5055 29.3275C26.6209 35.3387 24.5678 42.3141 24.5678 49.5C24.5678 62.6031 31.3753 74.1452 41.6386 80.7783H21.4983C20.6974 80.7783 20.0481 81.4275 20.0481 82.2285C20.0481 83.0296 20.6974 83.6787 21.4983 83.6787H47.0652C51.5821 85.6315 56.5586 86.716 61.7841 86.716C82.305 86.716 99.0002 70.021 99.0002 49.5C99.0002 28.9789 82.305 12.2839 61.7839 12.2839Z" fill="#EC2227"/>
</g>
<defs>
<clipPath id="clip0">
<rect width="99" height="99" fill="white"/>
</clipPath>
</defs>
</svg>
