<svg width="81" height="81" viewBox="0 0 81 81" fill="none" xmlns="http://www.w3.org/2000/svg">
<path d="M4.25627 4.24483H4.75627H11.8734C12.9074 4.24483 13.7457 3.40654 13.7458 2.37247L4.25627 4.24483ZM4.25627 4.24483V4.74483M4.25627 4.24483V4.74483M4.25627 4.74483V12.0201C4.25627 13.0542 3.41795 13.8925 2.38386 13.8925C1.34963 13.8925 0.511444 13.0542 0.511444 12.0201V2.37241C0.511444 1.3383 1.34978 0.5 2.3837 0.5H11.8732M4.25627 4.74483L11.8732 0.5M11.8732 0.5C12.9073 0.5 13.7456 1.33829 13.7458 2.37241L11.8732 0.5Z" fill="#EC2227" stroke="#F7F8FB"/>
<path d="M76.7438 4.74483V4.24483H76.2438H69.1267C68.0925 4.24483 67.2543 3.40653 67.2543 2.37241C67.2543 1.33832 68.0926 0.5 69.1267 0.5H78.6162C79.6503 0.5 80.4886 1.33832 80.4886 2.37241V12.0201C80.4886 13.0542 79.6503 13.8925 78.6162 13.8925C77.5821 13.8925 76.7438 13.0542 76.7438 12.0201V4.74483Z" fill="#EC2227" stroke="#F7F8FB"/>
<path d="M4.25621 76.2324V76.7324H4.75621H11.8733C12.9074 76.7324 13.7457 77.5707 13.7457 78.6048C13.7457 79.6389 12.9074 80.4772 11.8733 80.4772H2.3838C1.34956 80.4772 0.511383 79.6389 0.511383 78.6048V68.9571C0.511383 67.923 1.3497 67.0847 2.3838 67.0847C3.41789 67.0847 4.25621 67.923 4.25621 68.9571V76.2324Z" fill="#EC2227" stroke="#F7F8FB"/>
<path d="M76.2438 76.7324H76.7438V76.2324V68.9571C76.7438 67.923 77.5821 67.0847 78.6162 67.0847C79.6503 67.0847 80.4886 67.923 80.4886 68.9571V78.6048C80.4886 79.6389 79.6503 80.4772 78.6162 80.4772H69.1267C68.0926 80.4772 67.2543 79.6389 67.2543 78.6048C67.2543 77.5707 68.0926 76.7324 69.1267 76.7324H76.2438Z" fill="#EC2227" stroke="#F7F8FB"/>
<path d="M74.4798 19.8952L74.48 19.8953C75.0517 20.2261 75.4107 20.8436 75.4139 21.5049L75.4139 21.5055C75.4137 21.5107 75.4135 21.5186 75.4135 21.528V59.4785L75.4131 59.4856L75.4126 59.5047L75.4125 59.5074C75.4076 59.9406 75.3191 60.2129 75.1799 60.4295C75.0349 60.6551 74.8095 60.861 74.451 61.1213L41.439 80.2476C41.1694 80.4038 40.8369 80.4999 40.5002 80.4999C40.1778 80.4999 39.8409 80.4097 39.5614 80.2477L39.5614 80.2477L6.53062 61.1184L6.53064 61.1184L6.52534 61.1154C5.93875 60.7851 5.57295 60.1557 5.57295 59.4845V21.5277C5.57295 21.5182 5.57271 21.5103 5.57251 21.5052L5.5725 21.5048C5.57567 20.8442 5.9343 20.2267 6.50668 19.895L39.5612 0.752329L39.5613 0.752263C40.1418 0.415912 40.8581 0.415912 41.4385 0.752263L41.4386 0.752284L74.4798 19.8952ZM75.4144 21.4954L75.4142 21.4981L75.4144 21.4954ZM5.57208 21.4955C5.572 21.4939 5.57211 21.4959 5.5722 21.4984L5.57208 21.4955ZM37.8769 74.944L38.6276 75.3789V74.5114V41.873V41.5835L38.3766 41.4394L10.0663 25.1808L9.31731 24.7507V25.6144V55.3894V56.2522L10.0659 55.8232L30.0789 44.3547L30.079 44.3547C30.9763 43.8402 32.1204 44.1503 32.6346 45.0473L32.6347 45.0474C33.1492 45.9444 32.8391 47.0885 31.942 47.603L32.1907 48.0367L31.942 47.603L11.9611 59.0615L11.2086 59.493L11.9592 59.9279L37.8769 74.944ZM40.2509 38.1975L40.5 38.3406L40.7491 38.1975L69.0428 21.9404L69.7942 21.5086L69.0443 21.0742L40.7507 4.68152L40.5 4.5363L40.2494 4.68152L11.9557 21.0742L11.2058 21.5086L11.9572 21.9404L40.2509 38.1975ZM71.1841 55.8894H73.0624L71.684 55.0995V25.6144V24.7507L70.935 25.1808L42.6233 41.4394L42.3723 41.5835V41.873V74.5111V75.3786L43.1229 74.9437L69.0409 59.9275L69.7914 59.4927L69.0389 59.0612L49.058 47.6028L48.8093 48.0366L49.058 47.6028C48.1609 47.0884 47.8508 45.9444 48.3653 45.0472L48.3654 45.0472C48.8797 44.1502 50.0239 43.8402 50.921 44.3545L50.9211 44.3546L70.684 55.679V55.8894H71.184H71.1841Z" fill="#EC2227" stroke="#F7F8FB"/>
</svg>
