<svg width="21" height="21" viewBox="0 0 21 21" fill="none" xmlns="http://www.w3.org/2000/svg">
<path d="M1.64062 7.875H18.7031V11.8125H20.0156V7.875C20.0132 7.64388 19.9498 7.41751 19.8319 7.21875C19.9498 7.01999 20.0132 6.79362 20.0156 6.5625V2.625C20.0156 1.90013 19.428 1.3125 18.7031 1.3125H13.4531V0.65625C13.4531 0.293795 13.1593 0 12.7969 0H7.54688C7.18442 0 6.89062 0.293795 6.89062 0.65625V1.3125H1.64062C0.915756 1.3125 0.328125 1.90013 0.328125 2.625V6.5625C0.330545 6.79362 0.393914 7.01999 0.511875 7.21875C0.393914 7.41751 0.330545 7.64388 0.328125 7.875V11.8125C0.330545 12.0436 0.393914 12.27 0.511875 12.4688C0.393914 12.6675 0.330545 12.8939 0.328125 13.125V17.0625C0.328125 17.7874 0.915756 18.375 1.64062 18.375H2.29688V20.3438C2.29688 20.7062 2.59067 21 2.95312 21H12.7969V19.6875H3.60938V18.375H12.7969V17.0625H1.64062V13.125H13.4531V11.8125H1.64062V7.875ZM1.64062 2.625H18.7031V6.5625H1.64062V2.625Z" fill="#EC2227"/>
<path d="M12.1406 3.9375H2.95312V5.25H12.1406V3.9375Z" fill="#EC2227"/>
<path d="M17.3906 3.9375H16.0781V5.25H17.3906V3.9375Z" fill="#EC2227"/>
<path d="M14.7656 3.9375H13.4531V5.25H14.7656V3.9375Z" fill="#EC2227"/>
<path d="M12.1406 9.1875H2.95312V10.5H12.1406V9.1875Z" fill="#EC2227"/>
<path d="M17.3906 9.1875H16.0781V10.5H17.3906V9.1875Z" fill="#EC2227"/>
<path d="M14.7656 9.1875H13.4531V10.5H14.7656V9.1875Z" fill="#EC2227"/>
<path d="M12.1406 14.4375H2.95312V15.75H12.1406V14.4375Z" fill="#EC2227"/>
<path d="M18.0469 15.75V13.125H16.7344V15.75H14.1094V17.0625H16.7344V19.6875H18.0469V17.0625H20.6719V15.75H18.0469Z" fill="#EC2227"/>
</svg>
