<svg width="46" height="46" viewBox="0 0 46 46" fill="none" xmlns="http://www.w3.org/2000/svg">
<path d="M40.2143 30.9384V13.4188C40.2143 9.18505 36.7619 5.75 32.5019 5.75H25.5845L28.6411 2.70998L25.9137 0L19.565 6.31177C18.8117 7.0587 18.8117 8.2731 19.565 9.02232L25.916 15.3341L28.6428 12.623L25.5845 9.58352L32.5019 9.58525C34.6322 9.58525 36.3569 11.3016 36.3569 13.4188V30.9384C33.0371 31.7935 30.5712 34.7656 30.5712 38.3335C30.5712 42.5672 34.0258 46 38.2859 46C42.5459 46 46 42.5672 46 38.3335C46 34.7656 43.5347 31.7935 40.2143 30.9384ZM38.2859 42.1665C36.1556 42.1665 34.4285 40.4507 34.4285 38.3335C34.4285 36.2164 36.1556 34.5 38.2859 34.5C40.4162 34.5 42.1426 36.2164 42.1426 38.3335C42.1426 40.4507 40.4162 42.1665 38.2859 42.1665Z" fill="#EC2227"/>
<path d="M26.435 36.9782L20.0846 30.6665L17.3572 33.377L20.4155 36.4165L13.4981 36.4147C11.3678 36.4147 9.64308 34.6984 9.64308 32.5812V15.0616C12.9653 14.2065 15.4288 11.2344 15.4288 7.66647C15.4288 3.43333 11.9742 0 7.71412 0C3.45408 0 0 3.43333 0 7.66647C0 11.2344 2.46357 14.2065 5.78573 15.0616V32.5812C5.78573 36.8149 9.23808 40.25 13.4981 40.25H20.4155L17.3589 43.2895L20.0863 46L26.435 39.6882C27.1883 38.9419 27.1883 37.7269 26.435 36.9782ZM7.71412 11.5C5.58381 11.5 3.85735 9.78362 3.85735 7.66647C3.85735 5.5499 5.58381 3.83295 7.71412 3.83295C9.84443 3.83295 11.5715 5.5499 11.5715 7.66647C11.5715 9.78362 9.84443 11.5 7.71412 11.5Z" fill="#EC2227"/>
</svg>
