<svg width="64" height="64" viewBox="0 0 64 64" fill="none" xmlns="http://www.w3.org/2000/svg">
<g clip-path="url(#clip0)">
<path d="M38.875 25.125C40.0486 25.125 41 24.1736 41 23C41 21.8264 40.0486 20.875 38.875 20.875C37.7014 20.875 36.75 21.8264 36.75 23C36.75 24.1736 37.7014 25.125 38.875 25.125Z" fill="#EC2227"/>
<path d="M50.875 43.125C52.0486 43.125 53 42.1736 53 41C53 39.8264 52.0486 38.875 50.875 38.875C49.7014 38.875 48.75 39.8264 48.75 41C48.75 42.1736 49.7014 43.125 50.875 43.125Z" fill="#EC2227"/>
<path d="M62.1233 0H26.9775C25.942 0 25.1025 0.8395 25.1025 1.875V64H62.1233C63.1588 64 63.9983 63.1605 63.9983 62.125V1.875C63.9983 0.8395 63.1588 0 62.1233 0ZM40.7483 28.5664V53C40.7483 54.0355 39.9088 54.875 38.8733 54.875C37.8378 54.875 36.9983 54.0355 36.9983 53V28.5664C34.6758 27.782 32.9983 25.584 32.9983 23C32.9983 20.416 34.6758 18.218 36.9983 17.4336V11C36.9983 9.9645 37.8378 9.125 38.8733 9.125C39.9088 9.125 40.7483 9.9645 40.7483 11V17.4336C43.0708 18.218 44.7483 20.416 44.7483 23C44.7483 25.584 43.0708 27.782 40.7483 28.5664ZM52.7483 46.5664V53C52.7483 54.0355 51.9088 54.875 50.8733 54.875C49.8378 54.875 48.9983 54.0355 48.9983 53V46.5664C46.6758 45.782 44.9983 43.584 44.9983 41C44.9983 38.416 46.6758 36.218 48.9983 35.4336V11C48.9983 9.9645 49.8378 9.125 50.8733 9.125C51.9088 9.125 52.7483 9.9645 52.7483 11V35.4336C55.0708 36.218 56.7483 38.416 56.7483 41C56.7483 43.584 55.0708 45.782 52.7483 46.5664Z" fill="#EC2227"/>
<path d="M15.1505 23.6021V26.7919C14.9421 26.8736 14.7355 26.9594 14.5306 27.0492L12.2745 24.7931C11.6441 24.1627 10.657 24.0634 9.91375 24.5555C8.60187 25.4237 7.37075 26.43 6.25413 27.5465C5.13625 28.6645 4.12988 29.8959 3.26312 31.2062C2.7715 31.9496 2.871 32.9362 3.50113 33.5665L5.75712 35.8225C5.66725 36.0276 5.58138 36.2342 5.49963 36.4427H2.31C1.41875 36.4427 0.650625 37.0702 0.47275 37.9435C0.159125 39.4832 0 41.0656 0 42.6463C0 44.2271 0.159125 45.8093 0.47275 47.3492C0.650625 48.2224 1.41875 48.8499 2.31 48.8499H5.49963C5.58138 49.0584 5.66725 49.2653 5.757 49.4702L3.5015 51.7258C2.87137 52.3559 2.77175 53.3427 3.26338 54.0859C4.13025 55.3966 5.13662 56.6279 6.25475 57.7461C7.37237 58.8636 8.60363 59.8698 9.91438 60.7369C10.6578 61.2287 11.6445 61.1293 12.2747 60.499L14.5304 58.2434C14.7354 58.3334 14.9421 58.4192 15.1506 58.5009V61.6902C15.1506 62.5815 15.7781 63.3495 16.6515 63.5274C18.1928 63.8413 19.775 64.0004 21.3542 64.0004V47.2643C18.8078 47.2643 16.7361 45.1927 16.7361 42.6463C16.7361 40.0998 18.8079 38.0282 21.3542 38.0282V21.2968C19.7722 21.2968 18.1914 21.4509 16.6513 21.7648C15.7779 21.9428 15.1505 22.7109 15.1505 23.6021Z" fill="#EC2227"/>
</g>
<defs>
<clipPath id="clip0">
<rect width="64" height="64" fill="white"/>
</clipPath>
</defs>
</svg>
