<svg width="60" height="60" viewBox="0 0 60 60" fill="none" xmlns="http://www.w3.org/2000/svg">
<path d="M31.875 3.75H5.625C4.58947 3.75 3.75 4.58947 3.75 5.625V28.125C3.75 29.1605 4.58947 30 5.625 30H31.875C32.9105 30 33.75 29.1605 33.75 28.125V5.625C33.75 4.58947 32.9105 3.75 31.875 3.75Z" stroke="#EC2227" stroke-width="3" stroke-miterlimit="10"/>
<path d="M3.75 16.875H33.75" stroke="#EC2227" stroke-width="3" stroke-miterlimit="10"/>
<path d="M7.5 9.375H11.25" stroke="#EC2227" stroke-width="3" stroke-miterlimit="10"/>
<path d="M20.625 9.375H24.375" stroke="#EC2227" stroke-width="3" stroke-miterlimit="10"/>
<path d="M26.25 9.375H30" stroke="#EC2227" stroke-width="3" stroke-miterlimit="10"/>
<path d="M7.5 22.5H11.25" stroke="#EC2227" stroke-width="3" stroke-miterlimit="10"/>
<path d="M20.625 22.5H24.375" stroke="#EC2227" stroke-width="3" stroke-miterlimit="10"/>
<path d="M26.25 22.5H30" stroke="#EC2227" stroke-width="3" stroke-miterlimit="10"/>
<path d="M54.375 30H28.125C27.0895 30 26.25 30.8395 26.25 31.875V54.375C26.25 55.4105 27.0895 56.25 28.125 56.25H54.375C55.4105 56.25 56.25 55.4105 56.25 54.375V31.875C56.25 30.8395 55.4105 30 54.375 30Z" stroke="#EC2227" stroke-width="3" stroke-miterlimit="10"/>
<path d="M26.25 43.125H56.25" stroke="#EC2227" stroke-width="3" stroke-miterlimit="10"/>
<path d="M30 35.625H33.75" stroke="#EC2227" stroke-width="3" stroke-miterlimit="10"/>
<path d="M43.125 35.625H46.875" stroke="#EC2227" stroke-width="3" stroke-miterlimit="10"/>
<path d="M48.75 35.625H52.5" stroke="#EC2227" stroke-width="3" stroke-miterlimit="10"/>
<path d="M30 48.75H33.75" stroke="#EC2227" stroke-width="3" stroke-miterlimit="10"/>
<path d="M43.125 48.75H46.875" stroke="#EC2227" stroke-width="3" stroke-miterlimit="10"/>
<path d="M48.75 48.75H52.5" stroke="#EC2227" stroke-width="3" stroke-miterlimit="10"/>
<path d="M39.375 9.375H46.875C47.3723 9.375 47.8492 9.57254 48.2008 9.92418C48.5525 10.2758 48.75 10.7527 48.75 11.25V22.5" stroke="#EC2227" stroke-width="3" stroke-miterlimit="10" stroke-linecap="round"/>
<path d="M43.125 16.875L48.75 22.5L54.375 16.875" stroke="#EC2227" stroke-width="3" stroke-miterlimit="10"/>
<path d="M20.625 50.625H13.125C12.6277 50.625 12.1508 50.4275 11.7992 50.0758C11.4475 49.7242 11.25 49.2473 11.25 48.75V37.5" stroke="#EC2227" stroke-width="3" stroke-miterlimit="10" stroke-linecap="round"/>
<path d="M16.875 43.125L11.25 37.5L5.625 43.125" stroke="#EC2227" stroke-width="3" stroke-miterlimit="10"/>
</svg>
