<svg width="60" height="60" viewBox="0 0 60 60" fill="none" xmlns="http://www.w3.org/2000/svg">
<path d="M30 20.625C32.4864 20.625 34.871 21.6127 36.6291 23.3709C38.3873 25.129 39.375 27.5136 39.375 30V35.625H20.625V30C20.625 27.5136 21.6127 25.129 23.3709 23.3709C25.129 21.6127 27.5136 20.625 30 20.625V20.625Z" stroke="#EC2227" stroke-width="3" stroke-miterlimit="10" stroke-linecap="round"/>
<path d="M57.1406 46.875H33.75" stroke="#EC2227" stroke-width="3" stroke-miterlimit="10"/>
<path d="M50.625 41.25L56.25 46.875L50.625 52.5" stroke="#EC2227" stroke-width="3" stroke-miterlimit="10"/>
<path d="M30 50.625C32.0711 50.625 33.75 48.9461 33.75 46.875C33.75 44.8039 32.0711 43.125 30 43.125C27.9289 43.125 26.25 44.8039 26.25 46.875C26.25 48.9461 27.9289 50.625 30 50.625Z" stroke="#EC2227" stroke-width="3" stroke-miterlimit="10"/>
<path d="M41.25 35.625H18.75C17.7145 35.625 16.875 36.4645 16.875 37.5V56.25C16.875 57.2855 17.7145 58.125 18.75 58.125H41.25C42.2855 58.125 43.125 57.2855 43.125 56.25V37.5C43.125 36.4645 42.2855 35.625 41.25 35.625Z" stroke="#EC2227" stroke-width="3" stroke-miterlimit="10" stroke-linecap="round"/>
<path d="M26.25 46.875H16.875C14.0269 46.8747 11.2562 45.9481 8.98089 44.2349C6.70561 42.5218 5.04925 40.1152 4.26175 37.3781C3.47425 34.641 3.59833 31.7221 4.61528 29.0617C5.63223 26.4014 7.48686 24.144 9.89931 22.6301" stroke="#EC2227" stroke-width="3" stroke-miterlimit="10" stroke-linecap="round"/>
<path d="M39.375 35.625H48.75C50.7391 35.625 52.6468 34.8348 54.0533 33.4283C55.4598 32.0218 56.25 30.1141 56.25 28.125C56.25 26.1359 55.4598 24.2282 54.0533 22.8217C52.6468 21.4152 50.7391 20.625 48.75 20.625H46.8187C46.8469 20.3156 46.875 20.0063 46.875 19.6875C46.8748 17.4498 45.9858 15.3038 44.4035 13.7215C42.8212 12.1392 40.6752 11.2502 38.4375 11.25C38.0893 11.251 37.7416 11.276 37.3969 11.325C35.7598 8.44956 33.2175 6.19641 30.1662 4.91671C27.1149 3.63701 23.726 3.40265 20.5276 4.25014C17.3292 5.09763 14.5009 6.97937 12.4837 9.6021C10.4664 12.2248 9.37338 15.4412 9.37499 18.75C9.3819 20.061 9.55836 21.3656 9.89999 22.6313" stroke="#EC2227" stroke-width="3" stroke-miterlimit="10" stroke-linecap="round"/>
</svg>
