<svg width="60" height="60" viewBox="0 0 60 60" fill="none" xmlns="http://www.w3.org/2000/svg">
<path d="M41.4047 13.0238C41.1584 10.5853 40.0515 8.31439 38.2825 6.61816C36.5134 4.92193 34.198 3.91139 31.7514 3.76774C29.3047 3.62408 26.8869 4.35672 24.9316 5.83427C22.9762 7.31182 21.6111 9.43762 21.0812 11.8305C20.2264 11.7176 19.3576 11.7814 18.5285 12.0179C17.6994 12.2544 16.9276 12.6586 16.2611 13.2054C15.5945 13.7522 15.0473 14.4301 14.6533 15.197C14.2593 15.9638 14.0269 16.8034 13.9705 17.6638C13.9141 18.5241 14.035 19.3868 14.3255 20.1986C14.6161 21.0103 15.0702 21.7538 15.6597 22.3829C16.2492 23.0121 16.9616 23.5135 17.7528 23.8561C18.544 24.1988 19.397 24.3754 20.2592 24.375H40.3113C41.7356 24.3753 43.1089 23.8449 44.1633 22.8873C45.2177 21.9298 45.8775 20.6138 46.0141 19.196C46.1506 17.7783 45.7541 16.3606 44.9019 15.2194C44.0496 14.0782 42.8028 13.2954 41.4047 13.0238Z" stroke="#EC2227" stroke-width="3" stroke-miterlimit="10" stroke-linecap="round"/>
<path d="M16.875 39.375H5.625V56.25H16.875V39.375Z" stroke="#EC2227" stroke-width="3" stroke-miterlimit="10" stroke-linecap="round"/>
<path d="M54.375 39.375H43.125V56.25H54.375V39.375Z" stroke="#EC2227" stroke-width="3" stroke-miterlimit="10" stroke-linecap="round"/>
<path d="M11.25 39.375V31.875H48.75V39.375" stroke="#EC2227" stroke-width="3" stroke-miterlimit="10" stroke-linecap="round"/>
<path d="M30 24.375V39.375" stroke="#EC2227" stroke-width="3" stroke-miterlimit="10"/>
<path d="M13.1249 48.75H9.37518" stroke="#EC2227" stroke-width="3" stroke-miterlimit="10"/>
<path d="M46.8751 48.75H50.6248" stroke="#EC2227" stroke-width="3" stroke-miterlimit="10"/>
<path d="M35.625 39.375H24.375V56.25H35.625V39.375Z" stroke="#EC2227" stroke-width="3" stroke-miterlimit="10" stroke-linecap="round"/>
<path d="M28.1251 48.75H31.8748" stroke="#EC2227" stroke-width="3" stroke-miterlimit="10"/>
</svg>
