<svg width="60" height="60" viewBox="0 0 60 60" fill="none" xmlns="http://www.w3.org/2000/svg">
<path d="M16.8737 40H19.9987C20.3302 40 20.6481 39.8683 20.8826 39.6339C21.117 39.3995 21.2487 39.0815 21.2487 38.75C21.2487 38.4185 21.117 38.1005 20.8826 37.8661C20.6481 37.6317 20.3302 37.5 19.9987 37.5H18.7487C18.7487 37.1685 18.617 36.8505 18.3826 36.6161C18.1481 36.3817 17.8302 36.25 17.4987 36.25C17.1672 36.25 16.8492 36.3817 16.6148 36.6161C16.3804 36.8505 16.2487 37.1685 16.2487 37.5V37.5625C15.4892 37.7167 14.8141 38.1476 14.3545 38.7716C13.8949 39.3955 13.6835 40.168 13.7614 40.9391C13.8392 41.7101 14.2008 42.4247 14.776 42.9441C15.3511 43.4636 16.0987 43.7508 16.8737 43.75H18.1237C18.2894 43.75 18.4484 43.8158 18.5656 43.9331C18.6828 44.0503 18.7487 44.2092 18.7487 44.375C18.7487 44.5408 18.6828 44.6997 18.5656 44.8169C18.4484 44.9342 18.2894 45 18.1237 45H14.9987C14.6672 45 14.3492 45.1317 14.1148 45.3661C13.8804 45.6005 13.7487 45.9185 13.7487 46.25C13.7487 46.5815 13.8804 46.8995 14.1148 47.1339C14.3492 47.3683 14.6672 47.5 14.9987 47.5H16.2487C16.2487 47.8315 16.3804 48.1495 16.6148 48.3839C16.8492 48.6183 17.1672 48.75 17.4987 48.75C17.8302 48.75 18.1481 48.6183 18.3826 48.3839C18.617 48.1495 18.7487 47.8315 18.7487 47.5C19.5775 47.4171 20.3394 47.0084 20.8669 46.3637C21.3943 45.7191 21.6441 44.8913 21.5612 44.0625C21.4783 43.2337 21.0696 42.4718 20.4249 41.9443C19.7803 41.4169 18.9525 41.1671 18.1237 41.25H16.8737C16.7079 41.25 16.5489 41.1842 16.4317 41.0669C16.3145 40.9497 16.2487 40.7908 16.2487 40.625C16.2487 40.4592 16.3145 40.3003 16.4317 40.1831C16.5489 40.0658 16.7079 40 16.8737 40Z" fill="#EC2227"/>
<path d="M28.7488 28.75H22.4988C22.1672 28.75 21.8493 28.8817 21.6149 29.1161C21.3805 29.3505 21.2488 29.6685 21.2488 30V33.225C19.7268 32.6124 18.0775 32.3836 16.4463 32.5589C14.8151 32.7342 13.2521 33.3081 11.8951 34.2301C10.538 35.1521 9.42866 36.3937 8.66479 37.8457C7.90092 39.2976 7.50601 40.9151 7.51487 42.5557C7.52373 44.1963 7.9361 45.8095 8.71561 47.2531C9.49512 48.6966 10.6178 49.9263 11.9847 50.8335C13.3517 51.7408 14.9208 52.2978 16.5538 52.4554C18.1868 52.6131 19.8335 52.3665 21.3488 51.7375C21.4445 51.9634 21.6045 52.1562 21.809 52.2918C22.0135 52.4274 22.2534 52.4998 22.4988 52.5H28.7488C29.0803 52.5 29.3982 52.3683 29.6326 52.1339C29.8671 51.8995 29.9988 51.5815 29.9988 51.25V30C29.9988 29.6685 29.8671 29.3505 29.6326 29.1161C29.3982 28.8817 29.0803 28.75 28.7488 28.75ZM9.99876 42.5C9.99876 40.5109 10.7889 38.6032 12.1955 37.1967C13.602 35.7902 15.5096 35 17.4988 35C19.0337 34.9921 20.5328 35.4641 21.7863 36.35C22.7765 37.0412 23.5852 37.9612 24.1435 39.032C24.7019 40.1027 24.9935 41.2924 24.9935 42.5C24.9935 43.7076 24.7019 44.8973 24.1435 45.968C23.5852 47.0388 22.7765 47.9588 21.7863 48.65C20.5347 49.5398 19.0343 50.0122 17.4988 50C15.5096 50 13.602 49.2098 12.1955 47.8033C10.7889 46.3968 9.99876 44.4891 9.99876 42.5ZM27.4988 42.5V50H24.1113C24.3113 49.825 24.5113 49.625 24.6988 49.4375L24.9738 49.1375C25.151 48.9378 25.3179 48.7292 25.4738 48.5125L25.5363 48.4375C25.7113 48.1875 25.8738 47.95 26.0363 47.6875C26.0363 47.6875 26.0988 47.5875 26.1238 47.525C26.2553 47.308 26.3722 47.0825 26.4738 46.85C26.6012 46.5984 26.7139 46.3397 26.8113 46.075C26.8863 45.9 26.9488 45.7 27.0113 45.5125C27.2403 44.8852 27.4036 44.2359 27.4988 43.575C27.4988 43.4 27.4988 43.225 27.4988 43.0375C27.4988 42.85 27.4988 42.675 27.4988 42.5C27.4996 41.9341 27.4494 41.3693 27.3488 40.8125C27.3488 40.6625 27.3488 40.5125 27.2613 40.3625C27.2219 40.1465 27.1676 39.9335 27.0988 39.725C27.0646 39.5894 27.0229 39.4559 26.9738 39.325C26.8749 38.9946 26.7495 38.6727 26.5988 38.3625C26.5238 38.2 26.4488 38.0375 26.3613 37.875C26.2738 37.7125 26.1863 37.5375 26.0863 37.375C25.7717 36.8342 25.4076 36.3236 24.9988 35.85C24.8738 35.7125 24.7488 35.575 24.6113 35.45L24.2113 35.0625L23.7488 34.7V31.25H27.4988V42.5Z" fill="#EC2227"/>
<path d="M40 18.75H33.75C33.4185 18.75 33.1005 18.8817 32.8661 19.1161C32.6317 19.3505 32.5 19.6685 32.5 20V51.25C32.5 51.5815 32.6317 51.8995 32.8661 52.1339C33.1005 52.3683 33.4185 52.5 33.75 52.5H40C40.3315 52.5 40.6495 52.3683 40.8839 52.1339C41.1183 51.8995 41.25 51.5815 41.25 51.25V20C41.25 19.6685 41.1183 19.3505 40.8839 19.1161C40.6495 18.8817 40.3315 18.75 40 18.75ZM38.75 50H35V21.25H38.75V50Z" fill="#EC2227"/>
<path d="M51.25 10H45C44.6685 10 44.3505 10.1317 44.1161 10.3661C43.8817 10.6005 43.75 10.9185 43.75 11.25V51.25C43.75 51.5815 43.8817 51.8995 44.1161 52.1339C44.3505 52.3683 44.6685 52.5 45 52.5H51.25C51.5815 52.5 51.8995 52.3683 52.1339 52.1339C52.3683 51.8995 52.5 51.5815 52.5 51.25V11.25C52.5 10.9185 52.3683 10.6005 52.1339 10.3661C51.8995 10.1317 51.5815 10 51.25 10ZM50 50H46.25V12.5H50V50Z" fill="#EC2227"/>
</svg>
