<svg width="64" height="64" viewBox="0 0 64 64" fill="none" xmlns="http://www.w3.org/2000/svg">
<path d="M44.1681 13.892C43.9054 11.291 42.7247 8.86868 40.8377 7.05937C38.9508 5.25006 36.481 4.17215 33.8712 4.01892C31.2615 3.86569 28.6825 4.64717 26.5968 6.22322C24.5111 7.79927 23.055 10.0668 22.4897 12.6192C21.578 12.4988 20.6512 12.5668 19.7668 12.8191C18.8825 13.0713 18.0593 13.5025 17.3483 14.0857C16.6372 14.669 16.0535 15.3921 15.6333 16.2101C15.213 17.0281 14.9651 17.9237 14.905 18.8414C14.8449 19.759 14.9738 20.6793 15.2837 21.5452C15.5936 22.411 16.078 23.204 16.7068 23.8751C17.3356 24.5462 18.0955 25.081 18.9394 25.4465C19.7833 25.8121 20.6933 26.0004 21.6129 26H43.0018C44.5211 26.0003 45.9859 25.4345 47.1106 24.4132C48.2353 23.3918 48.9391 21.988 49.0848 20.4758C49.2304 18.9635 48.8075 17.4513 47.8985 16.234C46.9894 15.0167 45.6595 14.1818 44.1681 13.892Z" stroke="#EC2227" stroke-width="2" stroke-miterlimit="10" stroke-linecap="round"/>
<path d="M18 42H6V60H18V42Z" stroke="#EC2227" stroke-width="2" stroke-miterlimit="10" stroke-linecap="round"/>
<path d="M58 42H46V60H58V42Z" stroke="#EC2227" stroke-width="2" stroke-miterlimit="10" stroke-linecap="round"/>
<path d="M12 42V34H52V42" stroke="#EC2227" stroke-width="2" stroke-miterlimit="10" stroke-linecap="round"/>
<path d="M32 26V42" stroke="#EC2227" stroke-width="2" stroke-miterlimit="10"/>
<path d="M13.9999 52H10.0002" stroke="#EC2227" stroke-width="2" stroke-miterlimit="10"/>
<path d="M50.0001 52H53.9998" stroke="#EC2227" stroke-width="2" stroke-miterlimit="10"/>
<path d="M38 42H26V60H38V42Z" stroke="#EC2227" stroke-width="2" stroke-miterlimit="10" stroke-linecap="round"/>
<path d="M30.0001 52H33.9998" stroke="#EC2227" stroke-width="2" stroke-miterlimit="10"/>
</svg>
