<svg width="64" height="64" viewBox="0 0 64 64" fill="none" xmlns="http://www.w3.org/2000/svg">
<path d="M56 6H8C5.79086 6 4 7.79086 4 10V44C4 46.2091 5.79086 48 8 48H56C58.2091 48 60 46.2091 60 44V10C60 7.79086 58.2091 6 56 6Z" stroke="#EC2227" stroke-width="2" stroke-miterlimit="10"/>
<path d="M48 60H46C44.4087 60 42.8826 59.3679 41.7574 58.2426C40.6321 57.1174 40 55.5913 40 54V48H24V54C24 55.5913 23.3679 57.1174 22.2426 58.2426C21.1174 59.3679 19.5913 60 18 60H48Z" stroke="#EC2227" stroke-width="2" stroke-miterlimit="10"/>
<path d="M4 40H60" stroke="#EC2227" stroke-width="2" stroke-miterlimit="10"/>
<path d="M41 21.9999C40.6488 22.0003 40.2985 22.0375 39.9551 22.1111C39.8413 20.9277 39.4942 19.7786 38.9337 18.7302C38.3732 17.6818 37.6106 16.7548 36.6898 16.0029C35.769 15.2509 34.7083 14.6889 33.569 14.3492C32.4297 14.0095 31.2345 13.899 30.0522 14.024C28.87 14.149 27.7242 14.507 26.6811 15.0773C25.6381 15.6477 24.7183 16.4191 23.9751 17.3469C23.2319 18.2748 22.6799 19.3408 22.351 20.4832C22.0222 21.6256 21.923 22.8219 22.0591 24.0029C22.0392 24.0026 22.02 23.9999 22 23.9999C20.9391 23.9999 19.9217 24.4214 19.1716 25.1715C18.4214 25.9216 18 26.9391 18 27.9999C18 29.0608 18.4214 30.0782 19.1716 30.8284C19.9217 31.5785 20.9391 31.9999 22 31.9999H41C42.3261 31.9999 43.5979 31.4731 44.5355 30.5355C45.4732 29.5978 46 28.326 46 26.9999C46 25.6738 45.4732 24.4021 44.5355 23.4644C43.5979 22.5267 42.3261 21.9999 41 21.9999V21.9999Z" stroke="#EC2227" stroke-width="2" stroke-miterlimit="10" stroke-linecap="round"/>
</svg>
