<svg width="64" height="64" viewBox="0 0 64 64" fill="none" xmlns="http://www.w3.org/2000/svg">
<path d="M17.0667 40.8357V23.1641C20.7415 22.2124 23.4667 18.9042 23.4667 14.933C23.4667 10.2207 19.6452 6.3999 14.9329 6.3999C10.2206 6.3999 6.39978 10.2207 6.39978 14.933C6.39978 18.9042 9.1249 22.2124 12.7998 23.1641V40.8351C9.1249 41.7868 6.39978 45.0949 6.39978 49.0661C6.39978 53.7791 10.2206 57.5999 14.9329 57.5999C19.6452 57.5999 23.4667 53.7791 23.4667 49.0668C23.4667 45.0956 20.7415 41.7874 17.0667 40.8357ZM10.6667 14.933C10.6667 12.5765 12.5764 10.6668 14.9329 10.6668C17.2894 10.6668 19.1998 12.5765 19.1998 14.933C19.1998 17.2895 17.2894 19.1999 14.9329 19.1999C12.5764 19.1999 10.6667 17.2895 10.6667 14.933ZM14.9329 53.333C12.5764 53.333 10.6667 51.4233 10.6667 49.0668C10.6667 46.7103 12.5764 44.7999 14.9329 44.7999C17.2894 44.7999 19.1998 46.7103 19.1998 49.0668C19.1998 51.4233 17.2894 53.333 14.9329 53.333Z" fill="#EC2227"/>
<path d="M51.2022 40.8357V21.333C51.2022 16.6233 47.3833 12.7999 42.671 12.7999H35.0191L38.4002 9.41686L35.3833 6.3999L28.3606 13.4252C27.5273 14.2565 27.5273 15.6082 28.3606 16.4421L35.3858 23.4674L38.4022 20.4498L35.0191 17.0668H42.671C45.0274 17.0668 46.9353 18.9791 46.9353 21.333V40.8357C43.263 41.7874 40.5353 45.0956 40.5353 49.0668C40.5353 53.7791 44.3567 57.5999 49.069 57.5999C53.7814 57.5999 57.6022 53.7791 57.6022 49.0668C57.6022 45.0956 54.8751 41.7874 51.2022 40.8357ZM49.069 53.333C46.7126 53.333 44.8022 51.4233 44.8022 49.0668C44.8022 46.7103 46.7126 44.7999 49.069 44.7999C51.4255 44.7999 53.3353 46.7103 53.3353 49.0668C53.3353 51.4233 51.4255 53.333 49.069 53.333Z" fill="#EC2227"/>
</svg>
