<svg width="64" height="64" viewBox="0 0 64 64" fill="none" xmlns="http://www.w3.org/2000/svg">
<path d="M51.1998 23.4661H36.2667V6.3999H6.39981V38.3999C6.39981 43.1097 10.2206 46.933 14.9329 46.933H27.7329V57.5999H57.5998V29.8661C57.5998 26.3333 54.7332 23.4661 51.1998 23.4661ZM19.1998 29.8661V38.3999C19.1998 40.7538 17.2894 42.6661 14.9329 42.6661C12.5765 42.6661 10.6667 40.7538 10.6667 38.3999V10.6668H31.9998V23.4668H25.5998C22.0664 23.4661 19.1998 26.3333 19.1998 29.8661ZM27.7329 42.6661H22.2827C23.0161 41.406 23.4667 39.9621 23.4667 38.3999V29.8661C23.4667 28.6898 24.4203 27.7337 25.5998 27.7337C26.7793 27.7337 27.7329 28.6898 27.7329 29.8661V42.6661ZM53.3329 53.333H31.9998V29.8661C31.9998 29.1148 31.8456 28.4037 31.6081 27.7337H51.1998C52.3768 27.7337 53.3329 28.6873 53.3329 29.8661V53.333Z" fill="white"/>
<path d="M27.7335 14.9338H14.9335V19.2001H27.7335V14.9338Z" fill="white"/>
<path d="M49.0644 32H36.2644V36.2662H49.0644V32Z" fill="white"/>
<path d="M49.0644 40.5337H36.2644V44.7999H49.0644V40.5337Z" fill="white"/>
</svg>
