<svg width="64" height="64" viewBox="0 0 64 64" fill="none" xmlns="http://www.w3.org/2000/svg">
<g clip-path="url(#clip0)">
<path d="M18 40H15.3212C12.5253 40.0322 9.81819 39.0186 7.73101 37.158C5.64383 35.2974 4.3272 32.724 4.03939 29.9428C3.81989 27.3763 4.50852 24.8142 5.98514 22.7036C7.46175 20.593 9.63259 19.0679 12.1188 18.3944C11.8496 16.7052 12.0684 14.9743 12.7494 13.4053C13.4304 11.8362 14.5453 10.4943 15.963 9.53726C17.3807 8.58025 19.0422 8.04799 20.752 8.00308C22.4619 7.95817 24.149 8.40248 25.615 9.28375C26.8181 7.30269 28.6168 5.75286 30.754 4.85595C32.8912 3.95904 35.2573 3.76101 37.5138 4.29018C39.7704 4.81934 41.8017 6.0486 43.3174 7.80212C44.833 9.55563 45.7553 11.7436 45.9522 14.0529C46.2988 14.0252 46.6462 14 47 14C48.7601 14 50.5019 14.3575 52.1197 15.0506C53.7376 15.7438 55.1979 16.7583 56.412 18.0326C57.6262 19.3069 58.5689 20.8145 59.1831 22.4639C59.7973 24.1134 60.0702 25.8704 59.9852 27.6285C59.763 31.0066 58.2554 34.1713 55.7721 36.4723C53.2888 38.7732 50.0185 40.0356 46.6333 40H46" stroke="#EC2227" stroke-width="2" stroke-miterlimit="10"/>
<path d="M47.9985 53C48.0039 55.1574 47.2257 57.2434 45.8085 58.87C43.1939 56.752 40.1233 55.2698 36.8385 54.54C38.367 51.218 39.3561 47.6735 39.7685 44.04C42.0138 44.2299 44.1059 45.2562 45.6302 46.9157C47.1545 48.5752 47.9998 50.7467 47.9985 53V53Z" stroke="#EC2227" stroke-width="2" stroke-miterlimit="10"/>
<path d="M27.16 54.54C23.8752 55.2698 20.8046 56.752 18.19 58.87C17.1055 57.6166 16.3889 56.0875 16.1195 54.4521C15.8501 52.8166 16.0384 51.1385 16.6636 49.6034C17.2888 48.0683 18.3265 46.7361 19.6619 45.7542C20.9973 44.7724 22.5783 44.1791 24.23 44.04C24.6425 47.6735 25.6316 51.218 27.16 54.54V54.54Z" stroke="#EC2227" stroke-width="2" stroke-miterlimit="10"/>
<path d="M40 40.0002C40.0135 46.3422 38.2913 52.567 35.02 58.0002H28.98C25.2627 51.7961 23.5573 44.5933 24.098 37.381C24.6388 30.1687 27.3991 23.3007 32 17.7202C37.1821 23.9874 40.0118 31.8681 40 40.0002V40.0002Z" stroke="#EC2227" stroke-width="2" stroke-miterlimit="10"/>
<path d="M40 40.0002C40.0135 46.3422 38.2913 52.567 35.02 58.0002H28.98C25.2627 51.7961 23.5573 44.5933 24.098 37.381C24.6388 30.1687 27.3991 23.3007 32 17.7202C37.1821 23.9874 40.0118 31.8681 40 40.0002V40.0002Z" stroke="#EC2227" stroke-width="2" stroke-miterlimit="10"/>
<path d="M32 44V58" stroke="#EC2227" stroke-width="2" stroke-miterlimit="10" stroke-linecap="round"/>
</g>
<defs>
<clipPath id="clip0">
<rect width="64" height="64" fill="white"/>
</clipPath>
</defs>
</svg>
